"ID","Property","Value","5 triple summary","10 triple summary"
"1","http://xmlns.com/foaf/0.1/homepage","http://www.allstate.com","x","x"
"2","http://dbpedia.org/ontology/industry","Insurance","x","x"
"3","http://dbpedia.org/property/industry","Insurance",,
"4","http://dbpedia.org/property/keyPeople","Thomas J. Wilson","x","x"
"5","http://dbpedia.org/ontology/keyPerson","President",,
"6","http://dbpedia.org/ontology/keyPerson","Thomas J. Wilson",,
"7","http://dbpedia.org/ontology/keyPerson","Chief executive officer",,
"8","http://dbpedia.org/ontology/keyPerson","Chairman",,
"9","http://dbpedia.org/ontology/location","United States",,
"10","http://dbpedia.org/ontology/location","Northfield Township, Cook County, Illinois","x","x"
"11","http://dbpedia.org/property/location","United States",,
"12","http://dbpedia.org/property/location","Northfield Township, Cook County, Illinois",,
"13","http://dbpedia.org/property/netIncome","US$ 788 million",,
"14","http://dbpedia.org/property/operatingIncome","US$ 960 million",,
"15","http://dbpedia.org/ontology/product","Business","x","x"
"16","http://dbpedia.org/ontology/product","Bank",,
"17","http://dbpedia.org/ontology/product","Investment",,"x"
"18","http://dbpedia.org/ontology/product","Life insurance",,
"19","http://dbpedia.org/ontology/product","Home insurance",,"x"
"20","http://dbpedia.org/ontology/product","Vehicle insurance",,
"21","http://dbpedia.org/property/revenue","US$ 32.654 billion",,"x"
"22","http://dbpedia.org/property/subsid","Esurance",,"x"
"23","http://dbpedia.org/property/subsid","Encompass Insurance Company",,
"24","http://dbpedia.org/ontology/subsidiary","Esurance",,
"25","http://dbpedia.org/ontology/subsidiary","Encompass Insurance Company",,
"26","http://dbpedia.org/property/tradedAs","S&P 500",,"x"
"27","http://dbpedia.org/ontology/type","Public company",,
"28","http://dbpedia.org/property/type","Public company",,
"type","company, insurance company"
"Wiki article link","https://en.wikipedia.org/wiki/Allstate"
