"ID","Property","Value","5 triple summary","10 triple summary"
"1","http://dbpedia.org/property/associatedActs","Toiling Midgets",,"x"
"2","http://dbpedia.org/property/associatedActs","Flipper (band)",,
"3","http://dbpedia.org/property/associatedActs","Crime (band)",,
"4","http://dbpedia.org/property/associatedActs","The Sleepers (San Francisco band)",,
"5","http://dbpedia.org/ontology/associatedBand","Toiling Midgets",,
"6","http://dbpedia.org/ontology/associatedBand","Flipper (band)",,
"7","http://dbpedia.org/ontology/associatedBand","Crime (band)",,
"8","http://dbpedia.org/ontology/associatedBand","The Sleepers (San Francisco band)",,
"9","http://dbpedia.org/ontology/associatedMusicalArtist","Toiling Midgets",,"x"
"10","http://dbpedia.org/ontology/associatedMusicalArtist","Flipper (band)",,
"11","http://dbpedia.org/ontology/associatedMusicalArtist","Crime (band)",,
"12","http://dbpedia.org/ontology/associatedMusicalArtist","The Sleepers (San Francisco band)",,
"13","http://dbpedia.org/ontology/background","solo_singer",,"x"
"14","http://dbpedia.org/property/background","solo_singer",,
"15","http://dbpedia.org/property/birthPlace","Stanford Hospital, Palo Alto, CA.","x","x"
"16","http://dbpedia.org/ontology/birthPlace","California",,
"17","http://dbpedia.org/ontology/birthPlace","Palo Alto, California",,
"18","http://dbpedia.org/property/birthPlace","California",,
"19","http://dbpedia.org/property/birthPlace","Palo Alto, California",,
"20","http://dbpedia.org/ontology/deathPlace","California",,
"21","http://dbpedia.org/ontology/deathPlace","San Francisco",,
"22","http://dbpedia.org/ontology/deathPlace","http://dbpedia.org/resource/El_Camino,_California","x","x"
"23","http://dbpedia.org/property/deathPlace","California",,
"24","http://dbpedia.org/property/deathPlace","http://dbpedia.org/resource/El_Camino,_California",,
"25","http://dbpedia.org/ontology/genre","Punk rock","x","x"
"26","http://dbpedia.org/ontology/genre","Rock and roll",,
"27","http://dbpedia.org/ontology/genre","Post-punk",,
"28","http://dbpedia.org/property/genre","Punk rock",,
"29","http://dbpedia.org/property/genre","Rock and roll",,
"30","http://dbpedia.org/property/genre","Post-punk",,
"31","http://dbpedia.org/ontology/instrument","Drum kit",,
"32","http://dbpedia.org/ontology/instrument","Singing","x","x"
"33","http://dbpedia.org/property/instrument","Drum kit",,
"34","http://dbpedia.org/property/instrument","Singing",,
"35","http://dbpedia.org/property/occupation","Singer, songwriter",,"x"
"36","http://www.w3.org/2002/07/owl#differentFrom","Ricky Williams",,
"37","http://dbpedia.org/property/placeOfBirth","Palo Alto, California, United States",,
"38","http://dbpedia.org/property/placeOfDeath","San Francisco, California, United States",,
"39","http://dbpedia.org/property/shortDescription","Singer, Drummer",,"x"
"type","person, musician"
"Wiki article link","https://en.wikipedia.org/wiki/Ricky_Williams_%28musician%29"
