"ID","Property","Value","5 triple summary","10 triple summary"
"1","http://dbpedia.org/ontology/author","List of Saturday Night Live writers",,"x"
"2","http://dbpedia.org/ontology/channel","NBC",,
"3","http://dbpedia.org/property/channel","NBC",,"x"
"4","http://dbpedia.org/property/company","*Broadway Video",,"x"
"5","http://dbpedia.org/ontology/company","Broadway Video",,
"6","http://dbpedia.org/property/country","United States",,
"7","http://dbpedia.org/ontology/creator","Lorne Michaels",,
"8","http://dbpedia.org/property/creator","Lorne Michaels",,
"9","http://dbpedia.org/property/d","Q13979",,
"10","http://dbpedia.org/property/director","*Dave Wilson","x","x"
"11","http://dbpedia.org/ontology/director","Dave Wilson (director)",,
"12","http://dbpedia.org/property/executiveProducer","*Lorne Michaels",,
"13","http://dbpedia.org/ontology/executiveProducer","Lorne Michaels",,
"14","http://dbpedia.org/ontology/format","1080i",,
"15","http://dbpedia.org/ontology/format","480i",,
"16","http://dbpedia.org/ontology/genre","Variety show","x","x"
"17","http://dbpedia.org/property/genre","Variety show",,
"18","http://xmlns.com/foaf/0.1/homepage","http://www.nbc.com/Saturday_Night_Live/","x","x"
"19","http://dbpedia.org/property/language","English","x","x"
"20","http://dbpedia.org/property/lastAired","present",,
"21","http://dbpedia.org/property/location","New York, New York",,
"22","http://dbpedia.org/ontology/location","NBC Studios (New York City)",,"x"
"23","http://dbpedia.org/property/location","NBC Studios (New York City)",,
"24","http://dbpedia.org/ontology/narrator","Don Pardo",,
"25","http://dbpedia.org/ontology/narrator","Darrell Hammond",,
"26","http://www.w3.org/2000/01/rdf-schema#seeAlso","List of Saturday Night Live episodes",,"x"
"27","http://dbpedia.org/property/related","TV Funhouse",,
"28","http://dbpedia.org/property/related","Saturday Night Live Weekend Update Thursday",,
"29","http://dbpedia.org/property/related","SNL Vintage",,
"30","http://dbpedia.org/ontology/related","TV Funhouse",,
"31","http://dbpedia.org/ontology/related","Saturday Night Live Weekend Update Thursday",,
"32","http://dbpedia.org/ontology/related","SNL Vintage",,
"33","http://dbpedia.org/property/species","no",,
"34","http://dbpedia.org/property/starring","See List of Saturday Night Live cast members",,
"35","http://dbpedia.org/ontology/starring","Saturday Night Live cast members","x","x"
"36","http://dbpedia.org/property/website","http://www.nbc.com/Saturday_Night_Live/",,
"37","http://dbpedia.org/property/websiteTitle","Website",,
"38","http://dbpedia.org/property/writer","See List of Saturday Night Live writers",,
"type","tv program"
"Wiki article link","https://en.wikipedia.org/wiki/Saturday_Night_Live"
