"ID","Property","Value","5 triple summary","10 triple summary"
"1","http://dbpedia.org/property/camera","Multiple-camera setup",,
"2","http://dbpedia.org/ontology/company","Castle Rock Entertainment","x","x"
"3","http://dbpedia.org/property/company","Castle Rock Entertainment",,
"4","http://dbpedia.org/property/country","United States",,
"5","http://dbpedia.org/ontology/creator","Jerry Seinfeld","x","x"
"6","http://dbpedia.org/ontology/creator","Larry David",,
"7","http://dbpedia.org/property/creator","Jerry Seinfeld",,
"8","http://dbpedia.org/property/creator","Larry David",,
"9","http://dbpedia.org/ontology/director","David Steinberg",,"x"
"10","http://dbpedia.org/ontology/director","Andy Ackerman",,
"11","http://dbpedia.org/ontology/director","Tom Cherones",,
"12","http://dbpedia.org/ontology/director","Art Wolff",,
"13","http://dbpedia.org/property/director","David Steinberg",,
"14","http://dbpedia.org/property/director","Andy Ackerman",,
"15","http://dbpedia.org/property/director","Tom Cherones",,
"16","http://dbpedia.org/property/director","Art Wolff",,
"17","http://dbpedia.org/ontology/distributor","Warner Bros. Television","x","x"
"18","http://dbpedia.org/ontology/distributor","Sony Pictures Television",,
"19","http://dbpedia.org/property/distributor","Warner Bros. Television",,
"20","http://dbpedia.org/property/distributor","Sony Pictures Television",,
"21","http://dbpedia.org/property/executiveProducer","Jerry Seinfeld","x","x"
"22","http://dbpedia.org/property/executiveProducer","Larry David",,
"23","http://dbpedia.org/property/executiveProducer","Alec Berg",,
"24","http://dbpedia.org/property/executiveProducer","Jeff Schaffer",,
"25","http://dbpedia.org/property/executiveProducer","Howard West",,
"26","http://dbpedia.org/ontology/executiveProducer","Andrew Scheinman",,
"27","http://dbpedia.org/ontology/executiveProducer","Alec Berg",,
"28","http://dbpedia.org/ontology/executiveProducer","George Shapiro",,
"29","http://dbpedia.org/ontology/executiveProducer","Jeff Schaffer",,
"30","http://dbpedia.org/property/executiveProducer","Andrew Scheinman",,
"31","http://dbpedia.org/property/executiveProducer","George Shapiro",,
"32","http://dbpedia.org/ontology/format","Aspect ratio (image)",,
"33","http://dbpedia.org/ontology/genre","Sitcom",,
"34","http://dbpedia.org/property/genre","Sitcom",,"x"
"35","http://xmlns.com/foaf/0.1/homepage","http://www.sonypictures.com/tv/shows/seinfeld/","x","x"
"36","http://dbpedia.org/property/language","English",,"x"
"37","http://dbpedia.org/property/listEpisodes","List of Seinfeld episodes",,
"38","http://dbpedia.org/ontology/network","NBC",,
"39","http://dbpedia.org/property/network","NBC",,
"40","http://dbpedia.org/property/pictureFormat","'''[[#HD",,
"41","http://dbpedia.org/property/pictureFormat","(Original broadcasts:)",,
"42","http://dbpedia.org/property/related","Curb Your Enthusiasm",,
"43","http://dbpedia.org/property/related","Comedians in Cars Getting Coffee",,
"44","http://dbpedia.org/ontology/related","Curb Your Enthusiasm",,
"45","http://dbpedia.org/ontology/related","Comedians in Cars Getting Coffee",,
"46","http://dbpedia.org/ontology/starring","Jason Alexander",,"x"
"47","http://dbpedia.org/ontology/starring","Jerry Seinfeld",,
"48","http://dbpedia.org/ontology/starring","Julia Louis-Dreyfus",,
"49","http://dbpedia.org/ontology/starring","Michael Richards",,
"50","http://dbpedia.org/property/starring","Jason Alexander",,
"51","http://dbpedia.org/property/starring","Jerry Seinfeld",,
"52","http://dbpedia.org/property/starring","Julia Louis-Dreyfus",,
"53","http://dbpedia.org/property/starring","Michael Richards",,
"54","http://dbpedia.org/property/website","http://www.sonypictures.com/tv/shows/seinfeld/",,"x"
"type","tv program, drama"
"Wiki article link","https://en.wikipedia.org/wiki/Seinfeld"
