"ID","Property","Value","5 triple summary","10 triple summary"
"1","http://dbpedia.org/property/album","I've Been Expecting You and The Ego Has Landed",,"x"
"2","http://dbpedia.org/ontology/album","Egyptology (album)",,
"3","http://dbpedia.org/property/album","Egyptology (album)",,
"4","http://dbpedia.org/property/artist","Robbie Williams","x","x"
"5","http://dbpedia.org/ontology/artist","World Party",,
"6","http://dbpedia.org/property/artist","Robbie Williams",,
"7","http://dbpedia.org/property/artist","World Party",,
"8","http://dbpedia.org/property/autocat","yes",,
"9","http://dbpedia.org/property/award","Gold",,"x"
"10","http://dbpedia.org/property/cover","ShesTheOneItsOnlyUs1.gif",,
"11","http://dbpedia.org/property/format","Compact Cassette",,"x"
"12","http://dbpedia.org/property/format","CD single",,
"13","http://dbpedia.org/ontology/genre","Alternative rock",,"x"
"14","http://dbpedia.org/ontology/genre","Britpop",,
"15","http://dbpedia.org/property/genre","Alternative rock",,
"16","http://dbpedia.org/property/genre","Britpop",,
"17","http://dbpedia.org/property/genre","Pop music",,
"18","http://dbpedia.org/property/label","Chrysalis Records",,
"19","http://dbpedia.org/property/label","The Enclave (record label)",,
"20","http://dbpedia.org/property/lastSingle","""Strong""",,
"21","http://dbpedia.org/property/next","""Vocal Interlude""",,
"22","http://dbpedia.org/property/nextSingle","""Win Some Lose Some""",,
"23","http://dbpedia.org/property/prev","""Vanity Fair""",,"x"
"24","http://dbpedia.org/property/producer","Karl Wallinger",,
"25","http://dbpedia.org/property/producer","Guy Chambers, Steve Power",,
"26","http://dbpedia.org/ontology/producer","Karl Wallinger",,
"27","http://dbpedia.org/ontology/recordLabel","The Enclave (record label)","x","x"
"28","http://dbpedia.org/property/region","United Kingdom","x","x"
"29","http://dbpedia.org/property/thisSingle","""She's the One""/""It's Only Us""","x","x"
"30","http://dbpedia.org/ontology/writer","Karl Wallinger","x","x"
"31","http://dbpedia.org/property/writer","Karl Wallinger",,
"type","song"
"Wiki article link","https://en.wikipedia.org/wiki/She's_the_One_%28World_Party_song%29"
