Id	Timestamp	Sequential	Configuration	Number of entities	Entities	Solution	There was a solution	Intersection time	Sorting time	Mining time	Total time	Size priority queue	Timeout	Top subgraphs
61	2019.02.26.16.09.58	Parallel	Ext. size 3 PR	1	[http://dbpedia.org/resource/Bill_Gates]	[<http://dbpedia.org/ontology/board>(?x0, <http://dbpedia.org/resource/Berkshire_Hathaway>) ]	1	1	1444	48	1493	169	FALSO	[<http://www.w3.org/1999/02/22-rdf-syntax-ns#type>(?x0, <http://dbpedia.org/ontology/Person>) , <http://dbpedia.org/ontology/author-inv>(?x0, <http://dbpedia.org/resource/The_Road_Ahead_(Bill_Gates_book)>) , <http://dbpedia.org/ontology/almaMater>(?x0, <http://dbpedia.org/resource/Harvard_University>) , <http://dbpedia.org/ontology/keyPerson-inv>(?x0, <http://dbpedia.org/resource/Microsoft>) , <http://dbpedia.org/ontology/keyPerson-inv>(?x0, <http://dbpedia.org/resource/Berkshire_Hathaway>) , <http://dbpedia.org/ontology/board>(?x0, <http://dbpedia.org/resource/Microsoft>) , <http://dbpedia.org/ontology/board>(?x0, <http://dbpedia.org/resource/Berkshire_Hathaway>) , <http://dbpedia.org/ontology/birthPlace>(?x0, <http://dbpedia.org/resource/Seattle>) , <http://dbpedia.org/ontology/residence>(?x0, ?x1) <http://dbpedia.org/ontology/country>(?x1, <http://dbpedia.org/resource/United_States>) , <http://dbpedia.org/ontology/parent>(?x0, ?x1) <http://dbpedia.org/ontology/almaMater>(?x1, <http://dbpedia.org/resource/University_of_Washington>) ]
62	2019.02.26.16.10.00	Parallel	Ext. size 3 PR	1	[http://dbpedia.org/resource/Barack_Obama]	[<http://dbpedia.org/ontology/appointer-inv>(?x0, <http://dbpedia.org/resource/Evan_Wallach>) ]	1	3	35	0	38	320	FALSO	[<http://dbpedia.org/ontology/alumni-inv>(?x0, <http://dbpedia.org/resource/East_Greenwich_High_School>) , <http://dbpedia.org/ontology/appointer-inv>(?x0, <http://dbpedia.org/resource/Evan_Wallach>) , <http://dbpedia.org/ontology/appointer-inv>(?x0, <http://dbpedia.org/resource/Brad_Carson>) , <http://dbpedia.org/ontology/appointer-inv>(?x0, <http://dbpedia.org/resource/Coral_Wong_Pietsch>) , <http://dbpedia.org/ontology/appointer-inv>(?x0, <http://dbpedia.org/resource/Emily_C._Hewitt>) , <http://dbpedia.org/ontology/appointer-inv>(?x0, <http://dbpedia.org/resource/David_J._Hale>) , <http://dbpedia.org/ontology/appointer-inv>(?x0, <http://dbpedia.org/resource/Jill_Parrish>) , <http://dbpedia.org/ontology/appointer-inv>(?x0, <http://dbpedia.org/resource/Andrew_D._Hurwitz>) , <http://dbpedia.org/ontology/appointer-inv>(?x0, <http://dbpedia.org/resource/Christopher_F._Droney>) , <http://dbpedia.org/ontology/appointer-inv>(?x0, <http://dbpedia.org/resource/David_Hamilton_(judge)>) ]
63	2019.02.26.16.10.00	Parallel	Ext. size 3 PR	1	[http://dbpedia.org/resource/Marie_Curie]	[<http://dbpedia.org/ontology/doctoralStudent>(?x0, <http://dbpedia.org/resource/Émile_Henriot_(chemist)>) ]	1	1	2656	4	2661	213	FALSO	[<http://www.w3.org/1999/02/22-rdf-syntax-ns#type>(?x0, <http://dbpedia.org/ontology/Scientist>) , <http://dbpedia.org/ontology/doctoralStudent>(?x0, <http://dbpedia.org/resource/André-Louis_Debierne>) , <http://dbpedia.org/ontology/doctoralStudent>(?x0, <http://dbpedia.org/resource/Marguerite_Perey>) , <http://dbpedia.org/ontology/doctoralStudent>(?x0, <http://dbpedia.org/resource/Émile_Henriot_(chemist)>) , <http://dbpedia.org/ontology/doctoralAdvisor>(?x0, <http://dbpedia.org/resource/Gabriel_Lippmann>) , <http://dbpedia.org/ontology/doctoralStudent>(?x0, <http://dbpedia.org/resource/Óscar_Moreno>) , <http://dbpedia.org/ontology/doctoralStudent>(?x0, ?x1) <http://dbpedia.org/ontology/birthPlace>(?x1, <http://dbpedia.org/resource/France>) , <http://dbpedia.org/ontology/doctoralStudent>(?x0, ?x1) <http://dbpedia.org/ontology/birthPlace>(?x1, <http://dbpedia.org/resource/Portugal>) , <http://dbpedia.org/ontology/doctoralStudent>(?x0, ?x1) <http://dbpedia.org/ontology/birthPlace>(?x1, <http://dbpedia.org/resource/Paris>) , <http://dbpedia.org/ontology/doctoralStudent>(?x0, ?x1) <http://dbpedia.org/ontology/deathPlace>(?x1, <http://dbpedia.org/resource/France>) ]
64	2019.02.26.16.10.03	Parallel	Ext. size 3 PR	1	[http://dbpedia.org/resource/The_Cosby_Show]	[<http://dbpedia.org/ontology/previousWork>(?x0, <http://dbpedia.org/resource/The_Bill_Cosby_Show>) ]	1	37	309051	1	309089	5097	FALSO	[<http://dbpedia.org/ontology/previousWork>(?x0, <http://dbpedia.org/resource/The_Bill_Cosby_Show>) , <http://dbpedia.org/ontology/location>(?x0, ?x1) <http://dbpedia.org/ontology/picture-inv>(?x1, <http://dbpedia.org/resource/Bear_Mountain_Bridge>) , <http://dbpedia.org/ontology/location>(?x0, ?x1) <http://dbpedia.org/ontology/homeport-inv>(?x1, <http://dbpedia.org/resource/TS_Empire_State_VI>) , <http://dbpedia.org/ontology/executiveProducer>(?x0, ?x1) <http://dbpedia.org/ontology/predecessor>(?x1, <http://dbpedia.org/resource/Martin_Broughton>) , <http://dbpedia.org/ontology/location>(?x0, ?x1) <http://dbpedia.org/ontology/employer-inv>(?x1, <http://dbpedia.org/resource/Forrest_Church>) , <http://www.w3.org/1999/02/22-rdf-syntax-ns#type>(?x0, <http://dbpedia.org/ontology/TelevisionShow>) , <http://dbpedia.org/ontology/location>(?x0, ?x1) <http://dbpedia.org/ontology/homeport-inv>(?x1, <http://dbpedia.org/resource/USNS_Contender_(T-AGOS-2)>) , <http://dbpedia.org/ontology/location>(?x0, ?x1) <http://dbpedia.org/ontology/owningCompany-inv>(?x1, <http://dbpedia.org/resource/Long_Island_Power_Authority>) , <http://dbpedia.org/ontology/location>(?x0, ?x1) <http://dbpedia.org/ontology/homeport-inv>(?x1, <http://dbpedia.org/resource/NOAAS_Peirce_(S_328)>) , <http://dbpedia.org/ontology/location>(?x0, ?x1) <http://dbpedia.org/ontology/owner-inv>(?x1, <http://dbpedia.org/resource/Long_Island_Power_Authority>) ]
65	2019.02.26.16.15.12	Parallel	Ext. size 3 PR	1	[http://dbpedia.org/resource/Yukon_River]	[<http://dbpedia.org/ontology/riverMouth-inv>(?x0, <http://dbpedia.org/resource/Koyukuk_River>) ]	1	1	741	239	981	39	FALSO	[<http://www.w3.org/1999/02/22-rdf-syntax-ns#type>(?x0, <http://dbpedia.org/ontology/River>) , <http://dbpedia.org/ontology/sourceMountain>(?x0, ?x1) <http://dbpedia.org/ontology/province>(?x1, <http://dbpedia.org/resource/British_Columbia>) , <http://dbpedia.org/ontology/sourcePlace>(?x0, ?x1) <http://dbpedia.org/ontology/province>(?x1, <http://dbpedia.org/resource/British_Columbia>) , <http://dbpedia.org/ontology/riverMouth-inv>(?x0, <http://dbpedia.org/resource/Koyukuk_River>) , <http://dbpedia.org/ontology/sourceCountry>(?x0, <http://dbpedia.org/resource/Canada>) , <http://dbpedia.org/ontology/country>(?x0, <http://dbpedia.org/resource/United_States>) , <http://dbpedia.org/ontology/mouthCountry>(?x0, <http://dbpedia.org/resource/United_States>) , <http://dbpedia.org/ontology/country>(?x0, <http://dbpedia.org/resource/Canada>) , <http://dbpedia.org/ontology/mouthRegion>(?x0, <http://dbpedia.org/resource/Alaska>) , <http://dbpedia.org/ontology/sourceRegion>(?x0, <http://dbpedia.org/resource/British_Columbia>) ]
66	2019.02.26.16.15.13	Parallel	Ext. size 3 PR	1	[http://dbpedia.org/resource/Joe_Biden]	[<http://dbpedia.org/ontology/guest-inv>(?x0, <http://dbpedia.org/resource/One_Last_Ride>) , <http://dbpedia.org/ontology/religion>(?x0, ?x1) <http://dbpedia.org/ontology/programmeFormat-inv>(?x1, <http://dbpedia.org/resource/WIDG>) ]	1	8	3469	1241	4718	477	FALSO	[<http://dbpedia.org/ontology/guest-inv>(?x0, <http://dbpedia.org/resource/One_Last_Ride>) , <http://dbpedia.org/ontology/religion>(?x0, ?x1) <http://dbpedia.org/ontology/programmeFormat-inv>(?x1, <http://dbpedia.org/resource/WIDG>) , <http://dbpedia.org/ontology/religion>(?x0, ?x1) <http://dbpedia.org/ontology/denomination-inv>(?x1, <http://dbpedia.org/resource/St._Michael's_College_National_School>) , <http://www.w3.org/1999/02/22-rdf-syntax-ns#type>(?x0, <http://dbpedia.org/ontology/OfficeHolder>) , <http://dbpedia.org/ontology/religion>(?x0, ?x1) <http://dbpedia.org/ontology/occupation-inv>(?x1, <http://dbpedia.org/resource/Shtjefën_Gjeçovi>) , <http://dbpedia.org/ontology/predecessor>(?x0, ?x1) <http://dbpedia.org/ontology/successor-inv>(?x0, ?x1) , <http://dbpedia.org/ontology/successor>(?x0, ?x1) <http://dbpedia.org/ontology/predecessor-inv>(?x0, ?x1) , <http://dbpedia.org/ontology/president>(?x0, <http://dbpedia.org/resource/Barack_Obama>) , <http://dbpedia.org/ontology/party>(?x0, <http://dbpedia.org/resource/Democratic_Party_(United_States)>) , <http://dbpedia.org/ontology/vicePresident-inv>(?x0, <http://dbpedia.org/resource/Barack_Obama>) ]
67	2019.02.26.16.15.17	Parallel	Ext. size 3 PR	1	[http://dbpedia.org/resource/Albert_Einstein]	[<http://dbpedia.org/ontology/academicAdvisor-inv>(?x0, <http://dbpedia.org/resource/Nathan_Rosen>) ]	1	3	58403	9	58415	447	FALSO	[<http://www.w3.org/1999/02/22-rdf-syntax-ns#type>(?x0, <http://dbpedia.org/ontology/Scientist>) , <http://dbpedia.org/ontology/relative-inv>(?x0, <http://dbpedia.org/resource/Einstein_family>) , <http://dbpedia.org/ontology/academicAdvisor-inv>(?x0, <http://dbpedia.org/resource/Kurt_Mendelssohn>) , <http://dbpedia.org/ontology/academicAdvisor>(?x0, ?x1) <http://dbpedia.org/ontology/residence>(?x1, <http://dbpedia.org/resource/Germany>) , <http://dbpedia.org/ontology/academicAdvisor-inv>(?x0, <http://dbpedia.org/resource/Nathan_Rosen>) , <http://dbpedia.org/ontology/academicAdvisor-inv>(?x0, <http://dbpedia.org/resource/Leo_Szilard>) , <http://dbpedia.org/ontology/academicAdvisor>(?x0, ?x1) <http://dbpedia.org/ontology/residence>(?x1, <http://dbpedia.org/resource/Switzerland>) , <http://dbpedia.org/ontology/doctoralAdvisor>(?x0, <http://dbpedia.org/resource/Alfred_Kleiner>) , <http://dbpedia.org/ontology/academicAdvisor>(?x0, <http://dbpedia.org/resource/Heinrich_Friedrich_Weber>) , <http://dbpedia.org/ontology/knownFor-inv>(?x0, <http://dbpedia.org/resource/Evelyn_Einstein>) ]
68	2019.02.26.16.16.16	Parallel	Ext. size 3 PR	1	[http://dbpedia.org/resource/John_Napier]	[<http://dbpedia.org/ontology/influenced>(?x0, <http://dbpedia.org/resource/Henry_Briggs_(mathematician)>) ]	1	1	382	22	405	80	FALSO	[<http://www.w3.org/1999/02/22-rdf-syntax-ns#type>(?x0, <http://dbpedia.org/ontology/Scientist>) , <http://dbpedia.org/ontology/nationality>(?x0, <http://dbpedia.org/resource/Scotland>) , <http://dbpedia.org/ontology/almaMater>(?x0, <http://dbpedia.org/resource/University_of_St_Andrews>) , <http://dbpedia.org/ontology/birthPlace>(?x0, <http://dbpedia.org/resource/Edinburgh>) , <http://dbpedia.org/ontology/deathPlace>(?x0, <http://dbpedia.org/resource/Edinburgh>) , <http://dbpedia.org/ontology/influenced>(?x0, <http://dbpedia.org/resource/Henry_Briggs_(mathematician)>) , <http://dbpedia.org/ontology/influenced>(?x0, ?x1) <http://dbpedia.org/ontology/nationality>(?x1, <http://dbpedia.org/resource/England>) , <http://dbpedia.org/ontology/field>(?x0, <http://dbpedia.org/resource/Mathematician>) , <http://dbpedia.org/ontology/influenced>(?x0, ?x1) <http://dbpedia.org/ontology/deathPlace>(?x1, <http://dbpedia.org/resource/Oxford>) , <http://dbpedia.org/ontology/influenced>(?x0, ?x1) <http://dbpedia.org/ontology/birthPlace>(?x1, <http://dbpedia.org/resource/Yorkshire>) ]
69	2019.02.26.16.16.16	Parallel	Ext. size 3 PR	1	[http://dbpedia.org/resource/Beverly_Hills,_90210]	[<http://dbpedia.org/ontology/subsequentWork>(?x0, <http://dbpedia.org/resource/Melrose_Place>) ]	1	5	4160	1	4166	457	FALSO	[<http://dbpedia.org/ontology/subsequentWork>(?x0, <http://dbpedia.org/resource/90210_(TV_series)>) , <http://dbpedia.org/ontology/subsequentWork>(?x0, <http://dbpedia.org/resource/Melrose_Place>) , <http://dbpedia.org/ontology/subsequentWork>(?x0, <http://dbpedia.org/resource/Models_Inc.>) , <http://dbpedia.org/ontology/subsequentWork>(?x0, <http://dbpedia.org/resource/Melrose_Place_(2009_TV_series)>) , <http://dbpedia.org/ontology/previousWork-inv>(?x0, <http://dbpedia.org/resource/90210_(TV_series)>) , <http://dbpedia.org/ontology/previousWork-inv>(?x0, <http://dbpedia.org/resource/Melrose_Place>) , <http://dbpedia.org/ontology/previousWork-inv>(?x0, <http://dbpedia.org/resource/Models_Inc.>) , <http://dbpedia.org/ontology/previousWork-inv>(?x0, <http://dbpedia.org/resource/Melrose_Place_(2009_TV_series)>) , <http://www.w3.org/1999/02/22-rdf-syntax-ns#type>(?x0, <http://dbpedia.org/ontology/TelevisionShow>) , <http://dbpedia.org/ontology/starring-inv>(?x0, <http://dbpedia.org/resource/Beverly_Hills,_90210>) ]
70	2019.02.26.16.16.20	Parallel	Ext. size 3 PR	1	[http://dbpedia.org/resource/Walt_Disney]	[<http://dbpedia.org/ontology/producer-inv>(?x0, <http://dbpedia.org/resource/Victory_Through_Air_Power_(film)>) ]	1	1	10	62	73	76	FALSO	[<http://dbpedia.org/ontology/basedOn-inv>(?x0, <http://dbpedia.org/resource/Pirates_of_the_Caribbean_(film_series)>) , <http://www.w3.org/1999/02/22-rdf-syntax-ns#type>(?x0, <http://dbpedia.org/ontology/Person>) , <http://dbpedia.org/ontology/voice-inv>(?x0, <http://dbpedia.org/resource/Mickey_Mouse>) , <http://dbpedia.org/ontology/producer-inv>(?x0, <http://dbpedia.org/resource/The_Tenderfoot_(miniseries)>) , <http://dbpedia.org/ontology/producer-inv>(?x0, <http://dbpedia.org/resource/Victory_Through_Air_Power_(film)>) , <http://dbpedia.org/ontology/producer-inv>(?x0, <http://dbpedia.org/resource/Bon_Voyage!_(1962_film)>) , <http://dbpedia.org/ontology/producer-inv>(?x0, <http://dbpedia.org/resource/Cinderella_(1950_film)>) , <http://dbpedia.org/ontology/producer-inv>(?x0, <http://dbpedia.org/resource/Peter_Pan_(1953_film)>) , <http://dbpedia.org/ontology/producer-inv>(?x0, <http://dbpedia.org/resource/Pollyanna_(1960_film)>) , <http://dbpedia.org/ontology/producer-inv>(?x0, <http://dbpedia.org/resource/Sleeping_Beauty_(1959_film)>) ]
71	2019.02.26.16.16.20	Parallel	Ext. size 3 PR	1	[http://dbpedia.org/resource/Argo_(2012_film)]	[<http://dbpedia.org/ontology/producer>(?x0, ?x1) <http://dbpedia.org/ontology/guest-inv>(?x1, <http://dbpedia.org/resource/Via_Negativa_(The_X-Files)>) , <http://dbpedia.org/ontology/cinematography>(?x0, <http://dbpedia.org/resource/Rodrigo_Prieto>) ]	1	2	2076	5030	7108	87	FALSO	[<http://dbpedia.org/ontology/producer>(?x0, ?x1) <http://dbpedia.org/ontology/guest-inv>(?x1, <http://dbpedia.org/resource/Via_Negativa_(The_X-Files)>) , <http://dbpedia.org/ontology/cinematography>(?x0, <http://dbpedia.org/resource/Rodrigo_Prieto>) , <http://www.w3.org/1999/02/22-rdf-syntax-ns#type>(?x0, <http://dbpedia.org/ontology/Film>) , <http://dbpedia.org/ontology/director>(?x0, <http://dbpedia.org/resource/Ben_Affleck>) , <http://dbpedia.org/ontology/cinematography>(?x0, ?x1) <http://dbpedia.org/ontology/residence>(?x1, <http://dbpedia.org/resource/Los_Angeles>) , <http://dbpedia.org/ontology/cinematography>(?x0, ?x1) <http://dbpedia.org/ontology/birthPlace>(?x1, <http://dbpedia.org/resource/Mexico>) , <http://dbpedia.org/ontology/cinematography>(?x0, ?x1) <http://dbpedia.org/ontology/residence>(?x1, <http://dbpedia.org/resource/California>) , <http://dbpedia.org/ontology/cinematography>(?x0, ?x1) <http://dbpedia.org/ontology/birthPlace>(?x1, <http://dbpedia.org/resource/Mexico_City>) , <http://dbpedia.org/ontology/starring>(?x0, <http://dbpedia.org/resource/Bryan_Cranston>) , <http://dbpedia.org/ontology/starring>(?x0, <http://dbpedia.org/resource/John_Goodman>) ]
72	2019.02.26.16.16.27	Parallel	Ext. size 3 PR	1	[http://dbpedia.org/resource/Benjamin_Franklin]	[<http://dbpedia.org/ontology/associate>(?x0, <http://dbpedia.org/resource/John_Adams>) ]	1	1	1179	0	1180	161	FALSO	[<http://dbpedia.org/ontology/associate>(?x0, <http://dbpedia.org/resource/John_Adams>) , <http://dbpedia.org/ontology/associate-inv>(?x0, <http://dbpedia.org/resource/John_Adams>) , <http://www.w3.org/1999/02/22-rdf-syntax-ns#type>(?x0, <http://dbpedia.org/ontology/OfficeHolder>) , <http://dbpedia.org/ontology/vicePresident>(?x0, <http://dbpedia.org/resource/Thomas_Mifflin>) , <http://dbpedia.org/ontology/associate>(?x0, <http://dbpedia.org/resource/Silas_Deane>) , <http://dbpedia.org/ontology/associate-inv>(?x0, <http://dbpedia.org/resource/Silas_Deane>) , <http://dbpedia.org/ontology/relation-inv>(?x0, <http://dbpedia.org/resource/Josiah_Franklin>) , <http://dbpedia.org/ontology/predecessor>(?x0, ?x1) <http://dbpedia.org/ontology/successor>(?x0, ?x1) , <http://dbpedia.org/ontology/knownFor-inv>(?x0, <http://dbpedia.org/resource/Josiah_Franklin>) , <http://dbpedia.org/ontology/successor-inv>(?x0, <http://dbpedia.org/resource/John_Adams>) ]
73	2019.02.26.16.16.29	Parallel	Ext. size 3 PR	1	[http://dbpedia.org/resource/Norway]	[<http://dbpedia.org/ontology/recordedIn-inv>(?x0, <http://dbpedia.org/resource/Fly_By_II>) ]	1	10	480	2	492	1148	FALSO	[<http://dbpedia.org/ontology/homeport-inv>(?x0, <http://dbpedia.org/resource/MS_Mega_Smeralda>) , <http://dbpedia.org/ontology/homeport-inv>(?x0, <http://dbpedia.org/resource/MS_Oscar_Wilde>) , <http://dbpedia.org/ontology/race-inv>(?x0, <http://dbpedia.org/resource/Stig_H._Johansson>) , <http://dbpedia.org/ontology/recordedIn-inv>(?x0, <http://dbpedia.org/resource/Hear_the_Crowd>) , <http://dbpedia.org/ontology/recordedIn-inv>(?x0, <http://dbpedia.org/resource/The_One_(A-Lee_song)>) , <http://dbpedia.org/ontology/recordedIn-inv>(?x0, <http://dbpedia.org/resource/Fly_By_II>) , <http://dbpedia.org/ontology/recordedIn-inv>(?x0, <http://dbpedia.org/resource/Before_My_Eyes>) , <http://dbpedia.org/ontology/recordedIn-inv>(?x0, <http://dbpedia.org/resource/She's_So_High_(Tal_Bachman_song)>) , <http://dbpedia.org/ontology/recordedIn-inv>(?x0, <http://dbpedia.org/resource/World_So_Cold_(A-Lee_song)>) , <http://dbpedia.org/ontology/builder-inv>(?x0, <http://dbpedia.org/resource/MY_Bob_Barker>) ]
74	2019.02.26.16.16.29	Parallel	Ext. size 3 PR	1	[http://dbpedia.org/resource/Knight_Rider_(1982_TV_series)]	[<http://dbpedia.org/ontology/subsequentWork>(?x0, <http://dbpedia.org/resource/Knight_Rider_(2008_TV_series)>) ]	1	4	3977	0	3981	370	FALSO	[<http://dbpedia.org/ontology/subsequentWork>(?x0, <http://dbpedia.org/resource/Knight_Rider_(2008_TV_series)>) , <http://dbpedia.org/ontology/previousWork-inv>(?x0, <http://dbpedia.org/resource/Knight_Rider_(2008_TV_series)>) , <http://www.w3.org/1999/02/22-rdf-syntax-ns#type>(?x0, <http://dbpedia.org/ontology/TelevisionShow>) , <http://dbpedia.org/ontology/series-inv>(?x0, <http://dbpedia.org/resource/Knight_of_the_Phoenix>) , <http://dbpedia.org/ontology/executiveProducer>(?x0, <http://dbpedia.org/resource/Glen_A._Larson>) , <http://dbpedia.org/ontology/network>(?x0, <http://dbpedia.org/resource/NBC>) , <http://dbpedia.org/ontology/composer>(?x0, <http://dbpedia.org/resource/Glen_A._Larson>) , <http://dbpedia.org/ontology/starring>(?x0, <http://dbpedia.org/resource/David_Hasselhoff>) , <http://dbpedia.org/ontology/voice>(?x0, <http://dbpedia.org/resource/William_Daniels>) , <http://dbpedia.org/ontology/creator>(?x0, <http://dbpedia.org/resource/Glen_A._Larson>) ]
75	2019.02.26.16.16.33	Parallel	Ext. size 3 PR	1	[http://dbpedia.org/resource/Lexus]	[<http://dbpedia.org/ontology/manufacturer-inv>(?x0, <http://dbpedia.org/resource/Lexus_LFA>) ]	1	1	35890	1	35892	115	FALSO	[<http://dbpedia.org/ontology/manufacturer-inv>(?x0, <http://dbpedia.org/resource/Lexus_LFA>) , <http://dbpedia.org/ontology/manufacturer-inv>(?x0, <http://dbpedia.org/resource/Lexus_HS>) , <http://dbpedia.org/ontology/manufacturer-inv>(?x0, <http://dbpedia.org/resource/Lexus_IS_(XE20)>) , <http://dbpedia.org/ontology/manufacturer-inv>(?x0, <http://dbpedia.org/resource/Lexus_NX>) , <http://www.w3.org/1999/02/22-rdf-syntax-ns#type>(?x0, <http://dbpedia.org/ontology/Company>) , <http://dbpedia.org/ontology/manufacturer-inv>(?x0, <http://dbpedia.org/resource/Lexus_LS_(XF40)>) , <http://dbpedia.org/ontology/manufacturer-inv>(?x0, <http://dbpedia.org/resource/Lexus_GS_(S190)>) , <http://dbpedia.org/ontology/division-inv>(?x0, <http://dbpedia.org/resource/Toyota>) , <http://dbpedia.org/ontology/industry>(?x0, ?x1) <http://dbpedia.org/ontology/division-inv>(?x1, <http://dbpedia.org/resource/Infineon_Technologies>) , <http://dbpedia.org/ontology/division>(?x0, <http://dbpedia.org/resource/Lexus_F>) ]
76	2019.02.26.16.17.09	Parallel	Ext. size 3 PR	1	[http://dbpedia.org/resource/Rice_University]	[<http://dbpedia.org/ontology/president>(?x0, <http://dbpedia.org/resource/David_Leebron>) ]	1	1	1200	367	1568	82	FALSO	[<http://www.w3.org/1999/02/22-rdf-syntax-ns#type>(?x0, <http://dbpedia.org/ontology/University>) , <http://dbpedia.org/ontology/affiliation>(?x0, ?x1) <http://dbpedia.org/ontology/language>(?x1, <http://dbpedia.org/resource/Spanish_language>) , <http://dbpedia.org/ontology/affiliation>(?x0, ?x1) <http://dbpedia.org/ontology/language>(?x1, <http://dbpedia.org/resource/English_language>) , <http://dbpedia.org/ontology/occupation-inv>(?x0, <http://dbpedia.org/resource/Paul_A._Kennon>) , <http://dbpedia.org/ontology/affiliation>(?x0, ?x1) <http://dbpedia.org/ontology/language>(?x1, <http://dbpedia.org/resource/French_language>) , <http://dbpedia.org/ontology/state>(?x0, <http://dbpedia.org/resource/Texas>) , <http://dbpedia.org/ontology/athletics>(?x0, <http://dbpedia.org/resource/NCAA_Division_I>) , <http://dbpedia.org/ontology/president>(?x0, ?x1) <http://dbpedia.org/ontology/birthPlace>(?x1, <http://dbpedia.org/resource/United_States>) , <http://dbpedia.org/ontology/almaMater-inv>(?x0, <http://dbpedia.org/resource/George_P._Bush>) , <http://dbpedia.org/ontology/president>(?x0, <http://dbpedia.org/resource/David_Leebron>) ]
77	2019.02.26.16.17.11	Parallel	Ext. size 3 PR	1	[http://dbpedia.org/resource/Amsterdam]	[<http://dbpedia.org/ontology/recordedIn-inv>(?x0, <http://dbpedia.org/resource/Warriors_of_the_Wasteland>) ]	1	6	2687	1	2694	687	FALSO	[<http://dbpedia.org/ontology/race-inv>(?x0, <http://dbpedia.org/resource/Calvin_Borel>) , <http://dbpedia.org/ontology/recordedIn-inv>(?x0, <http://dbpedia.org/resource/Warriors_of_the_Wasteland>) , <http://dbpedia.org/ontology/recordedIn-inv>(?x0, <http://dbpedia.org/resource/Love_Runs_Out>) , <http://dbpedia.org/ontology/recordedIn-inv>(?x0, <http://dbpedia.org/resource/I_Can_Only_Imagine_(David_Guetta_song)>) , <http://dbpedia.org/ontology/recordedIn-inv>(?x0, <http://dbpedia.org/resource/Watching_the_Wildlife>) , <http://dbpedia.org/ontology/recordedIn-inv>(?x0, <http://dbpedia.org/resource/Live_from_Amsterdam_(video)>) , <http://dbpedia.org/ontology/recordedIn-inv>(?x0, <http://dbpedia.org/resource/Turn_(The_Ex_album)>) , <http://dbpedia.org/ontology/recordedIn-inv>(?x0, <http://dbpedia.org/resource/Wedding_Album>) , <http://www.w3.org/1999/02/22-rdf-syntax-ns#type>(?x0, <http://dbpedia.org/ontology/City>) , <http://dbpedia.org/ontology/destination-inv>(?x0, <http://dbpedia.org/resource/Helios_Airways>) ]
78	2019.02.26.16.17.13	Parallel	Ext. size 3 PR	1	[http://dbpedia.org/resource/Bruce_Lee]	[<http://dbpedia.org/ontology/writer-inv>(?x0, <http://dbpedia.org/resource/Game_of_Death>) ]	1	5	888234	299	888538	309	FALSO	[<http://dbpedia.org/ontology/country>(?x0, ?x1) <http://dbpedia.org/ontology/league-inv>(?x1, <http://dbpedia.org/resource/Cheng_Chih-lung_(basketball)>) , <http://dbpedia.org/ontology/country>(?x0, ?x1) <http://dbpedia.org/ontology/relatedMeanOfTransportation-inv>(?x1, <http://dbpedia.org/resource/Isuzu_Elf>) , <http://dbpedia.org/ontology/country>(?x0, ?x1) <http://dbpedia.org/ontology/distributor-inv>(?x1, <http://dbpedia.org/resource/Turn_Left,_Turn_Right>) , <http://www.w3.org/1999/02/22-rdf-syntax-ns#type>(?x0, <http://dbpedia.org/ontology/Actor>) , <http://dbpedia.org/ontology/country>(?x0, ?x1) <http://dbpedia.org/ontology/owningCompany-inv>(?x1, <http://dbpedia.org/resource/China_Post>) , <http://dbpedia.org/ontology/country>(?x0, ?x1) <http://dbpedia.org/ontology/owningCompany-inv>(?x1, <http://dbpedia.org/resource/China_Unicom>) , <http://dbpedia.org/ontology/country>(?x0, ?x1) <http://dbpedia.org/ontology/owningCompany-inv>(?x1, <http://dbpedia.org/resource/Jinjiang_International>) , <http://dbpedia.org/ontology/country>(?x0, ?x1) <http://dbpedia.org/ontology/owningCompany-inv>(?x1, <http://dbpedia.org/resource/China_Telecom>) , <http://dbpedia.org/ontology/country>(?x0, ?x1) <http://dbpedia.org/ontology/owner-inv>(?x1, <http://dbpedia.org/resource/China_Post>) , <http://dbpedia.org/ontology/country>(?x0, ?x1) <http://dbpedia.org/ontology/owner-inv>(?x1, <http://dbpedia.org/resource/China_Unicom>) ]
79	2019.02.26.16.32.02	Parallel	Ext. size 3 PR	1	[http://dbpedia.org/resource/Mike_Turner]	[<http://dbpedia.org/ontology/predecessor>(?x0, <http://dbpedia.org/resource/Hugh_Bayley>) ]	1	1	2721	320	3042	185	FALSO	[<http://www.w3.org/1999/02/22-rdf-syntax-ns#type>(?x0, <http://dbpedia.org/ontology/OfficeHolder>) , <http://dbpedia.org/ontology/party>(?x0, <http://dbpedia.org/resource/Republican_Party_(United_States)>) , <http://dbpedia.org/ontology/birthPlace>(?x0, <http://dbpedia.org/resource/United_States>) , <http://dbpedia.org/ontology/almaMater>(?x0, <http://dbpedia.org/resource/University_of_Dayton>) , <http://dbpedia.org/ontology/birthPlace>(?x0, <http://dbpedia.org/resource/Ohio>) , <http://dbpedia.org/ontology/almaMater>(?x0, <http://dbpedia.org/resource/Ohio_Northern_University>) , <http://dbpedia.org/ontology/region>(?x0, <http://dbpedia.org/resource/Ohio>) , <http://dbpedia.org/ontology/successor-inv>(?x0, <http://dbpedia.org/resource/Dennis_Kucinich>) , <http://dbpedia.org/ontology/religion>(?x0, <http://dbpedia.org/resource/Presbyterianism>) , <http://dbpedia.org/ontology/predecessor>(?x0, <http://dbpedia.org/resource/Dennis_Kucinich>) ]
80	2019.02.26.16.32.05	Parallel	Ext. size 3 PR	1	[http://dbpedia.org/resource/Friends]	[<http://dbpedia.org/ontology/subsequentWork>(?x0, <http://dbpedia.org/resource/Joey_(TV_series)>) ]	1	3	363	1	367	184	FALSO	[<http://dbpedia.org/ontology/subsequentWork>(?x0, <http://dbpedia.org/resource/Joey_(TV_series)>) , <http://dbpedia.org/ontology/previousWork-inv>(?x0, <http://dbpedia.org/resource/Joey_(TV_series)>) , <http://www.w3.org/1999/02/22-rdf-syntax-ns#type>(?x0, <http://dbpedia.org/ontology/TelevisionShow>) , <http://dbpedia.org/ontology/series-inv>(?x0, <http://dbpedia.org/resource/The_One_with_Monica_and_Chandler's_Wedding>) , <http://dbpedia.org/ontology/series-inv>(?x0, <http://dbpedia.org/resource/The_One_with_Ross's_Wedding>) , <http://dbpedia.org/ontology/network>(?x0, <http://dbpedia.org/resource/NBC>) , <http://dbpedia.org/ontology/company>(?x0, ?x1) <http://dbpedia.org/ontology/director-inv>(?x1, <http://dbpedia.org/resource/The_One_with_Monica_and_Chandler's_Wedding>) , <http://dbpedia.org/ontology/executiveProducer>(?x0, <http://dbpedia.org/resource/Marta_Kauffman>) , <http://dbpedia.org/ontology/starring>(?x0, <http://dbpedia.org/resource/Matthew_Perry>) , <http://dbpedia.org/ontology/company>(?x0, ?x1) <http://dbpedia.org/ontology/director-inv>(?x1, <http://dbpedia.org/resource/The_One_with_Ross's_Wedding>) ]
Id	Timestamp	Sequential	Configuration	Number of entities	Entities	Solution	There was a solution	Intersection time	Sorting time	Mining time	Total time	Size priority queue	Timeout	Top subgraphs
61	2019.02.26.17.33.53	Parallel	Ext. size 3	1	[http://dbpedia.org/resource/Bill_Gates]	[<http://dbpedia.org/ontology/board>(?x0, <http://dbpedia.org/resource/Berkshire_Hathaway>) ]	1	1	724	3699	4424	65	FALSO	[<http://www.w3.org/1999/02/22-rdf-syntax-ns#type>(?x0, <http://dbpedia.org/ontology/Person>) , <http://dbpedia.org/ontology/author-inv>(?x0, <http://dbpedia.org/resource/The_Road_Ahead_(Bill_Gates_book)>) , <http://dbpedia.org/ontology/almaMater>(?x0, <http://dbpedia.org/resource/Harvard_University>) , <http://dbpedia.org/ontology/keyPerson-inv>(?x0, <http://dbpedia.org/resource/Microsoft>) , <http://dbpedia.org/ontology/keyPerson-inv>(?x0, <http://dbpedia.org/resource/Berkshire_Hathaway>) , <http://dbpedia.org/ontology/board>(?x0, <http://dbpedia.org/resource/Microsoft>) , <http://dbpedia.org/ontology/board>(?x0, <http://dbpedia.org/resource/Berkshire_Hathaway>) , <http://dbpedia.org/ontology/birthPlace>(?x0, <http://dbpedia.org/resource/Seattle>) , <http://dbpedia.org/ontology/parent>(?x0, ?x1) <http://dbpedia.org/ontology/almaMater>(?x1, <http://dbpedia.org/resource/University_of_Washington>) , <http://dbpedia.org/ontology/parent>(?x0, <http://dbpedia.org/resource/Mary_Maxwell_Gates>) ]
62	2019.02.26.17.33.58	Parallel	Ext. size 3	1	[http://dbpedia.org/resource/Barack_Obama]	[<http://dbpedia.org/ontology/appointer-inv>(?x0, <http://dbpedia.org/resource/Evan_Wallach>) ]	1	85	94608	14	94707	2901	FALSO	[<http://dbpedia.org/ontology/alumni-inv>(?x0, <http://dbpedia.org/resource/East_Greenwich_High_School>) , <http://dbpedia.org/ontology/appointer-inv>(?x0, <http://dbpedia.org/resource/Evan_Wallach>) , <http://dbpedia.org/ontology/birthPlace>(?x0, ?x1) <http://dbpedia.org/ontology/homeport-inv>(?x1, <http://dbpedia.org/resource/USNS_Vindicator_(T-AGOS-3)>) , <http://dbpedia.org/ontology/appointer-inv>(?x0, <http://dbpedia.org/resource/Brad_Carson>) , <http://dbpedia.org/ontology/appointer-inv>(?x0, <http://dbpedia.org/resource/Coral_Wong_Pietsch>) , <http://dbpedia.org/ontology/birthPlace>(?x0, ?x1) <http://dbpedia.org/ontology/homeport-inv>(?x1, <http://dbpedia.org/resource/USNS_Titan_(T-AGOS-15)>) , <http://dbpedia.org/ontology/birthPlace>(?x0, ?x1) <http://dbpedia.org/ontology/homeport-inv>(?x1, <http://dbpedia.org/resource/USNS_Adventurous_(T-AGOS-13)>) , <http://dbpedia.org/ontology/appointer-inv>(?x0, <http://dbpedia.org/resource/Emily_C._Hewitt>) , <http://dbpedia.org/ontology/residence>(?x0, ?x1) <http://dbpedia.org/ontology/profession-inv>(?x1, <http://dbpedia.org/resource/John_McCoy_(politician)>) , <http://dbpedia.org/ontology/birthPlace>(?x0, ?x1) <http://dbpedia.org/ontology/homeport-inv>(?x1, <http://dbpedia.org/resource/USS_Tunny_(SSN-682)>) ]
63	2019.02.26.17.35.32	Parallel	Ext. size 3	1	[http://dbpedia.org/resource/Marie_Curie]	[<http://dbpedia.org/ontology/spouse>(?x0, ?x1) <http://dbpedia.org/ontology/doctoralStudent>(?x1, <http://dbpedia.org/resource/Paul_Langevin>) ]	1	14	374	51	439	419	FALSO	[<http://www.w3.org/1999/02/22-rdf-syntax-ns#type>(?x0, <http://dbpedia.org/ontology/Scientist>) , <http://dbpedia.org/ontology/birthPlace>(?x0, ?x1) <http://dbpedia.org/ontology/successor-inv>(?x1, <http://dbpedia.org/resource/Imam_Shamil>) , <http://dbpedia.org/ontology/spouse>(?x0, ?x1) <http://dbpedia.org/ontology/doctoralStudent>(?x1, <http://dbpedia.org/resource/Paul_Langevin>) , <http://dbpedia.org/ontology/field>(?x0, ?x1) <http://dbpedia.org/ontology/literaryGenre-inv>(?x1, <http://dbpedia.org/resource/The_Beginning_of_Infinity>) , <http://dbpedia.org/ontology/birthPlace>(?x0, ?x1) <http://dbpedia.org/ontology/builder-inv>(?x1, <http://dbpedia.org/resource/Russian_battleship_Poltava_(1894)>) , <http://dbpedia.org/ontology/doctoralStudent>(?x0, <http://dbpedia.org/resource/André-Louis_Debierne>) , <http://dbpedia.org/ontology/doctoralStudent>(?x0, <http://dbpedia.org/resource/Marguerite_Perey>) , <http://dbpedia.org/ontology/doctoralStudent>(?x0, <http://dbpedia.org/resource/Émile_Henriot_(chemist)>) , <http://dbpedia.org/ontology/spouse>(?x0, ?x1) <http://dbpedia.org/ontology/doctoralStudent>(?x1, <http://dbpedia.org/resource/André-Louis_Debierne>) , <http://dbpedia.org/ontology/spouse>(?x0, ?x1) <http://dbpedia.org/ontology/doctoralStudent>(?x1, <http://dbpedia.org/resource/Marguerite_Perey>) ]
64	2019.02.26.17.35.33	Parallel	Ext. size 3	1	[http://dbpedia.org/resource/The_Cosby_Show]	[<http://dbpedia.org/ontology/previousWork>(?x0, <http://dbpedia.org/resource/The_Bill_Cosby_Show>) ]	1	50	6641	305	6996	5454	FALSO	[<http://dbpedia.org/ontology/previousWork>(?x0, <http://dbpedia.org/resource/The_Bill_Cosby_Show>) , <http://dbpedia.org/ontology/location>(?x0, ?x1) <http://dbpedia.org/ontology/picture-inv>(?x1, <http://dbpedia.org/resource/Bear_Mountain_Bridge>) , <http://dbpedia.org/ontology/location>(?x0, ?x1) <http://dbpedia.org/ontology/homeport-inv>(?x1, <http://dbpedia.org/resource/TS_Empire_State_VI>) , <http://dbpedia.org/ontology/executiveProducer>(?x0, ?x1) <http://dbpedia.org/ontology/predecessor>(?x1, <http://dbpedia.org/resource/Martin_Broughton>) , <http://dbpedia.org/ontology/location>(?x0, ?x1) <http://dbpedia.org/ontology/employer-inv>(?x1, <http://dbpedia.org/resource/Forrest_Church>) , <http://dbpedia.org/ontology/distributor>(?x0, ?x1) <http://dbpedia.org/ontology/successor>(?x1, <http://dbpedia.org/resource/CBS_Television_Distribution>) , <http://www.w3.org/1999/02/22-rdf-syntax-ns#type>(?x0, <http://dbpedia.org/ontology/TelevisionShow>) , <http://dbpedia.org/ontology/location>(?x0, ?x1) <http://dbpedia.org/ontology/homeport-inv>(?x1, <http://dbpedia.org/resource/USNS_Contender_(T-AGOS-2)>) , <http://dbpedia.org/ontology/location>(?x0, ?x1) <http://dbpedia.org/ontology/owningCompany-inv>(?x1, <http://dbpedia.org/resource/Long_Island_Power_Authority>) , <http://dbpedia.org/ontology/location>(?x0, ?x1) <http://dbpedia.org/ontology/homeport-inv>(?x1, <http://dbpedia.org/resource/NOAAS_Peirce_(S_328)>) ]
65	2019.02.26.17.35.40	Parallel	Ext. size 3	1	[http://dbpedia.org/resource/Yukon_River]	[<http://dbpedia.org/ontology/riverMouth-inv>(?x0, <http://dbpedia.org/resource/Koyukuk_River>) ]	1	39	100205	993	101237	3593	FALSO	[<http://dbpedia.org/ontology/state>(?x0, ?x1) <http://dbpedia.org/ontology/picture-inv>(?x1, <http://dbpedia.org/resource/Okanagan_Lake_Bridge>) , <http://dbpedia.org/ontology/mouthRegion>(?x0, ?x1) <http://dbpedia.org/ontology/timeZone-inv>(?x1, <http://dbpedia.org/resource/Sitka,_Alaska>) , <http://dbpedia.org/ontology/mouthRegion>(?x0, ?x1) <http://dbpedia.org/ontology/timeZone-inv>(?x1, <http://dbpedia.org/resource/Seward,_Alaska>) , <http://dbpedia.org/ontology/sourceRegion>(?x0, ?x1) <http://dbpedia.org/ontology/picture-inv>(?x1, <http://dbpedia.org/resource/Okanagan_Lake_Bridge>) , <http://dbpedia.org/ontology/mouthRegion>(?x0, ?x1) <http://dbpedia.org/ontology/type-inv>(?x1, <http://dbpedia.org/resource/Kodiak,_Alaska>) , <http://dbpedia.org/ontology/mouthRegion>(?x0, ?x1) <http://dbpedia.org/ontology/timeZone-inv>(?x1, <http://dbpedia.org/resource/Angoon,_Alaska>) , <http://dbpedia.org/ontology/state>(?x0, ?x1) <http://dbpedia.org/ontology/owner-inv>(?x1, <http://dbpedia.org/resource/BC_Place>) , <http://dbpedia.org/ontology/sourceRegion>(?x0, ?x1) <http://dbpedia.org/ontology/owner-inv>(?x1, <http://dbpedia.org/resource/BC_Place>) , <http://dbpedia.org/ontology/sourceRegion>(?x0, ?x1) <http://dbpedia.org/ontology/almaMater-inv>(?x1, <http://dbpedia.org/resource/Michaela_Pereira>) , <http://www.w3.org/1999/02/22-rdf-syntax-ns#type>(?x0, <http://dbpedia.org/ontology/River>) ]
66	2019.02.26.17.37.21	Parallel	Ext. size 3	1	[http://dbpedia.org/resource/Joe_Biden]	[<http://dbpedia.org/ontology/guest-inv>(?x0, <http://dbpedia.org/resource/One_Last_Ride>) , <http://dbpedia.org/ontology/religion>(?x0, ?x1) <http://dbpedia.org/ontology/programmeFormat-inv>(?x1, <http://dbpedia.org/resource/WIDG>) ]	1	72	434	546	1052	816	FALSO	[<http://dbpedia.org/ontology/guest-inv>(?x0, <http://dbpedia.org/resource/One_Last_Ride>) , <http://dbpedia.org/ontology/religion>(?x0, ?x1) <http://dbpedia.org/ontology/programmeFormat-inv>(?x1, <http://dbpedia.org/resource/WIDG>) , <http://dbpedia.org/ontology/religion>(?x0, ?x1) <http://dbpedia.org/ontology/denomination-inv>(?x1, <http://dbpedia.org/resource/St._Michael's_College_National_School>) , <http://dbpedia.org/ontology/region>(?x0, ?x1) <http://dbpedia.org/ontology/homeport-inv>(?x1, <http://dbpedia.org/resource/NOAAS_Peirce_(S_328)>) , <http://www.w3.org/1999/02/22-rdf-syntax-ns#type>(?x0, <http://dbpedia.org/ontology/OfficeHolder>) , <http://dbpedia.org/ontology/party>(?x0, ?x1) <http://dbpedia.org/ontology/occupation-inv>(?x1, <http://dbpedia.org/resource/Josiah_Bartlet>) , <http://dbpedia.org/ontology/religion>(?x0, ?x1) <http://dbpedia.org/ontology/occupation-inv>(?x1, <http://dbpedia.org/resource/Shtjefën_Gjeçovi>) , <http://dbpedia.org/ontology/party>(?x0, ?x1) <http://dbpedia.org/ontology/occupation-inv>(?x1, <http://dbpedia.org/resource/Winfield_Scott_Hancock>) , <http://dbpedia.org/ontology/region>(?x0, ?x1) <http://dbpedia.org/ontology/builder-inv>(?x1, <http://dbpedia.org/resource/USS_Lydonia_(SP-700)>) , <http://dbpedia.org/ontology/president>(?x0, <http://dbpedia.org/resource/Barack_Obama>) ]
67	2019.02.26.17.37.22	Parallel	Ext. size 3	1	[http://dbpedia.org/resource/Albert_Einstein]	[<http://dbpedia.org/ontology/academicAdvisor-inv>(?x0, <http://dbpedia.org/resource/Nathan_Rosen>) ]	1	13	116356	37	116406	687	FALSO	[<http://www.w3.org/1999/02/22-rdf-syntax-ns#type>(?x0, <http://dbpedia.org/ontology/Scientist>) , <http://dbpedia.org/ontology/relative-inv>(?x0, <http://dbpedia.org/resource/Einstein_family>) , <http://dbpedia.org/ontology/field>(?x0, ?x1) <http://dbpedia.org/ontology/literaryGenre-inv>(?x1, <http://dbpedia.org/resource/The_Beginning_of_Infinity>) , <http://dbpedia.org/ontology/academicAdvisor-inv>(?x0, <http://dbpedia.org/resource/Kurt_Mendelssohn>) , <http://dbpedia.org/ontology/academicAdvisor>(?x0, ?x1) <http://dbpedia.org/ontology/residence>(?x1, <http://dbpedia.org/resource/Germany>) , <http://dbpedia.org/ontology/academicAdvisor-inv>(?x0, <http://dbpedia.org/resource/Nathan_Rosen>) , <http://dbpedia.org/ontology/birthPlace>(?x0, ?x1) <http://dbpedia.org/ontology/citizenship>(?x0, ?x1) , <http://dbpedia.org/ontology/field>(?x0, ?x1) <http://dbpedia.org/ontology/award-inv>(?x1, <http://dbpedia.org/resource/Dana_Scott>) , <http://dbpedia.org/ontology/academicAdvisor-inv>(?x0, <http://dbpedia.org/resource/Leo_Szilard>) , <http://dbpedia.org/ontology/academicAdvisor>(?x0, ?x1) <http://dbpedia.org/ontology/residence>(?x1, <http://dbpedia.org/resource/Switzerland>) ]
68	2019.02.26.17.39.18	Parallel	Ext. size 3	1	[http://dbpedia.org/resource/John_Napier]	[<http://dbpedia.org/ontology/influenced>(?x0, <http://dbpedia.org/resource/Henry_Briggs_(mathematician)>) ]	1	20	732049	512	732581	2354	FALSO	[<http://www.w3.org/1999/02/22-rdf-syntax-ns#type>(?x0, <http://dbpedia.org/ontology/Scientist>) , <http://dbpedia.org/ontology/nationality>(?x0, ?x1) <http://dbpedia.org/ontology/builder-inv>(?x1, <http://dbpedia.org/resource/Queen_Elizabeth_2>) , <http://dbpedia.org/ontology/nationality>(?x0, ?x1) <http://dbpedia.org/ontology/builder-inv>(?x1, <http://dbpedia.org/resource/HMS_Escort_(H66)>) , <http://dbpedia.org/ontology/nationality>(?x0, ?x1) <http://dbpedia.org/ontology/builder-inv>(?x1, <http://dbpedia.org/resource/HMS_Vanguard_(23)>) , <http://dbpedia.org/ontology/nationality>(?x0, ?x1) <http://dbpedia.org/ontology/builder-inv>(?x1, <http://dbpedia.org/resource/HMS_Hotspur_(H01)>) , <http://dbpedia.org/ontology/nationality>(?x0, ?x1) <http://dbpedia.org/ontology/builder-inv>(?x1, <http://dbpedia.org/resource/HMS_Shropshire>) , <http://dbpedia.org/ontology/nationality>(?x0, ?x1) <http://dbpedia.org/ontology/builder-inv>(?x1, <http://dbpedia.org/resource/RMS_Sylvania>) , <http://dbpedia.org/ontology/nationality>(?x0, ?x1) <http://dbpedia.org/ontology/builder-inv>(?x1, <http://dbpedia.org/resource/HMS_Enterprise_(D52)>) , <http://dbpedia.org/ontology/nationality>(?x0, ?x1) <http://dbpedia.org/ontology/builder-inv>(?x1, <http://dbpedia.org/resource/HMS_Loch_Insh_(K433)>) , <http://dbpedia.org/ontology/nationality>(?x0, ?x1) <http://dbpedia.org/ontology/builder-inv>(?x1, <http://dbpedia.org/resource/HMS_Wakeful_(1943)>) ]
69	2019.02.26.17.51.31	Parallel	Ext. size 3	1	[http://dbpedia.org/resource/Beverly_Hills,_90210]	[<http://dbpedia.org/ontology/subsequentWork>(?x0, <http://dbpedia.org/resource/Melrose_Place>) ]	1	25	4799	22	4846	832	FALSO	[<http://dbpedia.org/ontology/subsequentWork>(?x0, <http://dbpedia.org/resource/90210_(TV_series)>) , <http://dbpedia.org/ontology/subsequentWork>(?x0, <http://dbpedia.org/resource/Melrose_Place>) , <http://dbpedia.org/ontology/subsequentWork>(?x0, <http://dbpedia.org/resource/Models_Inc.>) , <http://dbpedia.org/ontology/executiveProducer>(?x0, ?x1) <http://dbpedia.org/ontology/guest-inv>(?x1, <http://dbpedia.org/resource/P.S._I_Love_You_(How_I_Met_Your_Mother)>) , <http://dbpedia.org/ontology/subsequentWork>(?x0, <http://dbpedia.org/resource/Melrose_Place_(2009_TV_series)>) , <http://dbpedia.org/ontology/previousWork-inv>(?x0, <http://dbpedia.org/resource/90210_(TV_series)>) , <http://dbpedia.org/ontology/previousWork-inv>(?x0, <http://dbpedia.org/resource/Melrose_Place>) , <http://dbpedia.org/ontology/previousWork-inv>(?x0, <http://dbpedia.org/resource/Models_Inc.>) , <http://dbpedia.org/ontology/previousWork-inv>(?x0, <http://dbpedia.org/resource/Melrose_Place_(2009_TV_series)>) , <http://dbpedia.org/ontology/distributor>(?x0, ?x1) <http://dbpedia.org/ontology/successor>(?x1, <http://dbpedia.org/resource/CBS_Television_Distribution>) ]
70	2019.02.26.17.51.36	Parallel	Ext. size 3	1	[http://dbpedia.org/resource/Walt_Disney]	[<http://dbpedia.org/ontology/producer-inv>(?x0, <http://dbpedia.org/resource/Victory_Through_Air_Power_(film)>) ]	1	1	162	25	188	90	FALSO	[<http://dbpedia.org/ontology/basedOn-inv>(?x0, <http://dbpedia.org/resource/Pirates_of_the_Caribbean_(film_series)>) , <http://www.w3.org/1999/02/22-rdf-syntax-ns#type>(?x0, <http://dbpedia.org/ontology/Person>) , <http://dbpedia.org/ontology/voice-inv>(?x0, <http://dbpedia.org/resource/Mickey_Mouse>) , <http://dbpedia.org/ontology/producer-inv>(?x0, <http://dbpedia.org/resource/The_Tenderfoot_(miniseries)>) , <http://dbpedia.org/ontology/producer-inv>(?x0, <http://dbpedia.org/resource/Victory_Through_Air_Power_(film)>) , <http://dbpedia.org/ontology/producer-inv>(?x0, <http://dbpedia.org/resource/Bon_Voyage!_(1962_film)>) , <http://dbpedia.org/ontology/producer-inv>(?x0, <http://dbpedia.org/resource/Cinderella_(1950_film)>) , <http://dbpedia.org/ontology/producer-inv>(?x0, <http://dbpedia.org/resource/Peter_Pan_(1953_film)>) , <http://dbpedia.org/ontology/producer-inv>(?x0, <http://dbpedia.org/resource/Pollyanna_(1960_film)>) , <http://dbpedia.org/ontology/producer-inv>(?x0, <http://dbpedia.org/resource/Sleeping_Beauty_(1959_film)>) ]
71	2019.02.26.17.51.36	Parallel	Ext. size 3	1	[http://dbpedia.org/resource/Argo_(2012_film)]	[<http://dbpedia.org/ontology/producer>(?x0, ?x1) <http://dbpedia.org/ontology/guest-inv>(?x1, <http://dbpedia.org/resource/Via_Negativa_(The_X-Files)>) , <http://dbpedia.org/ontology/starring>(?x0, ?x1) <http://dbpedia.org/ontology/guest-inv>(?x1, <http://dbpedia.org/resource/The_Mom_&_Pop_Store>) ]	1	8	396	944	1348	223	FALSO	[<http://dbpedia.org/ontology/producer>(?x0, ?x1) <http://dbpedia.org/ontology/guest-inv>(?x1, <http://dbpedia.org/resource/Via_Negativa_(The_X-Files)>) , <http://dbpedia.org/ontology/starring>(?x0, ?x1) <http://dbpedia.org/ontology/guest-inv>(?x1, <http://dbpedia.org/resource/The_Mom_&_Pop_Store>) , <http://dbpedia.org/ontology/starring>(?x0, ?x1) <http://dbpedia.org/ontology/guest-inv>(?x1, <http://dbpedia.org/resource/The_Strike_(Seinfeld)>) , <http://dbpedia.org/ontology/starring>(?x0, ?x1) <http://dbpedia.org/ontology/guest-inv>(?x1, <http://dbpedia.org/resource/The_Yada_Yada>) , <http://dbpedia.org/ontology/starring>(?x0, ?x1) <http://dbpedia.org/ontology/guest-inv>(?x1, <http://dbpedia.org/resource/Twenty_Five_(The_West_Wing)>) , <http://dbpedia.org/ontology/cinematography>(?x0, <http://dbpedia.org/resource/Rodrigo_Prieto>) , <http://www.w3.org/1999/02/22-rdf-syntax-ns#type>(?x0, <http://dbpedia.org/ontology/Film>) , <http://dbpedia.org/ontology/director>(?x0, <http://dbpedia.org/resource/Ben_Affleck>) , <http://dbpedia.org/ontology/director>(?x0, ?x1) <http://dbpedia.org/ontology/party>(?x1, <http://dbpedia.org/resource/Democratic_Party_(United_States)>) , <http://dbpedia.org/ontology/cinematography>(?x0, ?x1) <http://dbpedia.org/ontology/residence>(?x1, <http://dbpedia.org/resource/Los_Angeles>) ]
72	2019.02.26.17.51.37	Parallel	Ext. size 3	1	[http://dbpedia.org/resource/Benjamin_Franklin]	[<http://dbpedia.org/ontology/associate>(?x0, <http://dbpedia.org/resource/John_Adams>) ]	1	50	1407	396	1853	2259	FALSO	[<http://dbpedia.org/ontology/associate>(?x0, <http://dbpedia.org/resource/John_Adams>) , <http://dbpedia.org/ontology/associate-inv>(?x0, <http://dbpedia.org/resource/John_Adams>) , <http://www.w3.org/1999/02/22-rdf-syntax-ns#type>(?x0, <http://dbpedia.org/ontology/OfficeHolder>) , <http://dbpedia.org/ontology/vicePresident>(?x0, <http://dbpedia.org/resource/Thomas_Mifflin>) , <http://dbpedia.org/ontology/associate>(?x0, <http://dbpedia.org/resource/Silas_Deane>) , <http://dbpedia.org/ontology/associate-inv>(?x0, <http://dbpedia.org/resource/Silas_Deane>) , <http://dbpedia.org/ontology/relation-inv>(?x0, <http://dbpedia.org/resource/Josiah_Franklin>) , <http://dbpedia.org/ontology/deathPlace>(?x0, ?x1) <http://dbpedia.org/ontology/service-inv>(?x1, <http://dbpedia.org/resource/E-ZPass>) , <http://dbpedia.org/ontology/predecessor>(?x0, ?x1) <http://dbpedia.org/ontology/successor>(?x0, ?x1) , <http://dbpedia.org/ontology/deathPlace>(?x0, ?x1) <http://dbpedia.org/ontology/builder-inv>(?x1, <http://dbpedia.org/resource/USS_Columbia_(C-12)>) ]
73	2019.02.26.17.51.39	Parallel	Ext. size 3	1	[http://dbpedia.org/resource/Norway]	[<http://dbpedia.org/ontology/recordedIn-inv>(?x0, <http://dbpedia.org/resource/Fly_By_II>) ]	1	18	442	255	715	1340	FALSO	[<http://dbpedia.org/ontology/homeport-inv>(?x0, <http://dbpedia.org/resource/MS_Mega_Smeralda>) , <http://dbpedia.org/ontology/homeport-inv>(?x0, <http://dbpedia.org/resource/MS_Oscar_Wilde>) , <http://dbpedia.org/ontology/race-inv>(?x0, <http://dbpedia.org/resource/Stig_H._Johansson>) , <http://dbpedia.org/ontology/recordedIn-inv>(?x0, <http://dbpedia.org/resource/Hear_the_Crowd>) , <http://dbpedia.org/ontology/recordedIn-inv>(?x0, <http://dbpedia.org/resource/The_One_(A-Lee_song)>) , <http://dbpedia.org/ontology/recordedIn-inv>(?x0, <http://dbpedia.org/resource/Fly_By_II>) , <http://dbpedia.org/ontology/recordedIn-inv>(?x0, <http://dbpedia.org/resource/Before_My_Eyes>) , <http://dbpedia.org/ontology/recordedIn-inv>(?x0, <http://dbpedia.org/resource/She's_So_High_(Tal_Bachman_song)>) , <http://dbpedia.org/ontology/recordedIn-inv>(?x0, <http://dbpedia.org/resource/World_So_Cold_(A-Lee_song)>) , <http://dbpedia.org/ontology/builder-inv>(?x0, <http://dbpedia.org/resource/MY_Bob_Barker>) ]
74	2019.02.26.17.51.40	Parallel	Ext. size 3	1	[http://dbpedia.org/resource/Knight_Rider_(1982_TV_series)]	[<http://dbpedia.org/ontology/subsequentWork>(?x0, <http://dbpedia.org/resource/Knight_Rider_(2008_TV_series)>) ]	1	22	3993	56	4071	615	FALSO	[<http://dbpedia.org/ontology/subsequentWork>(?x0, <http://dbpedia.org/resource/Knight_Rider_(2008_TV_series)>) , <http://dbpedia.org/ontology/narrator>(?x0, ?x1) <http://dbpedia.org/ontology/guest-inv>(?x1, <http://dbpedia.org/resource/Knight_of_the_Phoenix>) , <http://dbpedia.org/ontology/voice>(?x0, ?x1) <http://dbpedia.org/ontology/successor>(?x1, <http://dbpedia.org/resource/Melissa_Gilbert>) , <http://dbpedia.org/ontology/previousWork-inv>(?x0, <http://dbpedia.org/resource/Knight_Rider_(2008_TV_series)>) , <http://dbpedia.org/ontology/voice>(?x0, ?x1) <http://dbpedia.org/ontology/predecessor>(?x1, <http://dbpedia.org/resource/Richard_Masur>) , <http://www.w3.org/1999/02/22-rdf-syntax-ns#type>(?x0, <http://dbpedia.org/ontology/TelevisionShow>) , <http://dbpedia.org/ontology/composer>(?x0, ?x1) <http://dbpedia.org/ontology/company-inv>(?x1, <http://dbpedia.org/resource/B._J._and_the_Bear>) , <http://dbpedia.org/ontology/composer>(?x0, ?x1) <http://dbpedia.org/ontology/author-inv>(?x1, <http://dbpedia.org/resource/B._J._and_the_Bear>) , <http://dbpedia.org/ontology/composer>(?x0, ?x1) <http://dbpedia.org/ontology/director-inv>(?x1, <http://dbpedia.org/resource/Night_Man>) , <http://dbpedia.org/ontology/series-inv>(?x0, <http://dbpedia.org/resource/Knight_of_the_Phoenix>) ]
75	2019.02.26.17.51.44	Parallel	Ext. size 3	1	[http://dbpedia.org/resource/Lexus]	[<http://dbpedia.org/ontology/manufacturer-inv>(?x0, <http://dbpedia.org/resource/Lexus_LFA>) ]	1	4	5351	41	5396	465	FALSO	[<http://dbpedia.org/ontology/keyPerson>(?x0, ?x1) <http://dbpedia.org/ontology/position-inv>(?x1, <http://dbpedia.org/resource/Ernie_Grunfeld>) , <http://dbpedia.org/ontology/keyPerson>(?x0, ?x1) <http://dbpedia.org/ontology/position-inv>(?x1, <http://dbpedia.org/resource/Goran_Ćakić>) , <http://dbpedia.org/ontology/manufacturer-inv>(?x0, <http://dbpedia.org/resource/Lexus_LFA>) , <http://dbpedia.org/ontology/manufacturer-inv>(?x0, <http://dbpedia.org/resource/Lexus_HS>) , <http://dbpedia.org/ontology/manufacturer-inv>(?x0, <http://dbpedia.org/resource/Lexus_IS_(XE20)>) , <http://dbpedia.org/ontology/manufacturer-inv>(?x0, <http://dbpedia.org/resource/Lexus_NX>) , <http://www.w3.org/1999/02/22-rdf-syntax-ns#type>(?x0, <http://dbpedia.org/ontology/Company>) , <http://dbpedia.org/ontology/manufacturer-inv>(?x0, <http://dbpedia.org/resource/Lexus_LS_(XF40)>) , <http://dbpedia.org/ontology/manufacturer-inv>(?x0, <http://dbpedia.org/resource/Lexus_GS_(S190)>) , <http://dbpedia.org/ontology/division-inv>(?x0, <http://dbpedia.org/resource/Toyota>) ]
76	2019.02.26.17.51.49	Parallel	Ext. size 3	1	[http://dbpedia.org/resource/Rice_University]	[<http://dbpedia.org/ontology/president>(?x0, <http://dbpedia.org/resource/David_Leebron>) ]	1	52	3109	286	3447	2936	FALSO	[<http://dbpedia.org/ontology/state>(?x0, ?x1) <http://dbpedia.org/ontology/religion-inv>(?x1, <http://dbpedia.org/resource/Jerry_Fowler>) , <http://dbpedia.org/ontology/state>(?x0, ?x1) <http://dbpedia.org/ontology/homeport-inv>(?x1, <http://dbpedia.org/resource/USNS_Contender_(T-AGOS-2)>) , <http://www.w3.org/1999/02/22-rdf-syntax-ns#type>(?x0, <http://dbpedia.org/ontology/University>) , <http://dbpedia.org/ontology/state>(?x0, ?x1) <http://dbpedia.org/ontology/builder-inv>(?x1, <http://dbpedia.org/resource/BRP_Rajah_Lakandula_(PF-4)>) , <http://dbpedia.org/ontology/state>(?x0, ?x1) <http://dbpedia.org/ontology/builder-inv>(?x1, <http://dbpedia.org/resource/USS_Odum_(APD-71)>) , <http://dbpedia.org/ontology/state>(?x0, ?x1) <http://dbpedia.org/ontology/occupation-inv>(?x1, <http://dbpedia.org/resource/Steve_Asmussen>) , <http://dbpedia.org/ontology/state>(?x0, ?x1) <http://dbpedia.org/ontology/builder-inv>(?x1, <http://dbpedia.org/resource/USS_John_P._Gray_(APD-74)>) , <http://dbpedia.org/ontology/state>(?x0, ?x1) <http://dbpedia.org/ontology/builder-inv>(?x1, <http://dbpedia.org/resource/USS_LSM-45>) , <http://dbpedia.org/ontology/state>(?x0, ?x1) <http://dbpedia.org/ontology/builder-inv>(?x1, <http://dbpedia.org/resource/USS_Wandank_(ATA-204)>) , <http://dbpedia.org/ontology/state>(?x0, ?x1) <http://purl.org/dc/elements/1.1/subject-inv>(?x1, <http://dbpedia.org/resource/Eugene_C._Barker>) ]
77	2019.02.26.17.51.53	Parallel	Ext. size 3	1	[http://dbpedia.org/resource/Amsterdam]	[<http://dbpedia.org/ontology/recordedIn-inv>(?x0, <http://dbpedia.org/resource/Warriors_of_the_Wasteland>) ]	1	20	652	151	823	589	FALSO	[<http://dbpedia.org/ontology/race-inv>(?x0, <http://dbpedia.org/resource/Calvin_Borel>) , <http://dbpedia.org/ontology/recordedIn-inv>(?x0, <http://dbpedia.org/resource/Warriors_of_the_Wasteland>) , <http://dbpedia.org/ontology/recordedIn-inv>(?x0, <http://dbpedia.org/resource/Love_Runs_Out>) , <http://dbpedia.org/ontology/recordedIn-inv>(?x0, <http://dbpedia.org/resource/I_Can_Only_Imagine_(David_Guetta_song)>) , <http://dbpedia.org/ontology/recordedIn-inv>(?x0, <http://dbpedia.org/resource/Watching_the_Wildlife>) , <http://dbpedia.org/ontology/recordedIn-inv>(?x0, <http://dbpedia.org/resource/Live_from_Amsterdam_(video)>) , <http://dbpedia.org/ontology/recordedIn-inv>(?x0, <http://dbpedia.org/resource/Turn_(The_Ex_album)>) , <http://dbpedia.org/ontology/recordedIn-inv>(?x0, <http://dbpedia.org/resource/Wedding_Album>) , <http://www.w3.org/1999/02/22-rdf-syntax-ns#type>(?x0, <http://dbpedia.org/ontology/City>) , <http://dbpedia.org/ontology/leaderParty>(?x0, ?x1) <http://dbpedia.org/ontology/europeanAffiliation>(?x1, <http://dbpedia.org/resource/Party_of_European_Socialists>) ]
78	2019.02.26.17.51.54	Parallel	Ext. size 3	1	[http://dbpedia.org/resource/Bruce_Lee]	[<http://dbpedia.org/ontology/writer-inv>(?x0, <http://dbpedia.org/resource/Game_of_Death>) ]	1	10	798157	1898	800065	361	FALSO	[<http://dbpedia.org/ontology/country>(?x0, ?x1) <http://dbpedia.org/ontology/league-inv>(?x1, <http://dbpedia.org/resource/Cheng_Chih-lung_(basketball)>) , <http://dbpedia.org/ontology/country>(?x0, ?x1) <http://dbpedia.org/ontology/relatedMeanOfTransportation-inv>(?x1, <http://dbpedia.org/resource/Isuzu_Elf>) , <http://dbpedia.org/ontology/country>(?x0, ?x1) <http://dbpedia.org/ontology/distributor-inv>(?x1, <http://dbpedia.org/resource/Turn_Left,_Turn_Right>) , <http://www.w3.org/1999/02/22-rdf-syntax-ns#type>(?x0, <http://dbpedia.org/ontology/Actor>) , <http://dbpedia.org/ontology/country>(?x0, ?x1) <http://dbpedia.org/ontology/owningCompany-inv>(?x1, <http://dbpedia.org/resource/China_Post>) , <http://dbpedia.org/ontology/country>(?x0, ?x1) <http://dbpedia.org/ontology/owningCompany-inv>(?x1, <http://dbpedia.org/resource/China_Unicom>) , <http://dbpedia.org/ontology/country>(?x0, ?x1) <http://dbpedia.org/ontology/owningCompany-inv>(?x1, <http://dbpedia.org/resource/Jinjiang_International>) , <http://dbpedia.org/ontology/country>(?x0, ?x1) <http://dbpedia.org/ontology/owningCompany-inv>(?x1, <http://dbpedia.org/resource/China_Telecom>) , <http://dbpedia.org/ontology/country>(?x0, ?x1) <http://dbpedia.org/ontology/owner-inv>(?x1, <http://dbpedia.org/resource/China_Post>) , <http://dbpedia.org/ontology/country>(?x0, ?x1) <http://dbpedia.org/ontology/owner-inv>(?x1, <http://dbpedia.org/resource/China_Unicom>) ]
79	2019.02.26.18.05.14	Parallel	Ext. size 3	1	[http://dbpedia.org/resource/Mike_Turner]	[<http://dbpedia.org/ontology/predecessor>(?x0, <http://dbpedia.org/resource/Hugh_Bayley>) ]	1	142	5378	2470	7990	8329	FALSO	[<http://dbpedia.org/ontology/region>(?x0, ?x1) <http://dbpedia.org/ontology/militaryRank-inv>(?x1, <http://dbpedia.org/resource/George_Wythe_McCook>) , <http://dbpedia.org/ontology/birthPlace>(?x0, ?x1) <http://dbpedia.org/ontology/militaryRank-inv>(?x1, <http://dbpedia.org/resource/George_Wythe_McCook>) , <http://www.w3.org/1999/02/22-rdf-syntax-ns#type>(?x0, <http://dbpedia.org/ontology/OfficeHolder>) , <http://dbpedia.org/ontology/party>(?x0, ?x1) <http://dbpedia.org/ontology/opponent-inv>(?x1, <http://dbpedia.org/resource/Clinton_Manges>) , <http://dbpedia.org/ontology/party>(?x0, ?x1) <http://dbpedia.org/ontology/opponent-inv>(?x1, <http://dbpedia.org/resource/William_L._Dill>) , <http://dbpedia.org/ontology/party>(?x0, ?x1) <http://dbpedia.org/ontology/occupation-inv>(?x1, <http://dbpedia.org/resource/Henry_W._Jeffers>) , <http://dbpedia.org/ontology/birthPlace>(?x0, ?x1) <http://dbpedia.org/ontology/service-inv>(?x1, <http://dbpedia.org/resource/E-ZPass>) , <http://dbpedia.org/ontology/region>(?x0, ?x1) <http://dbpedia.org/ontology/crosses-inv>(?x1, <http://dbpedia.org/resource/Valley_View_Bridge>) , <http://dbpedia.org/ontology/party>(?x0, ?x1) <http://dbpedia.org/ontology/occupation-inv>(?x1, <http://dbpedia.org/resource/John_W._Grabiel>) , <http://dbpedia.org/ontology/birthPlace>(?x0, ?x1) <http://dbpedia.org/ontology/region>(?x0, ?x1) ]
80	2019.02.26.18.05.22	Parallel	Ext. size 3	1	[http://dbpedia.org/resource/Friends]	[<http://dbpedia.org/ontology/subsequentWork>(?x0, <http://dbpedia.org/resource/Joey_(TV_series)>) ]	1	28	359	63	450	729	FALSO	[<http://dbpedia.org/ontology/subsequentWork>(?x0, <http://dbpedia.org/resource/Joey_(TV_series)>) , <http://dbpedia.org/ontology/starring>(?x0, ?x1) <http://dbpedia.org/ontology/guest-inv>(?x1, <http://dbpedia.org/resource/The_Wife_(Seinfeld)>) , <http://dbpedia.org/ontology/previousWork-inv>(?x0, <http://dbpedia.org/resource/Joey_(TV_series)>) , <http://www.w3.org/1999/02/22-rdf-syntax-ns#type>(?x0, <http://dbpedia.org/ontology/TelevisionShow>) , <http://dbpedia.org/ontology/series-inv>(?x0, <http://dbpedia.org/resource/The_One_with_Monica_and_Chandler's_Wedding>) , <http://dbpedia.org/ontology/series-inv>(?x0, <http://dbpedia.org/resource/The_One_with_Ross's_Wedding>) , <http://dbpedia.org/ontology/network>(?x0, <http://dbpedia.org/resource/NBC>) , <http://dbpedia.org/ontology/company>(?x0, ?x1) <http://dbpedia.org/ontology/director-inv>(?x1, <http://dbpedia.org/resource/The_One_with_Monica_and_Chandler's_Wedding>) , <http://dbpedia.org/ontology/executiveProducer>(?x0, <http://dbpedia.org/resource/Marta_Kauffman>) , <http://dbpedia.org/ontology/starring>(?x0, <http://dbpedia.org/resource/Matthew_Perry>) ]
