"ID","Property","Value","5 triple summary","10 triple summary"
"1","http://dbpedia.org/property/audioFormat","Multichannel television sound","http://dbpedia.org/ontology/channel","http://dbpedia.org/ontology/channel"
"2","http://dbpedia.org/property/audioFormat","Monaural","http://dbpedia.org/property/company","http://dbpedia.org/property/company"
"3","http://dbpedia.org/property/audioFormat","Dolby Surround","http://dbpedia.org/ontology/creator","http://dbpedia.org/ontology/creator"
"4","http://dbpedia.org/property/camera","Single-camera setup","http://dbpedia.org/ontology/distributor","http://dbpedia.org/ontology/distributor"
"5","http://dbpedia.org/ontology/channel","Fox Broadcasting Company","http://dbpedia.org/ontology/genre","http://dbpedia.org/ontology/genre"
"6","http://dbpedia.org/property/channel","Fox Broadcasting Company",,"http://dbpedia.org/ontology/starring"
"7","http://dbpedia.org/property/company","Propaganda Films",,"http://dbpedia.org/ontology/thumbnail"
"8","http://dbpedia.org/property/company","Torand Productions",,"http://dbpedia.org/ontology/subsequentWork"
"9","http://dbpedia.org/ontology/company","Spelling Television",,"http://dbpedia.org/property/listEpisodes"
"10","http://dbpedia.org/property/company","Spelling Television",,"http://dbpedia.org/property/language"
"11","http://dbpedia.org/property/country","United States"
"12","http://dbpedia.org/ontology/creator","E. Duke Vincent"
"13","http://dbpedia.org/ontology/creator","Aaron Spelling"
"14","http://dbpedia.org/ontology/creator","Darren Star"
"15","http://dbpedia.org/property/creator","E. Duke Vincent"
"16","http://dbpedia.org/property/creator","Aaron Spelling"
"17","http://dbpedia.org/property/creator","Darren Star"
"18","http://xmlns.com/foaf/0.1/depiction","http://upload.wikimedia.org/wikipedia/commons/8/82/90210Logo.jpg"
"19","http://dbpedia.org/ontology/distributor","Paramount Domestic Television"
"20","http://dbpedia.org/ontology/distributor","CBS Television Distribution"
"21","http://dbpedia.org/ontology/distributor","Worldvision Enterprises"
"22","http://dbpedia.org/ontology/distributor","CBS Paramount Domestic Television"
"23","http://dbpedia.org/property/distributor","Paramount Domestic Television"
"24","http://dbpedia.org/property/distributor","CBS Television Distribution"
"25","http://dbpedia.org/property/distributor","Worldvision Enterprises"
"26","http://dbpedia.org/property/distributor","CBS Paramount Domestic Television"
"27","http://dbpedia.org/property/executiveProducer","Darren Star"
"28","http://dbpedia.org/property/executiveProducer","Charles Rosin"
"29","http://dbpedia.org/property/executiveProducer","Jessica Klein"
"30","http://dbpedia.org/property/executiveProducer","Steve Wasserman"
"31","http://dbpedia.org/ontology/executiveProducer","E. Duke Vincent"
"32","http://dbpedia.org/ontology/executiveProducer","Aaron Spelling"
"33","http://dbpedia.org/ontology/executiveProducer","Darren Star"
"34","http://dbpedia.org/ontology/executiveProducer","Charles Rosin"
"35","http://dbpedia.org/property/executiveProducer","Aaron Spelling"
"36","http://dbpedia.org/property/followedBy","Melrose Place"
"37","http://dbpedia.org/property/followedBy","Models Inc."
"38","http://dbpedia.org/property/followedBy","Melrose Place (2009 TV series)"
"39","http://dbpedia.org/ontology/format","Multichannel television sound"
"40","http://dbpedia.org/ontology/format","Monaural"
"41","http://dbpedia.org/ontology/format","Dolby Surround"
"42","http://dbpedia.org/ontology/genre","Soap opera"
"43","http://dbpedia.org/ontology/genre","Teen drama"
"44","http://dbpedia.org/property/genre","Soap opera"
"45","http://dbpedia.org/property/genre","Teen drama"
"46","http://xmlns.com/foaf/0.1/isPrimaryTopicOf","http://en.wikipedia.org/wiki/Beverly_Hills,_90210"
"47","http://dbpedia.org/property/language","English"
"48","http://dbpedia.org/property/listEpisodes","List of Beverly Hills, 90210 episodes"
"49","http://www.w3.org/ns/prov#wasDerivedFrom","http://en.wikipedia.org/wiki/Beverly_Hills,_90210?oldid=548486808"
"50","http://dbpedia.org/ontology/starring","Tiffani Thiessen"
"51","http://dbpedia.org/ontology/starring","Hilary Swank"
"52","http://dbpedia.org/ontology/starring","Tori Spelling"
"53","http://dbpedia.org/ontology/starring","Douglas Emerson"
"54","http://dbpedia.org/ontology/starring","James Eckhouse"
"55","http://dbpedia.org/ontology/starring","Lindsay Price"
"56","http://dbpedia.org/ontology/starring","Jamie Walters (American entertainer)"
"57","http://dbpedia.org/ontology/starring","Brian Austin Green"
"58","http://dbpedia.org/ontology/starring","Gabrielle Carteris"
"59","http://dbpedia.org/ontology/starring","Ian Ziering"
"60","http://dbpedia.org/ontology/starring","Jason Priestley"
"61","http://dbpedia.org/ontology/starring","Jennie Garth"
"62","http://dbpedia.org/ontology/starring","Luke Perry"
"63","http://dbpedia.org/ontology/starring","Kathleen Robertson"
"64","http://dbpedia.org/ontology/starring","Carol Potter (actress)"
"65","http://dbpedia.org/ontology/starring","Joe E. Tata"
"66","http://dbpedia.org/ontology/starring","Mark Damon Espinoza"
"67","http://dbpedia.org/ontology/starring","Vincent Young (actor)"
"68","http://dbpedia.org/ontology/starring","Shannen Doherty"
"69","http://dbpedia.org/ontology/starring","Vanessa Marcil"
"70","http://dbpedia.org/ontology/starring","Daniel Cosgrove"
"71","http://dbpedia.org/ontology/starring","Jamie Walters"
"72","http://dbpedia.org/property/starring","Tiffani Thiessen"
"73","http://dbpedia.org/property/starring","Hilary Swank"
"74","http://dbpedia.org/property/starring","Tori Spelling"
"75","http://dbpedia.org/property/starring","Douglas Emerson"
"76","http://dbpedia.org/property/starring","James Eckhouse"
"77","http://dbpedia.org/property/starring","Lindsay Price"
"78","http://dbpedia.org/property/starring","Jamie Walters (American entertainer)"
"79","http://dbpedia.org/property/starring","Brian Austin Green"
"80","http://dbpedia.org/property/starring","Gabrielle Carteris"
"81","http://dbpedia.org/property/starring","Ian Ziering"
"82","http://dbpedia.org/property/starring","Jason Priestley"
"83","http://dbpedia.org/property/starring","Jennie Garth"
"84","http://dbpedia.org/property/starring","Luke Perry"
"85","http://dbpedia.org/property/starring","Kathleen Robertson"
"86","http://dbpedia.org/property/starring","Carol Potter (actress)"
"87","http://dbpedia.org/property/starring","Joe E. Tata"
"88","http://dbpedia.org/property/starring","Mark Damon Espinoza"
"89","http://dbpedia.org/property/starring","Vincent Young (actor)"
"90","http://dbpedia.org/property/starring","Shannen Doherty"
"91","http://dbpedia.org/property/starring","Vanessa Marcil"
"92","http://dbpedia.org/property/starring","Daniel Cosgrove"
"93","http://dbpedia.org/property/starring","Jamie Walters"
"94","http://dbpedia.org/ontology/subsequentWork","Melrose Place"
"95","http://dbpedia.org/ontology/subsequentWork","Models Inc."
"96","http://dbpedia.org/ontology/subsequentWork","90210 (TV series)"
"97","http://dbpedia.org/ontology/subsequentWork","Melrose Place (2009 TV series)"
"98","http://dbpedia.org/ontology/thumbnail","http://upload.wikimedia.org/wikipedia/commons/thumb/8/82/90210Logo.jpg/200px-90210Logo.jpg"
"type","tv show"
"Wiki article link","http://en.wikipedia.org/wiki/Beverly_Hills,_90210"
