"ID","Property","Value","5 triple summary","10 triple summary"
"1","http://dbpedia.org/property/areaServed","Worldwide",,"x"
"2","http://dbpedia.org/property/founded","United States"
"3","http://dbpedia.org/property/founded","Cumberland, Rhode Island","x","x"
"4","http://dbpedia.org/property/founded","Rhode Island"
"5","http://dbpedia.org/ontology/foundedBy","Oliver Chace",,"x"
"6","http://dbpedia.org/property/founder","Oliver Chace"
"7","http://xmlns.com/foaf/0.1/homepage","http://www.berkshirehathaway.com/"
"8","http://dbpedia.org/property/homepage","http://www.berkshirehathaway.com/","x","x"
"9","http://dbpedia.org/property/hoovers","Berkshire_Hathaway_Inc.3462a6b9ee9e407c"
"10","http://dbpedia.org/ontology/industry","Conglomerate (company)","x","x"
"11","http://dbpedia.org/property/industry","Conglomerate (company)"
"12","http://dbpedia.org/property/keyPeople","Warren Buffett"
"13","http://dbpedia.org/property/keyPeople","Charlie Munger"
"14","http://dbpedia.org/ontology/keyPerson","Warren Buffett",,"x"
"15","http://dbpedia.org/ontology/keyPerson","Charlie Munger"
"16","http://dbpedia.org/ontology/locationCity","Nebraska"
"17","http://dbpedia.org/ontology/locationCity","Omaha, Nebraska"
"18","http://dbpedia.org/ontology/locationCity","Kiewit Plaza"
"19","http://dbpedia.org/property/locationCity","Nebraska"
"20","http://dbpedia.org/property/locationCity","Omaha, Nebraska",,"x"
"21","http://dbpedia.org/property/locationCity","Kiewit Plaza"
"22","http://dbpedia.org/ontology/locationCountry","United States"
"23","http://dbpedia.org/property/locationCountry","United States"
"24","http://dbpedia.org/ontology/product","Insurance"
"25","http://dbpedia.org/ontology/product","Investment","x","x"
"26","http://dbpedia.org/property/products","Insurance"
"27","http://dbpedia.org/property/products","Investment"
"28","http://dbpedia.org/property/subsid","List of assets owned by Berkshire Hathaway"
"29","http://dbpedia.org/ontology/subsidiary","List of assets owned by Berkshire Hathaway",,"x"
"30","http://dbpedia.org/property/symbol","BRK.B"
"31","http://dbpedia.org/property/tradedAs","Class A","x","x"
"32","http://dbpedia.org/property/tradedAs","Class B"
"33","http://dbpedia.org/property/tradedAs","S&P 500"
"type","company"
"Wiki article link","https://en.wikipedia.org/wiki/Berkshire_Hathaway"
