"ID","Property","Value","5 triple summary","10 triple summary"
"1","http://dbpedia.org/ontology/anthem","Wilhelmus"
"2","http://dbpedia.org/property/capital","de facto The Hague , or Amsterdam,","x","x"
"3","http://dbpedia.org/ontology/capital","Amsterdam"
"4","http://dbpedia.org/ontology/capital","De facto"
"5","http://dbpedia.org/property/commonLanguages","Frisian languages"
"6","http://dbpedia.org/property/commonLanguages","West Flemish"
"7","http://dbpedia.org/property/commonLanguages","Dutch language"
"8","http://dbpedia.org/property/commonLanguages","Zeelandic","x","x"
"9","http://dbpedia.org/property/commonLanguages","Dutch Low Saxon"
"10","http://dbpedia.org/property/continent","Europe","x","x"
"11","http://dbpedia.org/property/country","Netherlands","x","x"
"12","http://dbpedia.org/ontology/currency","Guilder","x","x"
"13","http://dbpedia.org/property/currency","Guilder"
"14","http://dbpedia.org/property/deputy","Paulus Buys"
"15","http://dbpedia.org/property/deputy","Laurens Pieter"
"16","http://dbpedia.org/property/era","Middle Ages"
"17","http://dbpedia.org/property/era","Early modern period"
"18","http://dbpedia.org/property/event","Fourth Anglo-Dutch War"
"19","http://dbpedia.org/property/event","Franco-Dutch War"
"20","http://dbpedia.org/property/event","Peace of Paris (1783)"
"21","http://dbpedia.org/property/event","Flanders Campaign"
"22","http://dbpedia.org/property/eventEnd","Batavian Revolution in Amsterdam",,"x"
"23","http://dbpedia.org/property/eventPre","Eighty Years' War"
"24","http://dbpedia.org/property/eventStart","Act of Abjuration"
"25","http://dbpedia.org/property/flag","Flag of the Netherlands",,"x"
"26","http://dbpedia.org/property/flagP","Bandera cruz de BorgoÃ±a 2.svg"
"27","http://dbpedia.org/property/flagS","Flag of the Batavian Republic.svg"
"28","http://dbpedia.org/property/flagType","Flag"
"29","http://dbpedia.org/ontology/governmentType","Confederation"
"30","http://dbpedia.org/property/governmentType","Republic",,"x"
"31","http://dbpedia.org/property/governmentType","Confederation"
"32","http://dbpedia.org/property/governmentType","Autocracy"
"33","http://dbpedia.org/property/house","Council of State (Netherlands)",,"x"
"34","http://dbpedia.org/property/imageCoat","Coat of arms of the republic of the united Netherlands .svg"
"35","http://dbpedia.org/property/imageFlag","Statenvlag.svg"
"36","http://dbpedia.org/property/imageMap","Republic of the Seven United Netherlands .svg"
"37","http://dbpedia.org/property/imageMapCaption","Territory of the Dutch Republic in 1789"
"38","http://dbpedia.org/property/leader","William I"
"39","http://dbpedia.org/property/leader","William V"
"40","http://dbpedia.org/property/legislature","States General of the Netherlands"
"41","http://dbpedia.org/ontology/motto","(Latin: Small things grow by concord)",,"x"
"42","http://dbpedia.org/property/nationalAnthem","Wilhelmus van Nassouwe"
"43","http://dbpedia.org/property/nationalAnthem","(""William of Nassau"")"
"44","http://dbpedia.org/property/region","Low Countries"
"45","http://dbpedia.org/property/religion","http://dbpedia.org/resource/Old_Church_in_Utrecht"
"46","http://dbpedia.org/property/religion","Catholic Church"
"47","http://dbpedia.org/property/religion","Dutch Reformed Church"
"48","http://dbpedia.org/property/religion","Judaism"
"49","http://dbpedia.org/property/symbol","Dutch Republic Lion"
"50","http://dbpedia.org/property/symbolType","Coat of arms"
"51","http://dbpedia.org/property/titleDeputy","List of Grand Pensionaries"
"52","http://dbpedia.org/property/titleLeader","Stadtholder"
"53","http://dbpedia.org/property/typeHouse","State Council"
"type","country"
"Wiki article link","https://en.wikipedia.org/wiki/Dutch_Republic"
