"ID","Property","Value","5 triple summary","10 triple summary"
"1","http://dbpedia.org/property/areaServed","United States",,"x"
"2","http://dbpedia.org/property/areaServed","Canada",,"x"
"3","http://dbpedia.org/ontology/division","Independent station (North America)"
"4","http://dbpedia.org/ontology/division","Movies!",,"x"
"5","http://dbpedia.org/ontology/division","MyNetworkTV"
"6","http://dbpedia.org/property/divisions","Fox Television Stations Productions"
"7","http://dbpedia.org/property/divisions","Movies!"
"8","http://dbpedia.org/property/divisions","MyNetworkTV"
"9","http://dbpedia.org/ontology/foundedBy","Rupert Murdoch","x","x"
"10","http://dbpedia.org/ontology/foundedBy","Barry Diller",,"x"
"11","http://dbpedia.org/property/founder","Rupert Murdoch"
"12","http://dbpedia.org/property/founder","Barry Diller"
"13","http://xmlns.com/foaf/0.1/homepage","http://www.21cf.com/Television/Fox_Television_Stations_Group"
"14","http://dbpedia.org/property/homepage","http://www.21cf.com/Television/Fox_Television_Stations_Group"
"15","http://dbpedia.org/ontology/industry","Terrestrial television","x","x"
"16","http://dbpedia.org/property/industry","Terrestrial television"
"17","http://dbpedia.org/property/keyPeople","Jack Abernethy, CEO","x","x"
"18","http://dbpedia.org/property/keyPeople","Roger Ailes"
"19","http://dbpedia.org/ontology/keyPerson","Roger Ailes"
"20","http://dbpedia.org/ontology/keyPerson","Chief executive officer"
"21","http://dbpedia.org/ontology/locationCity","New York City","x","x"
"22","http://dbpedia.org/property/locationCity","New York City"
"23","http://dbpedia.org/ontology/locationCountry","United States"
"24","http://dbpedia.org/property/locationCountry","United States"
"25","http://dbpedia.org/ontology/owner","21st Century Fox","x","x"
"26","http://dbpedia.org/ontology/owningCompany","21st Century Fox"
"27","http://dbpedia.org/property/parent","Fox Entertainment Group",,"x"
"28","http://dbpedia.org/ontology/parentCompany","Fox Entertainment Group"
"29","http://dbpedia.org/ontology/predecessor","Metromedia"
"30","http://dbpedia.org/ontology/predecessor","BHC Communications"
"31","http://dbpedia.org/ontology/predecessor","New World Pictures"
"32","http://dbpedia.org/property/predecessor","Metromedia"
"33","http://dbpedia.org/property/predecessor","BHC Communications"
"34","http://dbpedia.org/property/predecessor","New World Pictures"
"35","http://www.w3.org/2000/01/rdf-schema#seeAlso","1994 United States broadcast TV realignment"
"36","http://dbpedia.org/ontology/regionServed","United States"
"37","http://dbpedia.org/ontology/regionServed","Canada"
"38","http://dbpedia.org/ontology/type","Division (business)"
"39","http://dbpedia.org/property/type","Division (business)"
"type","company, broadcasting company"
"Wiki article link","https://en.wikipedia.org/wiki/Fox_Television_Stations"
