"ID","Property","Value","5 triple summary","10 triple summary"
"1","http://dbpedia.org/ontology/almaMater","ETH Zurich","x","x"
"2","http://dbpedia.org/ontology/almaMater","Humboldt University of Berlin",,"x"
"3","http://dbpedia.org/property/almaMater","ETH Zurich"
"4","http://dbpedia.org/property/almaMater","Humboldt University of Berlin"
"5","http://dbpedia.org/ontology/birthPlace","Russia"
"6","http://dbpedia.org/ontology/birthPlace","Russian Empire"
"7","http://dbpedia.org/ontology/birthPlace","Saint Petersburg","x","x"
"8","http://dbpedia.org/property/birthPlace","Russian Empire"
"9","http://dbpedia.org/property/birthPlace","Saint Petersburg"
"10","http://dbpedia.org/property/class","HistTopics"
"11","http://dbpedia.org/ontology/deathPlace","German Empire"
"12","http://dbpedia.org/ontology/deathPlace","Germany"
"13","http://dbpedia.org/ontology/deathPlace","Halle (Saale)","x","x"
"14","http://dbpedia.org/ontology/deathPlace","Province of Saxony"
"15","http://dbpedia.org/property/deathPlace","German Empire"
"16","http://dbpedia.org/property/deathPlace","Halle (Saale)"
"17","http://dbpedia.org/property/deathPlace","Province of Saxony"
"18","http://dbpedia.org/ontology/doctoralAdvisor","Karl Weierstrass"
"19","http://dbpedia.org/ontology/doctoralAdvisor","Ernst Kummer"
"20","http://dbpedia.org/property/doctoralAdvisor","Karl Weierstrass"
"21","http://dbpedia.org/property/doctoralAdvisor","Ernst Kummer"
"22","http://dbpedia.org/ontology/doctoralStudent","http://dbpedia.org/resource/Alfred_Barneck"
"23","http://dbpedia.org/property/doctoralStudents","http://dbpedia.org/resource/Alfred_Barneck"
"24","http://dbpedia.org/property/ethnicity","Jewish"
"25","http://dbpedia.org/ontology/field","Mathematics","x","x"
"26","http://dbpedia.org/property/field","Mathematics"
"27","http://dbpedia.org/ontology/knownFor","Set theory","x","x"
"28","http://dbpedia.org/property/knownFor","Set theory"
"29","http://dbpedia.org/ontology/nationality","Germany"
"30","http://dbpedia.org/property/nationality","Germany"
"31","http://dbpedia.org/property/placeOfBirth","Russia"
"32","http://dbpedia.org/property/placeOfBirth","Saint Petersburg"
"33","http://dbpedia.org/property/placeOfDeath","Germany"
"34","http://dbpedia.org/property/placeOfDeath","Halle (Saale)"
"35","http://dbpedia.org/property/religion","Lutheran",,"x"
"36","http://dbpedia.org/ontology/residence","German Empire",,"x"
"37","http://dbpedia.org/ontology/residence","Russian Empire",,"x"
"38","http://dbpedia.org/property/residence","German Empire"
"39","http://dbpedia.org/property/residence","Russian Empire"
"40","http://dbpedia.org/property/shortDescription","Mathematician who originated set theory."
"41","http://dbpedia.org/property/thesisTitle","De aequationibus secundi gradus indeterminatis"
"42","http://dbpedia.org/property/workInstitutions","Martin Luther University of Halle-Wittenberg",,"x"
"type","mathematician"
"Wiki article link","https://en.wikipedia.org/wiki/Georg_Cantor"
