"ID","Property","Value","5 triple summary","10 triple summary"
"1","http://dbpedia.org/ontology/almaMater","Columbia University",,"x"
"2","http://dbpedia.org/ontology/almaMater","University of Texas at Austin"
"3","http://dbpedia.org/ontology/almaMater","Harvard University"
"4","http://dbpedia.org/ontology/almaMater","Doctor of Philosophy",,"x"
"5","http://dbpedia.org/ontology/award","Klopsteg Memorial Award",,"x"
"6","http://dbpedia.org/ontology/award","NASA Distinguished Public Service Medal","x","x"
"7","http://dbpedia.org/property/birthPlace","Manhattan, New York City, United States","x","x"
"8","http://dbpedia.org/ontology/birthPlace","Manhattan"
"9","http://dbpedia.org/ontology/birthPlace","New York City"
"10","http://dbpedia.org/ontology/birthPlace","United States"
"11","http://dbpedia.org/ontology/field","Physical cosmology",,"x"
"12","http://dbpedia.org/ontology/field","Astrophysics","x","x"
"13","http://dbpedia.org/ontology/field","Science communication"
"14","http://dbpedia.org/property/field","Physical cosmology"
"15","http://dbpedia.org/property/field","Astrophysics"
"16","http://dbpedia.org/property/field","Science communication"
"17","http://dbpedia.org/ontology/influencedBy","Albert Einstein"
"18","http://dbpedia.org/ontology/influencedBy","Carl Sagan"
"19","http://dbpedia.org/ontology/influencedBy","Isaac Newton"
"20","http://dbpedia.org/ontology/influencedBy","Richard Feynman"
"21","http://dbpedia.org/property/influences","Albert Einstein"
"22","http://dbpedia.org/property/influences","Carl Sagan"
"23","http://dbpedia.org/property/influences","Isaac Newton"
"24","http://dbpedia.org/property/influences","Richard Feynman"
"25","http://dbpedia.org/property/placeOfBirth","Manhattan"
"26","http://dbpedia.org/property/placeOfBirth","New York City"
"27","http://dbpedia.org/property/placeOfBirth","United States"
"28","http://dbpedia.org/property/prizes","Klopsteg Memorial Award"
"29","http://dbpedia.org/property/prizes","NASA Distinguished Public Service Medal"
"30","http://dbpedia.org/property/quote","''""[A] most important feature is the"
"31","http://dbpedia.org/property/quote","There's a level of gullibility that"
"32","http://dbpedia.org/property/quote","analysis of the information that"
"33","http://dbpedia.org/property/quote","charlatans who would try to exploit"
"34","http://dbpedia.org/property/quote","don't see enough of in this world."
"35","http://dbpedia.org/property/quote","leaves people susceptible to being"
"36","http://dbpedia.org/property/quote","literacy''' as kind of a vaccine against"
"37","http://dbpedia.org/property/quote","your ignorance.""''"
"38","http://dbpedia.org/property/residence","Manhattan, New York City, United States",,"x"
"39","http://dbpedia.org/ontology/residence","Manhattan"
"40","http://dbpedia.org/ontology/residence","New York City"
"41","http://dbpedia.org/ontology/residence","United States"
"42","http://dbpedia.org/property/shortDescription","Astrophysicist","x","x"
"43","http://dbpedia.org/property/spouse","Alice Young"
"44","http://dbpedia.org/property/workInstitutions","PBS"
"45","http://dbpedia.org/property/workInstitutions","The Planetary Society"
"46","http://dbpedia.org/property/workInstitutions","Rose Center for Earth and Space","x","x"
"type","person, astrophysicist"
"Wiki article link","https://en.wikipedia.org/wiki/Neil_deGrasse_Tyson"
