"ID","Property","Value","5 triple summary","10 triple summary"
"1","http://dbpedia.org/property/areaServed","Worldwide",,"x"
"2","http://dbpedia.org/ontology/division","Philips Consumer Lifestyle","x","x"
"3","http://dbpedia.org/property/divisions","Philips Lighting"
"4","http://dbpedia.org/property/divisions","Philips Healthcare",,"x"
"5","http://dbpedia.org/property/divisions","Philips Consumer Lifestyle"
"6","http://dbpedia.org/ontology/foundationPlace","Eindhoven"
"7","http://dbpedia.org/ontology/foundedBy","Gerard Philips","x","x"
"8","http://dbpedia.org/ontology/foundedBy","http://dbpedia.org/resource/Frederik_Philips"
"9","http://dbpedia.org/property/founder","Gerard Philips"
"10","http://dbpedia.org/property/founder","http://dbpedia.org/resource/Frederik_Philips"
"11","http://xmlns.com/foaf/0.1/homepage","http://philips.com"
"12","http://dbpedia.org/ontology/industry","Electronics","x","x"
"13","http://dbpedia.org/property/industry","Electronics"
"14","http://dbpedia.org/property/intl","yes"
"15","http://dbpedia.org/property/keyPeople","Jeroen van der Veer"
"16","http://dbpedia.org/property/keyPeople","Frans van Houten"
"17","http://dbpedia.org/ontology/keyPerson","Jeroen van der Veer"
"18","http://dbpedia.org/ontology/keyPerson","Frans van Houten",,"x"
"19","http://dbpedia.org/ontology/location","Amsterdam"
"20","http://dbpedia.org/ontology/location","Netherlands"
"21","http://dbpedia.org/property/location","Amsterdam"
"22","http://dbpedia.org/property/location","Netherlands"
"23","http://dbpedia.org/ontology/product","Lighting",,"x"
"24","http://dbpedia.org/ontology/product","Medical equipment",,"x"
"25","http://dbpedia.org/ontology/product","Home appliance","x","x"
"26","http://dbpedia.org/property/products","Home appliances"
"27","http://dbpedia.org/property/products","Lighting"
"28","http://dbpedia.org/property/products","Medical equipment"
"29","http://dbpedia.org/property/tradedAs",","
"30","http://dbpedia.org/ontology/type","Naamloze vennootschap"
"31","http://dbpedia.org/property/type","Naamloze vennootschap","x","x"
"type","company, electronics"
"Wiki article link","https://en.wikipedia.org/wiki/Philips"
