"ID","Property","Value","5 triple summary","10 triple summary"
"1","http://dbpedia.org/ontology/capital","Rome","x","x"
"2","http://dbpedia.org/property/capital","Rome"
"3","http://dbpedia.org/property/commonLanguages","various unofficial spoken in certain places including Greek, Hebrew, Aramaic, Syriac, Gallic, Berber","x","x"
"4","http://dbpedia.org/property/commonLanguages","Latin"
"5","http://dbpedia.org/property/continent","Afroeurasia",,"x"
"6","http://dbpedia.org/ontology/currency","Roman currency","x","x"
"7","http://dbpedia.org/property/currency","Roman currency"
"8","http://dbpedia.org/property/dateEvent","905-02-14","x","x"
"9","http://dbpedia.org/property/era","Classical antiquity",,"x"
"10","http://dbpedia.org/property/event","3.15576E8"
"11","http://dbpedia.org/property/event","Battle of Actium"
"12","http://dbpedia.org/property/eventEnd","Octavian proclaimed Augustus"
"13","http://dbpedia.org/property/eventStart","Overthrow of Tarquinius Superbus following the Rape of Lucretia"
"14","http://dbpedia.org/ontology/governmentType","Mixed government","x","x"
"15","http://dbpedia.org/property/governmentType","Mixed government"
"16","http://dbpedia.org/property/imageCoat","Consul et lictores.png"
"17","http://dbpedia.org/property/imageMap","Republica Romana.svg"
"18","http://dbpedia.org/property/imageMapCaption","Roman provinces on the eve of the assassination of Julius Caesar, 44 BC"
"19","http://dbpedia.org/property/leader","Augustus",,"x"
"20","http://dbpedia.org/property/leader","Lucius Junius Brutus"
"21","http://dbpedia.org/property/leader","Marcus Vipsanius Agrippa"
"22","http://dbpedia.org/property/leader","Lucius Tarquinius Collatinus"
"23","http://dbpedia.org/property/legislature","Legislative Assemblies of the Roman Republic"
"24","http://www.w3.org/2000/01/rdf-schema#seeAlso","Second Catilinarian conspiracy"
"25","http://www.w3.org/2000/01/rdf-schema#seeAlso","Ancient Rome"
"26","http://www.w3.org/2000/01/rdf-schema#seeAlso","Crisis of the Roman Republic"
"27","http://www.w3.org/2000/01/rdf-schema#seeAlso","Roman Republican governors of Gaul"
"28","http://dbpedia.org/property/region","Mediterranean Sea",,"x"
"29","http://dbpedia.org/property/religion","Religion in ancient Rome",,"x"
"30","http://dbpedia.org/property/symbolType","Roman consul accompanied by two lictors"
"31","http://dbpedia.org/property/titleLeader","Roman consul"
"type","country, ancient country"
"Wiki article link","https://en.wikipedia.org/wiki/Roman_Republic"
