"ID","Property","Value","5 triple summary","10 triple summary"
"1","http://dbpedia.org/ontology/address","445 Watervliet-Shaker Road","x","x"
"2","http://dbpedia.org/ontology/city","Latham, New York","x","x"
"3","http://dbpedia.org/property/city","Latham, New York"
"4","http://dbpedia.org/property/colors","Royal blue and white",,"x"
"5","http://dbpedia.org/property/country","United States"
"6","http://dbpedia.org/ontology/county","Albany County, New York"
"7","http://dbpedia.org/ontology/district","North Colonie Central Schools","x","x"
"8","http://dbpedia.org/property/district","North Colonie Central Schools"
"9","http://dbpedia.org/property/fundingtype","State school","x","x"
"10","http://dbpedia.org/property/gender","Coeducational",,"x"
"11","http://dbpedia.org/ontology/gender","Mixed-sex education",,"x"
"12","http://dbpedia.org/ontology/grades","Twelfth grade"
"13","http://dbpedia.org/ontology/grades","Ninth grade"
"14","http://xmlns.com/foaf/0.1/homepage","http://www.northcolonie.org/shakerhighschool/SrHShome.htm"
"15","http://dbpedia.org/property/language","English"
"16","http://dbpedia.org/ontology/mascot","Bison"
"17","http://dbpedia.org/property/mascot","Bison"
"18","http://dbpedia.org/property/newspaper","The Bison"
"19","http://dbpedia.org/property/otherGradeLabel","Ungraded"
"20","http://www.w3.org/2002/07/owl#differentFrom","Shaker Heights High School"
"21","http://dbpedia.org/property/principal","Richard Murphy",,"x"
"22","http://dbpedia.org/ontology/rival","Shenendehowa High School"
"23","http://dbpedia.org/property/rival","Shenendehowa High School"
"24","http://dbpedia.org/property/schooltype","High school","x","x"
"25","http://dbpedia.org/ontology/state","New York"
"26","http://dbpedia.org/property/state","New York"
"27","http://dbpedia.org/ontology/type","High school"
"28","http://dbpedia.org/property/website","http://www.northcolonie.org/shakerhighschool/SrHShome.htm",,"x"
"type","school"
"Wiki article link","https://en.wikipedia.org/wiki/Shaker_High_School"
