"ID","Property","Value","5 triple summary","10 triple summary"
"1","http://dbpedia.org/ontology/affiliation","Association of American Universities"
"2","http://dbpedia.org/ontology/affiliation","568 Group"
"3","http://dbpedia.org/ontology/affiliation","Universities Research Association"
"4","http://dbpedia.org/ontology/affiliation","Consortium on Financing Higher Education"
"5","http://dbpedia.org/ontology/affiliation","National Association of Independent Colleges and Universities"
"6","http://dbpedia.org/property/affiliations","Association of American Universities"
"7","http://dbpedia.org/property/affiliations","Universities Research Association"
"8","http://dbpedia.org/property/affiliations","Consortium on Financing Higher Education"
"9","http://dbpedia.org/property/affiliations","National Association of Independent Colleges and Universities"
"10","http://dbpedia.org/property/almaMater","Hail, Pennsylvania!"
"11","http://dbpedia.org/ontology/athletics","National Collegiate Athletic Association"
"12","http://dbpedia.org/ontology/athletics","Philadelphia Big 5"
"13","http://dbpedia.org/property/athletics","Ivy League","x","x"
"14","http://dbpedia.org/property/athletics","National Collegiate Athletic Association"
"15","http://dbpedia.org/property/athletics","Philadelphia Big 5"
"16","http://dbpedia.org/property/athletics","Division I (NCAA)"
"17","http://dbpedia.org/property/campus","Urban,  total: , University City campus; , New Bolton Center; , Morris Arboretum",,"x"
"18","http://dbpedia.org/ontology/campus","University City, Philadelphia"
"19","http://dbpedia.org/ontology/campus","Morris Arboretum"
"20","http://dbpedia.org/ontology/campus","New Bolton Center"
"21","http://dbpedia.org/property/caption","Perelman School of Medicine at the University of Pennsylvania"
"22","http://dbpedia.org/property/caption","University of Pennsylvania School of Dental Medicine"
"23","http://dbpedia.org/ontology/city","Philadelphia","x","x"
"24","http://dbpedia.org/property/city","Philadelphia"
"25","http://dbpedia.org/property/colors","Blue",,"x"
"26","http://dbpedia.org/property/colors","Red",,"x"
"27","http://dbpedia.org/ontology/country","United States",,"x"
"28","http://dbpedia.org/property/country","United States"
"29","http://xmlns.com/foaf/0.1/homepage","http://www.upenn.edu/"
"30","http://dbpedia.org/property/image","PennDentalSchool.jpg"
"31","http://dbpedia.org/property/image","U_Pennsylvania_Seal.gif"
"32","http://dbpedia.org/property/image","Hamilton Walk at the Perelman School of Medicine.jpg"
"33","http://dbpedia.org/property/imageAlt","Arms of the University of Pennsylvania"
"34","http://dbpedia.org/ontology/motto","Laws without morals are useless"
"35","http://dbpedia.org/ontology/motto","Leges sine moribus vanae (Latin)","x","x"
"36","http://dbpedia.org/property/motto","Leges sine moribus vanae"
"37","http://dbpedia.org/property/mottoeng","Laws without morals are useless"
"38","http://dbpedia.org/property/nickname","Penn Quakers"
"39","http://dbpedia.org/ontology/officialSchoolColour","Blue"
"40","http://dbpedia.org/ontology/officialSchoolColour","Red"
"41","http://www.w3.org/2002/07/owl#differentFrom","Pennsylvania State University"
"42","http://dbpedia.org/property/president","Amy Gutmann compensation $2,473,952 rank 4th among USA private university presidents in 2012"
"43","http://dbpedia.org/ontology/president","Amy Gutmann","x","x"
"44","http://dbpedia.org/ontology/provost","Vincent Price (educator)"
"45","http://dbpedia.org/property/provost","Vincent Price (educator)"
"46","http://www.w3.org/2000/01/rdf-schema#seeAlso","The Daily Pennsylvanian"
"47","http://www.w3.org/2000/01/rdf-schema#seeAlso","List of Nobel laureates affiliated with the University of Pennsylvania"
"48","http://dbpedia.org/property/state","autocollapse"
"49","http://dbpedia.org/ontology/state","Pennsylvania"
"50","http://dbpedia.org/property/state","Pennsylvania"
"51","http://dbpedia.org/ontology/type","Private university","x","x"
"52","http://dbpedia.org/property/type","Private university"
"53","http://dbpedia.org/property/website","http://www.upenn.edu/",,"x"
"type","university"
"Wiki article link","https://en.wikipedia.org/wiki/University_of_Pennsylvania"
