"ID","Property","Value","5 triple summary","10 triple summary"
"1","http://dbpedia.org/ontology/affiliation","Association of American Universities","x","x"
"2","http://dbpedia.org/ontology/affiliation","Association of Pacific Rim Universities"
"3","http://dbpedia.org/ontology/affiliation","University of the Arctic"
"4","http://dbpedia.org/ontology/affiliation","Universities Research Association"
"5","http://dbpedia.org/ontology/affiliation","Association of Public and Land-grant Universities"
"6","http://dbpedia.org/ontology/athletics","National Collegiate Athletic Association"
"7","http://dbpedia.org/property/athletics","National Collegiate Athletic Association"
"8","http://dbpedia.org/property/athletics","Pacific-12 Conference"
"9","http://dbpedia.org/property/athletics","Division I (NCAA)"
"10","http://dbpedia.org/property/campus","Urban,"
"11","http://dbpedia.org/ontology/city","Seattle","x","x"
"12","http://dbpedia.org/property/city","Seattle"
"13","http://dbpedia.org/property/colors","Purple & Gold"
"14","http://dbpedia.org/property/country","U.S.",,"x"
"15","http://xmlns.com/foaf/0.1/homepage","http://www.washington.edu/"
"16","http://dbpedia.org/ontology/mascot","Harry the Husky,"
"17","http://dbpedia.org/ontology/mascot","and Dubs (liveHusky)"
"18","http://dbpedia.org/property/mascot","and Dubs"
"19","http://dbpedia.org/property/mascot","Harry the Husky"
"20","http://dbpedia.org/ontology/motto","Let there be light","x","x"
"21","http://dbpedia.org/ontology/motto","Lux sit (Latin)",,"x"
"22","http://dbpedia.org/property/motto","Lux sit"
"23","http://dbpedia.org/property/mottoeng","Let there be light"
"24","http://dbpedia.org/property/nickname","Washington Huskies",,"x"
"25","http://dbpedia.org/ontology/officialSchoolColour","Purple & Gold",,"x"
"26","http://www.w3.org/2002/07/owl#differentFrom","Washington University in St. Louis"
"27","http://www.w3.org/2002/07/owl#differentFrom","George Washington University"
"28","http://www.w3.org/2002/07/owl#differentFrom","Washington State University"
"29","http://dbpedia.org/ontology/president","Michael K. Young","x","x"
"30","http://dbpedia.org/property/president","Michael K. Young"
"31","http://www.w3.org/2000/01/rdf-schema#seeAlso","List of University of Washington Presidents"
"32","http://dbpedia.org/property/state","autocollapse"
"33","http://dbpedia.org/ontology/state","Washington (state)"
"34","http://dbpedia.org/property/state","Washington (state)"
"35","http://dbpedia.org/ontology/type","Public university","x","x"
"36","http://dbpedia.org/property/type","Public university"
"37","http://dbpedia.org/property/type","Flagship"
"38","http://dbpedia.org/property/website","http://www.washington.edu/",,"x"
"type","university"
"Wiki article link","https://en.wikipedia.org/wiki/University_of_Washington"
