"ID","Property","Value","5 triple summary","10 triple summary"
"1","http://dbpedia.org/property/airline","British Airways Plc","x","x"
"2","http://dbpedia.org/ontology/alliance","Oneworld",,"x"
"3","http://dbpedia.org/property/alliance","Oneworld"
"4","http://dbpedia.org/property/callsign","Speedbird"
"5","http://dbpedia.org/ontology/destination","British Airways destinations"
"6","http://dbpedia.org/property/frequentFlyer","* Executive Club",,"x"
"7","http://dbpedia.org/ontology/headquarter","Harmondsworth"
"8","http://dbpedia.org/ontology/headquarter","Waterside (building)"
"9","http://dbpedia.org/property/headquarters","Waterside, Harmondsworth, England","x","x"
"10","http://dbpedia.org/ontology/hubAirport","Gatwick Airport",,"x"
"11","http://dbpedia.org/ontology/hubAirport","London Heathrow Airport"
"12","http://dbpedia.org/property/iata","BA"
"13","http://dbpedia.org/ontology/iataAirlineCode","BA"
"14","http://dbpedia.org/property/icao","SHT"
"15","http://dbpedia.org/property/icao","BAW"
"16","http://dbpedia.org/ontology/icaoAirlineCode","BAW"
"17","http://dbpedia.org/ontology/icaoAirlineCode","SHT"
"18","http://dbpedia.org/property/image","BA New Club World seat.jpg"
"19","http://dbpedia.org/property/image","Ba b757-200 g-bpee arp.jpg"
"20","http://dbpedia.org/property/image","Boeing 747-436 G-BNLL British Airways .jpg"
"21","http://dbpedia.org/property/image","Boeing 777-236-ER, British Airways AN0852810.jpg",,"x"
"22","http://dbpedia.org/property/image","British Airways A321 Y cabin, GB  March 2008.jpg"
"23","http://dbpedia.org/property/image","British Airways Concorde G-BOAD.jpg"
"24","http://dbpedia.org/property/image","British Airways Super VC-10.jpg"
"25","http://dbpedia.org/property/image","DSC 5506-G-EUPZ .jpg"
"26","http://dbpedia.org/ontology/industry","Aviation","x","x"
"27","http://dbpedia.org/property/keyPeople","Keith Williams"
"28","http://dbpedia.org/property/logo","British Airways Logo.svg","x","x"
"29","http://dbpedia.org/property/parent","International Airlines Group"
"30","http://dbpedia.org/ontology/parentCompany","International Airlines Group","x","x"
"31","http://dbpedia.org/property/portal","Aviation"
"32","http://dbpedia.org/property/portal","London"
"33","http://dbpedia.org/property/portal","United Kingdom"
"34","http://dbpedia.org/property/portal","Companies"
"35","http://dbpedia.org/ontology/subsidiary","British Airways World Cargo",,"x"
"36","http://dbpedia.org/ontology/subsidiary","OpenSkies"
"37","http://dbpedia.org/ontology/subsidiary","BA CityFlyer"
"38","http://dbpedia.org/ontology/subsidiary","British Airways Limited"
"type","company, airline"
"Wiki article link","https://en.wikipedia.org/wiki/British_Airways"
