"ID","Property","Value","5 triple summary","10 triple summary"
"1","http://dbpedia.org/property/after","Myron T. Herrick","x","x"
"2","http://dbpedia.org/property/after","David Hollingsworth"
"3","http://dbpedia.org/property/allegiance","United States"
"4","http://dbpedia.org/property/almaMater","Oberlin College",,"x"
"5","http://dbpedia.org/property/battles","American Civil War"
"6","http://dbpedia.org/property/before","Asa S. Bushnell (Governor)"
"7","http://dbpedia.org/property/before","Isaiah Pillars"
"8","http://dbpedia.org/ontology/birthPlace","Ohio"
"9","http://dbpedia.org/ontology/birthPlace","York Township, Medina County, Ohio","x","x"
"10","http://dbpedia.org/ontology/birthPlace","Medina County, Ohio"
"11","http://dbpedia.org/property/birthPlace","Medina County, Ohio"
"12","http://dbpedia.org/property/branch","Union Army"
"13","http://dbpedia.org/property/children","Mary Nash"
"14","http://dbpedia.org/ontology/deathPlace","Columbus, Ohio"
"15","http://dbpedia.org/property/deathPlace","Columbus, Ohio"
"16","http://dbpedia.org/property/office","Governor of Ohio"
"17","http://dbpedia.org/property/office","Ohio Attorney General","x","x"
"18","http://dbpedia.org/property/party","Republican Party (United States)",,"x"
"19","http://dbpedia.org/property/placeOfBirth","Ohio"
"20","http://dbpedia.org/property/placeOfBirth","York Township, Medina County, Ohio"
"21","http://dbpedia.org/property/placeOfBirth","Medina County, Ohio"
"22","http://dbpedia.org/property/placeOfDeath","Columbus, Ohio"
"23","http://dbpedia.org/property/preceded","Asa S. Bushnell (Governor)",,"x"
"24","http://dbpedia.org/property/preceded","Isaiah Pillars"
"25","http://dbpedia.org/property/restingplace","Green Lawn Cemetery, Columbus, Ohio",,"x"
"26","http://dbpedia.org/property/shortDescription","Union United States Army soldier","x","x"
"27","http://dbpedia.org/property/spouse","Adeline Ayres","x","x"
"28","http://dbpedia.org/property/succeeded","Myron T. Herrick"
"29","http://dbpedia.org/property/succeeded","David Hollingsworth"
"30","http://dbpedia.org/property/title","List of Governors of Ohio",,"x"
"31","http://dbpedia.org/property/title","Ohio Attorney General"
"type","person, politician"
"Wiki article link","https://en.wikipedia.org/wiki/George_K._Nash"
