"ID","Property","Value","5 triple summary","10 triple summary"
"1","http://dbpedia.org/property/audioFormat","Dolby Digital"
"2","http://dbpedia.org/ontology/company","ITV Studios","x","x"
"3","http://dbpedia.org/property/country","United States","x","x"
"4","http://dbpedia.org/ontology/creator","Gordon Ramsay","x","x"
"5","http://dbpedia.org/property/creator","Gordon Ramsay"
"6","http://dbpedia.org/property/developer","Ludia"
"7","http://dbpedia.org/property/developer","http://dbpedia.org/resource/Social2u"
"8","http://dbpedia.org/ontology/executiveProducer","Arthur Smith (producer)"
"9","http://dbpedia.org/ontology/format","Dolby Digital",,"x"
"10","http://dbpedia.org/ontology/format","480i"
"11","http://dbpedia.org/ontology/format","720p"
"12","http://dbpedia.org/ontology/genre","Reality television","x","x"
"13","http://dbpedia.org/property/genre","Simulation game"
"14","http://dbpedia.org/property/genre","Reality television"
"15","http://xmlns.com/foaf/0.1/homepage","http://www.fox.com/hellskitchen"
"16","http://dbpedia.org/property/language","English","x","x"
"17","http://dbpedia.org/property/listEpisodes","List of Hell's Kitchen episodes",,"x"
"18","http://dbpedia.org/property/narrated","Jason Thompson",,"x"
"19","http://dbpedia.org/ontology/network","Fox Broadcasting Company"
"20","http://dbpedia.org/property/network","Fox Broadcasting Company"
"21","http://dbpedia.org/ontology/openingTheme","Fire (Ohio Players song)"
"22","http://dbpedia.org/property/opentheme","""Fire"" by the Ohio Players"
"23","http://dbpedia.org/property/platforms","Facebook"
"24","http://dbpedia.org/property/platforms","Wii, Nintendo DS, Windows and iPhone OS"
"25","http://dbpedia.org/property/publisher","Ubisoft"
"26","http://www.w3.org/2000/01/rdf-schema#seeAlso","List of Hell's Kitchen episodes"
"27","http://dbpedia.org/property/related","Hell's Kitchen (UK TV series)",,"x"
"28","http://dbpedia.org/ontology/related","Hell's Kitchen (UK TV series)"
"29","http://dbpedia.org/property/starring","Gordon Ramsay"
"30","http://dbpedia.org/ontology/starring","Gordon Ramsay"
"31","http://dbpedia.org/property/website","http://www.fox.com/hellskitchen",,"x"
"type","tv program, reality program"
"Wiki article link","https://en.wikipedia.org/wiki/Hell's_Kitchen_%28U.S._TV_series%29"
