"ID","Property","Value","5 triple summary","10 triple summary"
"1","http://dbpedia.org/property/areaServed","Worldwide",,"x"
"2","http://dbpedia.org/ontology/assets","1.3268E11"
"3","http://dbpedia.org/property/assets","US$ 132.68 billion"
"4","http://dbpedia.org/ontology/equity","7.4053E10"
"5","http://dbpedia.org/property/equity","US$74.053 billion"
"6","http://dbpedia.org/ontology/foundedBy","Edward Mead Johnson"
"7","http://dbpedia.org/ontology/foundedBy","James Wood Johnson"
"8","http://dbpedia.org/ontology/foundedBy","Robert Wood Johnson I"
"9","http://dbpedia.org/property/founder","Edward Mead Johnson","x","x"
"10","http://dbpedia.org/property/founder","James Wood Johnson"
"11","http://dbpedia.org/property/founder","Robert Wood Johnson I"
"12","http://xmlns.com/foaf/0.1/homepage","http://www.jnj.com/"
"13","http://dbpedia.org/property/homepage","http://www.jnj.com/","x","x"
"14","http://dbpedia.org/property/hoovers","Johnson__Johnson.74b634d0cb4011bf"
"15","http://dbpedia.org/ontology/industry","Pharmaceutical industry"
"16","http://dbpedia.org/ontology/industry","Medical equipment"
"17","http://dbpedia.org/property/industry","Pharmaceutical industry",,"x"
"18","http://dbpedia.org/property/industry","Medical equipment",,"x"
"19","http://dbpedia.org/property/keyPeople","Alex Gorsky",,"x"
"20","http://dbpedia.org/ontology/keyPerson","Alex Gorsky"
"21","http://dbpedia.org/property/locationCity","New Brunswick, New Jersey","x","x"
"22","http://dbpedia.org/ontology/locationCity","New Brunswick, New Jersey"
"23","http://dbpedia.org/property/locationCountry","United States"
"24","http://dbpedia.org/ontology/netIncome","1.3831E10"
"25","http://dbpedia.org/property/netIncome","US$ 13.831 billion","x","x"
"26","http://dbpedia.org/ontology/operatingIncome","1.5471E10"
"27","http://dbpedia.org/property/operatingIncome","US$ 15.471 billion"
"28","http://www.w3.org/2002/07/owl#differentFrom","S. C. Johnson & Son"
"29","http://dbpedia.org/ontology/product","Johnson & Johnson"
"30","http://dbpedia.org/property/products","Johnson & Johnson"
"31","http://dbpedia.org/ontology/revenue","7.1312E10"
"32","http://dbpedia.org/property/subsid","McNeil Consumer Healthcare"
"33","http://dbpedia.org/property/subsid","Neutrogena"
"34","http://dbpedia.org/property/subsid","Acuvue"
"35","http://dbpedia.org/property/subsid","DePuy"
"36","http://dbpedia.org/ontology/subsidiary","McNeil Consumer Healthcare"
"37","http://dbpedia.org/ontology/subsidiary","Neutrogena",,"x"
"38","http://dbpedia.org/ontology/subsidiary","Acuvue"
"39","http://dbpedia.org/ontology/subsidiary","DePuy"
"40","http://dbpedia.org/property/symbol","JNJ","x","x"
"41","http://dbpedia.org/property/tradedAs","Dow Jones Industrial Average"
"42","http://dbpedia.org/property/tradedAs","S&P 500"
"type","company"
"Wiki article link","https://en.wikipedia.org/wiki/Johnson_%26_Johnson"
