"ID","Property","Value","5 triple summary","10 triple summary"
"1","http://dbpedia.org/property/attributes","The Summa theologiae, a model church, the sun on the chest of a Dominican friar","x","x"
"2","http://dbpedia.org/ontology/birthPlace","Kingdom of Sicily"
"3","http://dbpedia.org/ontology/birthPlace","Roccasecca"
"4","http://dbpedia.org/ontology/birthPlace","Aquino"
"5","http://dbpedia.org/property/birthPlace","Kingdom of Sicily"
"6","http://dbpedia.org/property/birthPlace","Roccasecca"
"7","http://dbpedia.org/ontology/canonizedBy","Pope John XXII"
"8","http://dbpedia.org/property/canonizedBy","Pope John XXII"
"9","http://dbpedia.org/ontology/canonizedPlace","Avignon"
"10","http://dbpedia.org/ontology/canonizedPlace","Papal States"
"11","http://dbpedia.org/property/canonizedPlace","Avignon"
"12","http://dbpedia.org/property/canonizedPlace","Papal States"
"13","http://dbpedia.org/ontology/deathPlace","Lazio"
"14","http://dbpedia.org/ontology/deathPlace","Papal States"
"15","http://dbpedia.org/ontology/deathPlace","Fossanova Abbey"
"16","http://dbpedia.org/property/deathPlace","Papal States"
"17","http://dbpedia.org/property/deathPlace","Fossanova Abbey"
"18","http://dbpedia.org/property/education","Monte Cassino"
"19","http://dbpedia.org/property/education","University of Naples Federico II",,"x"
"20","http://dbpedia.org/property/genre","Thomism",,"x"
"21","http://dbpedia.org/property/genre","Scholasticism"
"22","http://dbpedia.org/property/influences","Al-Ghazali"
"23","http://dbpedia.org/property/influences","Albertus Magnus"
"24","http://dbpedia.org/property/influences","Aristotle"
"25","http://dbpedia.org/property/influences","Augustine of Hippo"
"26","http://dbpedia.org/property/influences","Averroes"
"27","http://dbpedia.org/property/influences","Avicenna"
"28","http://dbpedia.org/property/influences","Cicero"
"29","http://dbpedia.org/property/influences","John of Damascus"
"30","http://dbpedia.org/property/influences","Maimonides"
"31","http://dbpedia.org/property/influences","Paul the Apostle"
"32","http://dbpedia.org/property/influences","Plato",,"x"
"33","http://dbpedia.org/property/influences","Boethius"
"34","http://dbpedia.org/property/influences","Dionysius the Areopagite"
"35","http://dbpedia.org/property/influences","Johannes Scotus Eriugena"
"36","http://dbpedia.org/property/influences","Anselm of Canterbury"
"37","http://dbpedia.org/property/majorShrine","Church of the Jacobins, Toulouse, France",,"x"
"38","http://dbpedia.org/ontology/majorShrine","Toulouse"
"39","http://dbpedia.org/property/notableworks","Summa TheologicaSumma contra Gentiles"
"40","http://dbpedia.org/property/occupation","Catholic priest, philosopher and theologian"
"41","http://dbpedia.org/property/placeOfBirth","Castle of Roccasecca, near Aquino, Italy","x","x"
"42","http://dbpedia.org/property/placeOfDeath","Fossanova Abbey, Lazio, Italy","x","x"
"43","http://www.w3.org/2000/01/rdf-schema#seeAlso","http://dbpedia.org/resource/Condemnations_of_1210â€“1277"
"44","http://www.w3.org/2000/01/rdf-schema#seeAlso","Christian ethics"
"45","http://www.w3.org/2000/01/rdf-schema#seeAlso","Saint"
"46","http://www.w3.org/2000/01/rdf-schema#seeAlso","Just war theory"
"47","http://www.w3.org/2000/01/rdf-schema#seeAlso","Levitation"
"48","http://www.w3.org/2000/01/rdf-schema#seeAlso","Double truth"
"49","http://www.w3.org/2000/01/rdf-schema#seeAlso","List of works by Thomas Aquinas"
"50","http://dbpedia.org/property/relatives","Landulf of Aquino and Theodora Rossi"
"51","http://dbpedia.org/property/shortDescription","Philosopher and theologian","x","x"
"52","http://dbpedia.org/property/subject","Epistemology"
"53","http://dbpedia.org/property/subject","Ethics"
"54","http://dbpedia.org/property/subject","Metaphysics"
"55","http://dbpedia.org/property/subject","Theology"
"56","http://dbpedia.org/property/subject","Philosophy of mind",,"x"
"57","http://dbpedia.org/property/subject","Political philosophy"
"58","http://dbpedia.org/property/subject","Logic"
"59","http://dbpedia.org/ontology/title","Doctor of the Church"
"60","http://dbpedia.org/ontology/title","Religious, priest and"
"61","http://dbpedia.org/property/titles","Religious, priest and"
"62","http://dbpedia.org/property/titles","Doctor of the Church"
"63","http://dbpedia.org/property/url","http://www.ccel.org/ccel/schaff/encyc11.t.vii.html","x","x"
"64","http://dbpedia.org/ontology/veneratedIn","Anglican Communion"
"65","http://dbpedia.org/ontology/veneratedIn","Lutheranism"
"66","http://dbpedia.org/ontology/veneratedIn","Catholic Church"
"67","http://dbpedia.org/property/veneratedIn","Anglican Communion"
"68","http://dbpedia.org/property/veneratedIn","Lutheranism"
"69","http://dbpedia.org/property/veneratedIn","Catholic Church"
"type","person, saint"
"Wiki article link","https://en.wikipedia.org/wiki/Thomas_Aquinas"
