"ID","Property","Value","5 triple summary","10 triple summary"
"1","http://dbpedia.org/property/almaMater","Seoul National University"
"2","http://dbpedia.org/property/almaMater","Harvard University",,"x"
"3","http://dbpedia.org/property/as","United States Secretary of State","x","x"
"4","http://dbpedia.org/property/before","John Kerry"
"5","http://dbpedia.org/property/birthPlace","Wonnam Township, Eumseong County, North Chungcheong Province, South Korea","x","x"
"6","http://dbpedia.org/ontology/birthPlace","South Korea"
"7","http://dbpedia.org/ontology/birthPlace","Eumseong County"
"8","http://dbpedia.org/property/color","lavender"
"9","http://dbpedia.org/property/deputy","Asha-Rose Migiro"
"10","http://dbpedia.org/property/deputy","Jan Eliasson"
"11","http://dbpedia.org/property/ethnicity","Koreans",,"x"
"12","http://dbpedia.org/property/mr","Pan Kimun"
"13","http://dbpedia.org/property/nationality","South Korean","x","x"
"14","http://dbpedia.org/property/nativeNameLang","ko"
"15","http://dbpedia.org/property/office","Secretary-General of the United Nations"
"16","http://dbpedia.org/property/placeOfBirth","South Korea"
"17","http://dbpedia.org/property/placeOfBirth","Eumseong County"
"18","http://dbpedia.org/property/predecessor","Kofi Annan","x","x"
"19","http://dbpedia.org/property/predecessor","Yoon Young-kwan"
"20","http://dbpedia.org/property/president","Roh Moo-hyun"
"21","http://dbpedia.org/property/primeminister","Goh Kun"
"22","http://dbpedia.org/property/primeminister","Lee Hae-chan"
"23","http://dbpedia.org/property/primeminister","Han Duck-soo"
"24","http://dbpedia.org/property/primeminister","Han Myeong-sook"
"25","http://www.w3.org/2000/01/rdf-schema#seeAlso","Geneva II Conference on Syria"
"26","http://www.w3.org/2000/01/rdf-schema#seeAlso","2006"
"27","http://www.w3.org/2000/01/rdf-schema#seeAlso","http://dbpedia.org/resource/United_Nations_Secretary-General_selection",,"x"
"28","http://dbpedia.org/property/religion","Unknown"
"29","http://dbpedia.org/property/rr","Ban Gimun"
"30","http://dbpedia.org/property/shortDescription","South Jorean politicians Current Secretary-General of the United Nations","x","x"
"31","http://dbpedia.org/property/spouse","Yoo Soon-taek",,"x"
"32","http://dbpedia.org/property/successor","Song Min-soon"
"33","http://dbpedia.org/property/title","Korean name"
"34","http://dbpedia.org/property/title","Secretary-General of the United Nations",,"x"
"35","http://dbpedia.org/property/title","United States order of precedence"
"36","http://dbpedia.org/property/title","Ministry of Foreign Affairs (South Korea)"
"type","Person, politician"
"Wiki article link","https://en.wikipedia.org/wiki/Ban_Ki-moon"
