"ID","Property","Value","5 triple summary","10 triple summary"
"1","http://dbpedia.org/property/areaServed","Worldwide","x","x"
"2","http://dbpedia.org/ontology/assets","6.56285E11"
"3","http://dbpedia.org/property/assets","US$ 656.285 billion",,"x"
"4","http://dbpedia.org/ontology/equity","1.36783E11"
"5","http://dbpedia.org/property/equity","US$ 136.783 billion"
"6","http://dbpedia.org/property/foundation","Schenectady, New York"
"7","http://dbpedia.org/ontology/foundationPlace","Schenectady, New York","x","x"
"8","http://dbpedia.org/ontology/foundedBy","Thomas Edison"
"9","http://dbpedia.org/property/founder","Thomas EdisonCharles CoffinElihu ThomsonEdwin Houston","x","x"
"10","http://xmlns.com/foaf/0.1/homepage","http://ge.com","x","x"
"11","http://dbpedia.org/property/homepage","http://ge.com"
"12","http://dbpedia.org/property/hoovers","General_Electric_Company.8e594783fd3e6c6e"
"13","http://dbpedia.org/ontology/industry","Conglomerate (company)"
"14","http://dbpedia.org/property/industry","Conglomerate (company)"
"15","http://dbpedia.org/ontology/keyPerson","Jeffrey R. Immelt"
"16","http://dbpedia.org/ontology/locationCity","Fairfield, Connecticut"
"17","http://dbpedia.org/property/locationCity","Fairfield, Connecticut"
"18","http://dbpedia.org/property/locationCountry","U.S."
"19","http://dbpedia.org/ontology/netIncome","1.3057E10"
"20","http://dbpedia.org/property/netIncome","US$ 13.057 billion"
"21","http://dbpedia.org/ontology/operatingIncome","2.6267E10"
"22","http://dbpedia.org/property/operatingIncome","US$ 26.267 billion",,"x"
"23","http://www.w3.org/2002/07/owl#differentFrom","General Electric Company plc"
"24","http://www.w3.org/2002/07/owl#differentFrom","General Elektriks"
"25","http://dbpedia.org/ontology/product","Electric power distribution"
"26","http://dbpedia.org/property/products","Electrical distribution Electric motors Energy Finance Gas Healthcare Lighting Locomotives Oil Software Water Weapons Wind turbines",,"x"
"27","http://www.w3.org/2000/01/rdf-schema#seeAlso","GE Wind Energy"
"28","http://www.w3.org/2000/01/rdf-schema#seeAlso","General Electric timeline"
"29","http://dbpedia.org/ontology/revenue","1.46045E11"
"30","http://dbpedia.org/property/subsid","GE AviationGE CapitalGE EnergyGE Global ResearchGE HealthcareGE Home & Business SolutionsGE Oil & GasGE Power & WaterGE Transportation",,"x"
"31","http://dbpedia.org/ontology/subsidiary","GE Aviation"
"32","http://dbpedia.org/property/symbol","GE",,"x"
"33","http://dbpedia.org/property/tradedAs","S&P 500 Component"
"34","http://dbpedia.org/ontology/type","Public company","x","x"
"35","http://dbpedia.org/property/type","Public company"
"36","http://dbpedia.org/property/user","GEreports"
"type","company"
"Wiki article link","https://en.wikipedia.org/wiki/General_Electric"
