"ID","Property","Value","5 triple summary","10 triple summary"
"1","http://dbpedia.org/property/areaServed","Worldwide","x","x"
"2","http://dbpedia.org/property/corporate","yes"
"3","http://dbpedia.org/property/foundation","Menlo Park, California"
"4","http://dbpedia.org/ontology/foundationPlace","Menlo Park, California",,"x"
"5","http://dbpedia.org/ontology/foundedBy","Larry Page"
"6","http://dbpedia.org/ontology/foundedBy","Sergey Brin"
"7","http://dbpedia.org/property/founder","Larry Page","x","x"
"8","http://dbpedia.org/property/founder","Sergey Brin"
"9","http://xmlns.com/foaf/0.1/homepage","https://www.google.com",,"x"
"10","http://dbpedia.org/property/hoovers","Google_Inc.fb3f79c4d1791506"
"11","http://dbpedia.org/property/industry","Internet","x","x"
"12","http://dbpedia.org/ontology/industry","Software",,"x"
"13","http://dbpedia.org/ontology/industry","Telecommunications equipment"
"14","http://dbpedia.org/property/industry","Software"
"15","http://dbpedia.org/property/industry","Telecommunications equipment"
"16","http://dbpedia.org/property/keyPeople","Larry Page Eric Schmidt Sergey Brin"
"17","http://dbpedia.org/ontology/keyPerson","Larry Page"
"18","http://dbpedia.org/property/locationCity","Googleplex, Mountain View, California, U.S."
"19","http://dbpedia.org/ontology/locationCity","California"
"20","http://dbpedia.org/ontology/locationCity","Mountain View, California",,"x"
"21","http://dbpedia.org/ontology/locationCity","Googleplex"
"22","http://dbpedia.org/property/logo","Logo Google 2013 Official.svg",,"x"
"23","http://www.w3.org/2002/07/owl#differentFrom","Goggles"
"24","http://www.w3.org/2002/07/owl#differentFrom","Googol"
"25","http://dbpedia.org/ontology/product","List of Google products","x","x"
"26","http://dbpedia.org/property/products","yes"
"27","http://dbpedia.org/property/products","See list of Google products"
"28","http://www.w3.org/2000/01/rdf-schema#seeAlso","List of Google products"
"29","http://www.w3.org/2000/01/rdf-schema#seeAlso","http://dbpedia.org/resource/List_of_mergers"
"30","http://www.w3.org/2000/01/rdf-schema#seeAlso","List of mergers and acquisitions by Google"
"31","http://dbpedia.org/property/symbol","GOOG"
"32","http://dbpedia.org/property/tradedAs","Class A:"
"33","http://dbpedia.org/property/tradedAs","Class B supervoting: unlisted"
"34","http://dbpedia.org/property/tradedAs","Class C nonvoting:"
"35","http://dbpedia.org/property/tradedAs","S&P 500"
"36","http://dbpedia.org/property/tradedAs","NASDAQ-100"
"37","http://dbpedia.org/ontology/type","Public company","x","x"
"38","http://dbpedia.org/property/type","Public company"
"39","http://dbpedia.org/property/url","http://google.stanford.edu"
"type","company"
"Wiki article link","https://en.wikipedia.org/wiki/Google"
