"ID","Property","Value","5 triple summary","10 triple summary"
"1","http://dbpedia.org/property/chair","Canon Nicholas Feist",,"x"
"2","http://dbpedia.org/ontology/city","Middleton, Greater Manchester","x","x"
"3","http://dbpedia.org/property/city","Middleton, Greater Manchester"
"4","http://dbpedia.org/ontology/country","United Kingdom"
"5","http://dbpedia.org/property/country","United Kingdom","x","x"
"6","http://dbpedia.org/ontology/county","Greater Manchester"
"7","http://dbpedia.org/property/county","Greater Manchester"
"8","http://dbpedia.org/ontology/gender","Mixed-sex education"
"9","http://dbpedia.org/property/gender","Mixed-sex education","x","x"
"10","http://dbpedia.org/property/head","Mrs Caroline Preece"
"11","http://dbpedia.org/ontology/headLabel","Principal"
"12","http://dbpedia.org/property/headLabel","Principal"
"13","http://dbpedia.org/property/lea","Metropolitan Borough of Rochdale"
"14","http://dbpedia.org/ontology/localAuthority","Metropolitan Borough of Rochdale"
"15","http://dbpedia.org/ontology/motto","Faith in our future",,"x"
"16","http://dbpedia.org/property/motto","Faith in our future"
"17","http://www.w3.org/2002/07/owl#differentFrom","St. Ann's Academy"
"18","http://dbpedia.org/property/postcode","M24 6XN",,"x"
"19","http://dbpedia.org/ontology/religion","Church of England",,"x"
"20","http://dbpedia.org/property/religion","Church of England"
"21","http://dbpedia.org/ontology/specialist","ICT"
"22","http://dbpedia.org/property/specialist","Information and communications technology","x","x"
"23","http://dbpedia.org/property/street","Hollin Lane"
"24","http://dbpedia.org/ontology/type","Academy (English school)",,"x"
"25","http://dbpedia.org/property/type","Academy (English school)"
"26","http://dbpedia.org/property/website","www.stannesacademy.org.uk","x","x"
"27","http://dbpedia.org/property/websiteName","St Annes Academy"
"type","academy"
"Wiki article link","https://en.wikipedia.org/wiki/St_Anne%27s_Academy"
