"ID","Property","Value","5 triple summary","10 triple summary"
"1","http://dbpedia.org/ontology/birthPlace","Stratford-upon-Avon","x","x"
"2","http://dbpedia.org/ontology/birthPlace","Kingdom of England"
"3","http://dbpedia.org/ontology/birthPlace","Warwickshire"
"4","http://dbpedia.org/property/birthPlace","Stratford-upon-Avon"
"5","http://dbpedia.org/property/birthPlace","Kingdom of England"
"6","http://dbpedia.org/property/birthPlace","Warwickshire"
"7","http://dbpedia.org/property/book","William Shakespeare","x","x"
"8","http://dbpedia.org/ontology/child","Susanna Hall",,"x"
"9","http://dbpedia.org/property/children","Susanna HallHamnet ShakespeareJudith Quiney"
"10","http://dbpedia.org/property/deathPlace","Stratford-upon-Avon, Warwickshire, England","x","x"
"11","http://dbpedia.org/ontology/deathPlace","Stratford-upon-Avon"
"12","http://dbpedia.org/ontology/deathPlace","Kingdom of England"
"13","http://dbpedia.org/ontology/deathPlace","Warwickshire"
"14","http://dbpedia.org/property/occupation","Playwright, poet, actor",,"x"
"15","http://dbpedia.org/property/period","English Renaissance","x","x"
"16","http://dbpedia.org/property/placeOfBirth","Stratford-upon-Avon, Warwickshire, England"
"17","http://dbpedia.org/property/placeOfDeath","Stratford-upon-Avon, Warwickshire, England"
"18","http://dbpedia.org/property/portal","Shakespeare",,"x"
"19","http://dbpedia.org/property/quote","""He was not of an age, but for all time.""","x","x"
"20","http://dbpedia.org/property/relations","John Shakespeare Mary Shakespeare",,"x"
"21","http://dbpedia.org/property/shortDescription","English poet and playwright",,"x"
"22","http://dbpedia.org/property/wiktSearch","Shakespeare"
"type","person, writer, poet"
"Wiki article link","https://en.wikipedia.org/wiki/William_Shakespeare"
