"ID","Property","Value","5 triple summary","10 triple summary"
"1","http://dbpedia.org/ontology/cinematography","Rodrigo Prieto",,"X"
"2","http://dbpedia.org/property/cinematography","Rodrigo Prieto",,
"3","http://dbpedia.org/property/country","United States",,
"4","http://xmlns.com/foaf/0.1/depiction","http://upload.wikimedia.org/wikipedia/commons/e/e1/Argo2012Poster.jpg","X","X"
"5","http://dbpedia.org/ontology/director","Ben Affleck","X","X"
"6","http://dbpedia.org/property/director","Ben Affleck",,
"7","http://dbpedia.org/ontology/distributor","Warner Bros.",,"X"
"8","http://dbpedia.org/property/distributor","Warner Bros.",,
"9","http://dbpedia.org/ontology/editing","William Goldenberg",,"X"
"10","http://dbpedia.org/property/editing","William Goldenberg",,
"11","http://xmlns.com/foaf/0.1/isPrimaryTopicOf","http://en.wikipedia.org/wiki/Argo_(2012_film)",,
"12","http://dbpedia.org/property/language","English","X","X"
"13","http://dbpedia.org/property/language","Persian",,
"14","http://dbpedia.org/property/music","Alexandre Desplat",,
"15","http://dbpedia.org/ontology/musicComposer","Alexandre Desplat",,
"16","http://dbpedia.org/property/producer","Ben Affleck",,"X"
"17","http://dbpedia.org/ontology/producer","Ben Affleck",,
"18","http://dbpedia.org/ontology/producer","George Clooney",,
"19","http://dbpedia.org/ontology/producer","Grant Heslov",,
"20","http://dbpedia.org/property/producer","George Clooney",,
"21","http://dbpedia.org/property/producer","Grant Heslov",,
"22","http://www.w3.org/ns/prov#wasDerivedFrom","http://en.wikipedia.org/wiki/Argo_(2012_film)?oldid=548580418",,
"23","http://dbpedia.org/property/screenplay","Chris Terrio",,
"24","http://dbpedia.org/property/source","â€”Roger Ebert, writing for the Chicago Sun-Times",,
"25","http://dbpedia.org/property/starring","Ben Affleck",,"X"
"26","http://dbpedia.org/ontology/starring","Alan Arkin",,
"27","http://dbpedia.org/ontology/starring","Ben Affleck",,
"28","http://dbpedia.org/ontology/starring","John Goodman",,
"29","http://dbpedia.org/ontology/starring","Bryan Cranston",,
"30","http://dbpedia.org/property/starring","Alan Arkin",,
"31","http://dbpedia.org/property/starring","John Goodman",,
"32","http://dbpedia.org/property/starring","Bryan Cranston",,
"33","http://dbpedia.org/property/studio","Graham King",,
"34","http://dbpedia.org/property/studio","Smokehouse Pictures","X","X"
"35","http://dbpedia.org/ontology/thumbnail","http://upload.wikimedia.org/wikipedia/commons/thumb/e/e1/Argo2012Poster.jpg/200px-Argo2012Poster.jpg",,
"36","http://dbpedia.org/ontology/writer","Chris Terrio","X","X"
"type","film"
"Wiki article link","http://en.wikipedia.org/wiki/Argo_%282012_film%29"
