"ID","Property","Value","5 triple summary","10 triple summary"
"1","http://dbpedia.org/property/alongside","Arthur Lee, Silas Deane, and John Adams",,
"2","http://dbpedia.org/property/appointed","Continental Congress",,
"3","http://dbpedia.org/property/appointed","Congress of the Confederation",,
"4","http://dbpedia.org/ontology/associate","Silas Deane",,
"5","http://dbpedia.org/ontology/associate","John Adams",,
"6","http://dbpedia.org/ontology/associate","Arthur Lee (diplomat)",,
"7","http://dbpedia.org/ontology/birthPlace","Province of Massachusetts Bay",,"X"
"8","http://dbpedia.org/ontology/birthPlace","Boston",,
"9","http://dbpedia.org/property/birthPlace","Province of Massachusetts Bay",,
"10","http://dbpedia.org/property/birthPlace","Boston",,
"11","http://dbpedia.org/ontology/child","Sarah Franklin Bache",,"X"
"12","http://dbpedia.org/ontology/child","William Franklin",,"X"
"13","http://dbpedia.org/property/children","Francis Folger Franklin",,"X"
"14","http://dbpedia.org/property/children","Sarah Franklin Bache",,
"15","http://dbpedia.org/property/children","William Franklin",,
"16","http://dbpedia.org/property/country","France",,
"17","http://dbpedia.org/property/country","Sweden",,
"18","http://dbpedia.org/ontology/deathPlace","Pennsylvania",,
"19","http://dbpedia.org/ontology/deathPlace","Philadelphia",,
"20","http://dbpedia.org/property/deathPlace","Pennsylvania",,
"21","http://dbpedia.org/property/deathPlace","Philadelphia",,
"22","http://xmlns.com/foaf/0.1/depiction","http://upload.wikimedia.org/wikipedia/commons/c/cc/BenFranklinDuplessis.jpg","X","X"
"23","http://xmlns.com/foaf/0.1/homepage","http://www.benfranklin300.com/",,
"24","http://xmlns.com/foaf/0.1/isPrimaryTopicOf","http://en.wikipedia.org/wiki/Benjamin_Franklin",,
"25","http://dbpedia.org/property/ministerFrom","United States",,
"26","http://dbpedia.org/property/nationality","American",,
"27","http://dbpedia.org/ontology/office","Member of the Pennsylvania Assembly",,
"28","http://dbpedia.org/ontology/office","Speaker of the Pennsylvania Assembly",,
"29","http://dbpedia.org/property/office","Member of the Pennsylvania Assembly",,
"30","http://dbpedia.org/property/office","Speaker of the Pennsylvania House of Representatives",,
"31","http://dbpedia.org/property/onlinebooks","yes",,
"32","http://dbpedia.org/ontology/orderInOffice","1st United States Postmaster General","X","X"
"33","http://dbpedia.org/ontology/orderInOffice","6th President of Pennsylvania","X","X"
"34","http://dbpedia.org/ontology/party","Independent (politician)","X","X"
"35","http://dbpedia.org/property/party","Independent (politician)",,
"36","http://dbpedia.org/property/placeOfBirth","Boston, Massachusetts",,
"37","http://dbpedia.org/property/placeOfDeath","Philadelphia, Pennsylvania",,
"38","http://dbpedia.org/property/predecessor","New office",,
"39","http://dbpedia.org/property/predecessor","Isaac Norris (statesman)",,
"40","http://dbpedia.org/property/predecessor","John Dickinson (Pennsylvania and Delaware)",,
"41","http://dbpedia.org/property/predecessor","John Dickinson (politician)",,
"42","http://dbpedia.org/property/profession","Politician",,
"43","http://dbpedia.org/property/profession","Scientist",,
"44","http://dbpedia.org/property/profession","Writer",,
"45","http://dbpedia.org/ontology/profession","Politics of the United States",,
"46","http://www.w3.org/ns/prov#wasDerivedFrom","http://en.wikipedia.org/wiki/Benjamin_Franklin?oldid=547636908",,
"47","http://dbpedia.org/property/shortDescription","American printer, writer, politician","X","X"
"48","http://dbpedia.org/ontology/spouse","Deborah Read",,"X"
"49","http://dbpedia.org/property/spouse","Deborah Read",,
"50","http://dbpedia.org/ontology/successor","Thomas Jefferson",,"X"
"51","http://dbpedia.org/ontology/successor","Thomas Mifflin",,
"52","http://dbpedia.org/ontology/successor","Isaac Norris (statesman)",,
"53","http://dbpedia.org/ontology/successor","Richard Bache",,
"54","http://dbpedia.org/ontology/successor","Jonathan Russell",,
"55","http://dbpedia.org/property/successor","Thomas Jefferson",,
"56","http://dbpedia.org/property/successor","Thomas Mifflin",,
"57","http://dbpedia.org/property/successor","Isaac Norris (statesman)",,
"58","http://dbpedia.org/property/successor","Richard Bache",,
"59","http://dbpedia.org/property/successor","Jonathan Russell",,
"60","http://dbpedia.org/ontology/thumbnail","http://upload.wikimedia.org/wikipedia/commons/thumb/c/cc/BenFranklinDuplessis.jpg/200px-BenFranklinDuplessis.jpg",,
"61","http://dbpedia.org/ontology/vicePresident","Thomas Mifflin",,
"62","http://dbpedia.org/ontology/vicePresident","Charles Biddle",,
"63","http://dbpedia.org/property/vicepresident","Thomas Mifflin",,
"64","http://dbpedia.org/property/vicepresident","Charles Biddle",,
"type","person, politician"
"Wiki article link","http://en.wikipedia.org/wiki/Benjamin_Franklin"
