"ID","Property","Value","5 triple summary","10 triple summary"
"1","http://dbpedia.org/property/ancestry","China",,
"2","http://dbpedia.org/property/ancestry","Guangdong",,
"3","http://dbpedia.org/property/ancestry","Shunde District",,
"4","http://dbpedia.org/ontology/award","Fist of Fury",,
"5","http://dbpedia.org/property/birthPlace","Chinatown, San Francisco",,
"6","http://dbpedia.org/ontology/birthPlace","San Francisco","X","X"
"7","http://dbpedia.org/ontology/birthPlace","United States",,
"8","http://dbpedia.org/property/birthPlace","San Francisco Chinese Hospital",,
"9","http://dbpedia.org/ontology/child","Brandon Lee",,
"10","http://dbpedia.org/ontology/child","Shannon Lee",,
"11","http://dbpedia.org/property/children","Shannon Lee",,
"12","http://dbpedia.org/property/children","Brandon Lee",,
"13","http://dbpedia.org/ontology/country","China",,
"14","http://dbpedia.org/ontology/country","People's Republic of China","X","X"
"15","http://dbpedia.org/ontology/deathPlace","Hong Kong","X","X"
"16","http://dbpedia.org/property/deathPlace","British Hong Kong",,
"17","http://dbpedia.org/property/deathPlace","Kowloon",,
"18","http://dbpedia.org/property/deathPlace","Kowloon Tong",,
"19","http://xmlns.com/foaf/0.1/depiction","http://upload.wikimedia.org/wikipedia/commons/5/51/BruceLeecard.jpg","X","X"
"20","http://dbpedia.org/property/goldenhorseawards","Best Mandarin Film",,"X"
"21","http://dbpedia.org/property/goldenhorseawards","Special Jury Award",,"X"
"22","http://xmlns.com/foaf/0.1/homepage","http://www.brucelee.com/",,"X"
"23","http://xmlns.com/foaf/0.1/homepage","http://www.bruceleefoundation.com/",,
"24","http://dbpedia.org/property/hongkongfilmwards","Lifetime Achievement Award",,
"25","http://xmlns.com/foaf/0.1/isPrimaryTopicOf","http://en.wikipedia.org/wiki/Bruce_Lee",,
"26","http://dbpedia.org/property/occupation","Martial artist, martial arts founder, instructor, actor, philosopher, film director, screenwriter",,
"27","http://dbpedia.org/ontology/occupation","Chinese martial arts","X","X"
"28","http://dbpedia.org/ontology/occupation","Kung Fu",,
"29","http://dbpedia.org/property/origin","Hong Kong",,
"30","http://dbpedia.org/ontology/parent","Lee Hoi-chuen",,
"31","http://dbpedia.org/property/parents","Grace Ho",,
"32","http://dbpedia.org/property/parents","Lee Hoi-chuen",,
"33","http://dbpedia.org/property/placeOfBirth","San Francisco, United States",,
"34","http://dbpedia.org/property/placeOfDeath","Hong Kong",,
"35","http://www.w3.org/ns/prov#wasDerivedFrom","http://en.wikipedia.org/wiki/Bruce_Lee?oldid=548585344",,
"36","http://dbpedia.org/ontology/restingPlace","Lake View Cemetery (Seattle)",,
"37","http://dbpedia.org/ontology/restingPlace","Seattle",,
"38","http://dbpedia.org/property/restingplace","Lake View Cemetery (Seattle)",,
"39","http://dbpedia.org/property/restingplace","Seattle",,
"40","http://dbpedia.org/property/shortDescription","Martial artist",,"X"
"41","http://dbpedia.org/ontology/spouse","Linda Lee Cadwell",,
"42","http://dbpedia.org/property/spouse","Linda Lee Cadwell",,"X"
"43","http://dbpedia.org/ontology/thumbnail","http://upload.wikimedia.org/wikipedia/commons/thumb/5/51/BruceLeecard.jpg/200px-BruceLeecard.jpg",,
"44","http://dbpedia.org/property/website","http://www.brucelee.com/",,
"45","http://dbpedia.org/property/website","http://www.bruceleefoundation.com/",,
"type","person, actor"
"Wiki article link","http://en.wikipedia.org/wiki/Bruce_Lee"
