"ID","Property","Value","5 triple summary","10 triple summary"
"1","http://dbpedia.org/property/camera","Film; multi-camera",,
"2","http://dbpedia.org/ontology/company","Bright/Kauffman/Crane Productions",,
"3","http://dbpedia.org/ontology/company","Warner Bros. Television",,"X"
"4","http://dbpedia.org/property/company","Bright/Kauffman/Crane Productions",,
"5","http://dbpedia.org/property/company","Warner Bros. Television",,
"6","http://dbpedia.org/ontology/composer","Allee Willis",,
"7","http://dbpedia.org/property/country","United States",,
"8","http://dbpedia.org/ontology/creator","Marta Kauffman",,
"9","http://dbpedia.org/ontology/creator","David Crane (producer)","X","X"
"10","http://dbpedia.org/property/creator","Marta Kauffman",,
"11","http://dbpedia.org/property/creator","David Crane (producer)",,
"12","http://xmlns.com/foaf/0.1/depiction","http://upload.wikimedia.org/wikipedia/commons/8/86/Friends_titles.jpg",,
"13","http://dbpedia.org/ontology/distributor","NBC",,
"14","http://dbpedia.org/ontology/distributor","Warner Bros. Television Distribution",,
"15","http://dbpedia.org/property/distributor","NBC",,
"16","http://dbpedia.org/property/executiveProducer","David Crane",,
"17","http://dbpedia.org/property/executiveProducer","Marta Kauffman",,
"18","http://dbpedia.org/property/executiveProducer","Michael Curtis",,
"19","http://dbpedia.org/property/executiveProducer","Adam Chase",,
"20","http://dbpedia.org/property/executiveProducer","Wil Calhoun",,
"21","http://dbpedia.org/property/executiveProducer","Ted Cohen",,
"22","http://dbpedia.org/property/executiveProducer","Scott Silveri",,
"23","http://dbpedia.org/property/executiveProducer","Andrew Reich",,
"24","http://dbpedia.org/property/executiveProducer","Greg Malins",,
"25","http://dbpedia.org/property/executiveProducer","Michael Borkow",,
"26","http://dbpedia.org/ontology/executiveProducer","Marta Kauffman",,
"27","http://dbpedia.org/ontology/executiveProducer","David Crane (producer)",,
"28","http://dbpedia.org/ontology/executiveProducer","Wil Calhoun",,
"29","http://dbpedia.org/ontology/executiveProducer","Kevin S. Bright",,
"30","http://dbpedia.org/ontology/executiveProducer","Michael Curtis (TV producer)",,
"31","http://dbpedia.org/ontology/executiveProducer","Scott Silveri",,
"32","http://dbpedia.org/property/executiveProducer","Kevin S. Bright",,
"33","http://dbpedia.org/property/followedBy","Joey",,
"34","http://dbpedia.org/ontology/format","1080i",,
"35","http://dbpedia.org/ontology/format","480i",,
"36","http://dbpedia.org/ontology/genre","Sitcom","X","X"
"37","http://dbpedia.org/property/genre","Sitcom",,
"38","http://xmlns.com/foaf/0.1/homepage","http://warnervideo.com/friends15/",,
"39","http://xmlns.com/foaf/0.1/isPrimaryTopicOf","http://en.wikipedia.org/wiki/Friends",,
"40","http://dbpedia.org/property/language","English",,
"41","http://dbpedia.org/property/listEpisodes","List of Friends episodes",,
"42","http://dbpedia.org/property/location","Burbank, California",,
"43","http://dbpedia.org/ontology/location","Warner Bros.",,
"44","http://dbpedia.org/ontology/location","Warner Bros. Studios",,
"45","http://dbpedia.org/property/location","Warner Bros.",,
"46","http://dbpedia.org/property/location","Warner Bros. Studios",,
"47","http://dbpedia.org/ontology/network","NBC","X","X"
"48","http://dbpedia.org/property/network","NBC",,
"49","http://dbpedia.org/ontology/openingTheme","I'll Be There for You (The Rembrandts song)","X","X"
"50","http://dbpedia.org/ontology/openingTheme","The Rembrandts",,
"51","http://dbpedia.org/property/opentheme","""I'll Be There for You""",,
"52","http://dbpedia.org/property/opentheme","by The Rembrandts",,
"53","http://www.w3.org/ns/prov#wasDerivedFrom","http://en.wikipedia.org/wiki/Friends?oldid=547882844",,
"54","http://dbpedia.org/property/reason","seasons are ambiguous. see WP:SEASON",,
"55","http://dbpedia.org/ontology/starring","Jennifer Aniston","X","X"
"56","http://dbpedia.org/ontology/starring","David Schwimmer",,"X"
"57","http://dbpedia.org/ontology/starring","Lisa Kudrow",,"X"
"58","http://dbpedia.org/ontology/starring","Matthew Perry",,"X"
"59","http://dbpedia.org/ontology/starring","Courteney Cox",,"X"
"60","http://dbpedia.org/ontology/starring","Matt LeBlanc",,"X"
"61","http://dbpedia.org/property/starring","Jennifer Aniston",,
"62","http://dbpedia.org/property/starring","David Schwimmer",,
"63","http://dbpedia.org/property/starring","Lisa Kudrow",,
"64","http://dbpedia.org/property/starring","Matthew Perry",,
"65","http://dbpedia.org/property/starring","Courteney Cox",,
"66","http://dbpedia.org/property/starring","Matt LeBlanc",,
"67","http://dbpedia.org/ontology/status","Ended",,
"68","http://dbpedia.org/property/status","Ended",,
"69","http://dbpedia.org/ontology/subsequentWork","Joey (TV series)",,
"70","http://dbpedia.org/property/themeMusicComposer","Michael Skloff",,
"71","http://dbpedia.org/property/themeMusicComposer","Allee Willis",,
"72","http://dbpedia.org/ontology/thumbnail","http://upload.wikimedia.org/wikipedia/commons/thumb/8/86/Friends_titles.jpg/200px-Friends_titles.jpg",,
"73","http://dbpedia.org/property/website","http://warnervideo.com/friends15/",,
"type","tv show"
"Wiki article link","http://en.wikipedia.org/wiki/Friends"
