"ID","Property","Value","5 triple summary","10 triple summary"
"1","http://dbpedia.org/property/commons","Amsterdam"
"2","http://dbpedia.org/property/coordinatesDisplay","inline,title"
"3","http://dbpedia.org/property/coordinatesRegion","NL"
"4","http://dbpedia.org/ontology/country","Netherlands","X","X"
"5","http://dbpedia.org/property/criteria","I, II, IV"
"6","http://xmlns.com/foaf/0.1/depiction","http://upload.wikimedia.org/wikipedia/commons/8/8e/Amsterdam_Collage.png"
"7","http://xmlns.com/foaf/0.1/homepage","http://www.amsterdam.nl/","X","X"
"8","http://dbpedia.org/property/imageFlag","Flag of Amsterdam.svg","X","X"
"9","http://dbpedia.org/property/imageMap","LocatieAmsterdam.svg"
"10","http://dbpedia.org/property/imageShield","Amsterdam.svg"
"11","http://dbpedia.org/property/imageSkyline","Amsterdam Collage.png"
"12","http://dbpedia.org/ontology/isPartOf","North Holland","X","X"
"13","http://dbpedia.org/ontology/isPartOf","Amsterdam (VOC ship)"
"14","http://xmlns.com/foaf/0.1/isPrimaryTopicOf","http://en.wikipedia.org/wiki/Amsterdam"
"15","http://dbpedia.org/property/leaderName","Henk de Jong"
"16","http://dbpedia.org/ontology/leaderName","AndrÃ©e van Es"
"17","http://dbpedia.org/ontology/leaderName","Eberhard van der Laan"
"18","http://dbpedia.org/ontology/leaderName","http://dbpedia.org/resource/Maarten_van_Poelgeest",,"X"
"19","http://dbpedia.org/ontology/leaderName","http://dbpedia.org/resource/Freek_Ossel",,"X"
"20","http://dbpedia.org/ontology/leaderName","http://dbpedia.org/resource/Carolien_Gehrels"
"21","http://dbpedia.org/ontology/leaderName","http://dbpedia.org/resource/Eric_Wiebes"
"22","http://dbpedia.org/ontology/leaderName","http://dbpedia.org/resource/Eric_van_der_Burg"
"23","http://dbpedia.org/ontology/leaderName","http://dbpedia.org/resource/Pieter_Hilhorst"
"24","http://dbpedia.org/property/leaderName","AndrÃ©e van Es"
"25","http://dbpedia.org/property/leaderName","Eberhard van der Laan"
"26","http://dbpedia.org/property/leaderName","http://dbpedia.org/resource/Maarten_van_Poelgeest"
"27","http://dbpedia.org/property/leaderName","http://dbpedia.org/resource/Freek_Ossel"
"28","http://dbpedia.org/property/leaderName","http://dbpedia.org/resource/Carolien_Gehrels"
"29","http://dbpedia.org/property/leaderName","http://dbpedia.org/resource/Eric_Wiebes"
"30","http://dbpedia.org/property/leaderName","http://dbpedia.org/resource/Eric_van_der_Burg"
"31","http://dbpedia.org/property/leaderName","http://dbpedia.org/resource/Pieter_Hilhorst"
"32","http://dbpedia.org/ontology/leaderParty","Labour Party (Netherlands)",,"X"
"33","http://dbpedia.org/property/leaderParty","Labour Party (Netherlands)"
"34","http://dbpedia.org/ontology/leaderTitle","Mayor"
"35","http://dbpedia.org/ontology/leaderTitle","Secretary"
"36","http://dbpedia.org/ontology/leaderTitle","Aldermen"
"37","http://dbpedia.org/property/leaderTitle","Secretary"
"38","http://dbpedia.org/property/leaderTitle","List of mayors of Amsterdam"
"39","http://dbpedia.org/property/leaderTitle","Wethouder"
"40","http://dbpedia.org/property/leaderTitle","College van burgemeester en wethouders"
"41","http://dbpedia.org/property/link","http://whc.unesco.org/en/list/1349/"
"42","http://dbpedia.org/property/location","Amsterdam"
"43","http://dbpedia.org/property/mapCaption","Location of Amsterdam"
"44","http://dbpedia.org/ontology/motto","(Valiant, Steadfast, Compassionate)"
"45","http://dbpedia.org/ontology/motto","Heldhaftig, Vastberaden, Barmhartig"
"46","http://dbpedia.org/property/motto","Coat of arms of Amsterdam"
"47","http://dbpedia.org/property/parts","Amsterdam-Oost"
"48","http://dbpedia.org/property/parts","Amsterdam-West"
"49","http://dbpedia.org/property/parts","Amsterdam-Zuid"
"50","http://dbpedia.org/property/parts","Amsterdam Nieuw-West"
"51","http://dbpedia.org/property/parts","Amsterdam-Zuidoost"
"52","http://dbpedia.org/property/parts","Amsterdam-Noord"
"53","http://dbpedia.org/property/parts","Westpoort"
"54","http://dbpedia.org/property/parts","Amsterdam-Centrum"
"55","http://dbpedia.org/property/partsType","Urban districts of Netherlands"
"56","http://dbpedia.org/property/partsType","Stadsdeel"
"57","http://dbpedia.org/property/populationBlank","Amsterdammer , Amsterdamse"
"58","http://dbpedia.org/property/populationBlank1Title","Demonym"
"59","http://dbpedia.org/property/populationBlank1Title","Randstad"
"60","http://dbpedia.org/property/postalCodeType","List of postal codes in the Netherlands"
"61","http://www.w3.org/ns/prov#wasDerivedFrom","http://en.wikipedia.org/wiki/Amsterdam?oldid=548577509"
"62","http://dbpedia.org/property/region","List of World Heritage Sites",,"X"
"63","http://dbpedia.org/property/region","List of World Heritage Sites in Europe"
"64","http://dbpedia.org/property/settlementType","Municipality and City",,"X"
"65","http://dbpedia.org/property/singleLine","Yes"
"66","http://dbpedia.org/property/source","KNMI"
"67","http://dbpedia.org/property/species","no"
"68","http://dbpedia.org/property/stateParty","Netherlands"
"69","http://dbpedia.org/property/subdivisionName","Amsterdam"
"70","http://dbpedia.org/property/subdivisionName","Netherlands"
"71","http://dbpedia.org/property/subdivisionName","North Holland"
"72","http://dbpedia.org/property/subdivisionType","Country"
"73","http://dbpedia.org/property/subdivisionType","Province"
"74","http://dbpedia.org/property/subdivisionType","COROP"
"75","http://dbpedia.org/ontology/thumbnail","http://upload.wikimedia.org/wikipedia/commons/thumb/8/8e/Amsterdam_Collage.png/200px-Amsterdam_Collage.png"
"76","http://dbpedia.org/property/timezone","CET"
"77","http://dbpedia.org/ontology/timeZone","Central European Time","X","X"
"78","http://dbpedia.org/ontology/timeZone","Central European Summer Time"
"79","http://dbpedia.org/property/timezoneDst","CEST"
"80","http://dbpedia.org/property/url","http://www.1911encyclopedia.com/Amsterdam%2C_Holland"
"81","http://dbpedia.org/property/voy","Amsterdam"
"82","http://dbpedia.org/property/website","http://www.amsterdam.nl/"
"83","http://dbpedia.org/property/whs","Seventeenth-century canal ring area of Amsterdam inside the Singelgracht"
"type","place, city"
"Wiki article link","http://en.wikipedia.org/wiki/Amsterdam"
