"ID","Property","Value","5 triple summary","10 triple summary"
"1","http://dbpedia.org/ontology/almaMater","University of St Andrews",,"X"
"2","http://dbpedia.org/property/almaMater","University of St Andrews"
"3","http://dbpedia.org/ontology/birthPlace","Edinburgh"
"4","http://dbpedia.org/ontology/birthPlace","Scotland"
"5","http://dbpedia.org/ontology/birthPlace","Merchiston Tower",,"X"
"6","http://dbpedia.org/ontology/birthPlace","Merchiston Castle"
"7","http://dbpedia.org/property/birthPlace","Edinburgh"
"8","http://dbpedia.org/property/birthPlace","Merchiston Tower"
"9","http://dbpedia.org/property/birthPlace","Merchiston Castle"
"10","http://dbpedia.org/property/deathPlace","Edinburgh",,"X"
"11","http://dbpedia.org/ontology/deathPlace","Edinburgh"
"12","http://xmlns.com/foaf/0.1/depiction","http://upload.wikimedia.org/wikipedia/commons/e/e3/John_Napier.jpg","X","X"
"13","http://dbpedia.org/ontology/field","Mathematician","X","X"
"14","http://dbpedia.org/property/field","Mathematician"
"15","http://dbpedia.org/ontology/influenced","Henry Briggs (mathematician)",,"X"
"16","http://dbpedia.org/property/influenced","Henry Briggs (mathematician)"
"17","http://xmlns.com/foaf/0.1/isPrimaryTopicOf","http://en.wikipedia.org/wiki/John_Napier"
"18","http://dbpedia.org/property/knownFor","Logarithms","X","X"
"19","http://dbpedia.org/ontology/knownFor","Logarithm"
"20","http://dbpedia.org/ontology/knownFor","Decimal mark"
"21","http://dbpedia.org/ontology/knownFor","Decimal point"
"22","http://dbpedia.org/ontology/knownFor","Napier's bones"
"23","http://dbpedia.org/property/knownFor","Decimal mark"
"24","http://dbpedia.org/property/knownFor","Decimal point"
"25","http://dbpedia.org/property/knownFor","Napier's bones"
"26","http://dbpedia.org/ontology/nationality","Scotland","X","X"
"27","http://dbpedia.org/property/nationality","Scotland"
"28","http://dbpedia.org/property/placeOfBirth","Edinburgh"
"29","http://dbpedia.org/property/placeOfBirth","Scotland"
"30","http://dbpedia.org/property/placeOfBirth","Merchiston Tower"
"31","http://dbpedia.org/property/placeOfBirth","Merchiston Castle"
"32","http://dbpedia.org/property/placeOfDeath","Edinburgh"
"33","http://www.w3.org/ns/prov#wasDerivedFrom","http://en.wikipedia.org/wiki/John_Napier?oldid=547490259"
"34","http://dbpedia.org/property/religion","Church of Scotland",,"X"
"35","http://dbpedia.org/property/shortDescription","Scottish mathematician, physicist, astronomer/astrologer and 8th Laird of Merchistoun","X","X"
"36","http://dbpedia.org/ontology/thumbnail","http://upload.wikimedia.org/wikipedia/commons/thumb/e/e3/John_Napier.jpg/200px-John_Napier.jpg"
"type","person"
"Wiki article link","http://en.wikipedia.org/wiki/John_Napier"
