"ID","Property","Value","5 triple summary","10 triple summary"
"1","http://dbpedia.org/property/country","Canada","X","X"
"2","http://dbpedia.org/property/country","United States",,"X"
"3","http://dbpedia.org/ontology/country","United States"
"4","http://dbpedia.org/ontology/country","Canada"
"5","http://xmlns.com/foaf/0.1/depiction","http://upload.wikimedia.org/wikipedia/commons/f/f4/Dawson_City_Lookout_Yukon_River_3264px.jpg","X","X"
"6","http://xmlns.com/foaf/0.1/isPrimaryTopicOf","http://en.wikipedia.org/wiki/Yukon_River"
"7","http://dbpedia.org/property/mouth","Bering Sea","X","X"
"8","http://dbpedia.org/ontology/mouthCountry","United States"
"9","http://dbpedia.org/property/mouthCountry","United States"
"10","http://dbpedia.org/property/mouthLocation","Wade Hampton Census Area, Alaska",,"X"
"11","http://dbpedia.org/ontology/mouthMountain","Wade Hampton Census Area, Alaska"
"12","http://dbpedia.org/ontology/mouthPlace","Wade Hampton Census Area, Alaska"
"13","http://dbpedia.org/ontology/mouthPosition","http://dbpedia.org/resource/Yukon_River__mouthPosition__1"
"14","http://dbpedia.org/ontology/mouthRegion","Alaska",,"X"
"15","http://dbpedia.org/property/mouthRegion","Alaska"
"16","http://www.w3.org/ns/prov#wasDerivedFrom","http://en.wikipedia.org/wiki/Yukon_River?oldid=546352640",,"X"
"17","http://dbpedia.org/property/province","British Columbia"
"18","http://dbpedia.org/property/province","Yukon Territory"
"19","http://dbpedia.org/ontology/riverMouth","Bering Sea"
"20","http://dbpedia.org/property/source","Llewellyn Glacier at Atlin Lake"
"21","http://dbpedia.org/ontology/source","Atlin Lake"
"22","http://dbpedia.org/ontology/sourceCountry","Canada"
"23","http://dbpedia.org/property/sourceCountry","Canada"
"24","http://dbpedia.org/property/sourceLocation","Atlin District","X","X"
"25","http://dbpedia.org/ontology/sourceMountain","Atlin District"
"26","http://dbpedia.org/ontology/sourcePlace","Atlin District"
"27","http://dbpedia.org/ontology/sourcePosition","http://dbpedia.org/resource/Yukon_River__sourcePosition__1",,"X"
"28","http://dbpedia.org/ontology/sourceRegion","British Columbia"
"29","http://dbpedia.org/property/sourceRegion","British Columbia"
"30","http://dbpedia.org/property/state","Alaska","X","X"
"31","http://dbpedia.org/ontology/state","Alaska"
"32","http://dbpedia.org/ontology/thumbnail","http://upload.wikimedia.org/wikipedia/commons/thumb/f/f4/Dawson_City_Lookout_Yukon_River_3264px.jpg/200px-Dawson_City_Lookout_Yukon_River_3264px.jpg"
"type","river"
"Wiki article link","http://en.wikipedia.org/wiki/Yukon_River"
