"ID","Property","Value","5 triple summary","10 triple summary"
"1","http://dbpedia.org/property/airline","Aer Lingus","x","x"
"2","http://dbpedia.org/ontology/destination","Aer Lingus destinations"
"3","http://dbpedia.org/property/frequentFlyer","Gold Circle Club",,"x"
"4","http://dbpedia.org/ontology/headquarter","Dublin Airport"
"5","http://dbpedia.org/ontology/headquarter","Fingal"
"6","http://dbpedia.org/property/headquarters","Dublin Airport, Fingal, Ireland","x","x"
"7","http://xmlns.com/foaf/0.1/homepage","http://www.aerlingus.com"
"8","http://dbpedia.org/ontology/hubAirport","Dublin Airport",,"x"
"9","http://dbpedia.org/property/hubs","*Dublin"
"10","http://dbpedia.org/property/iata","EI"
"11","http://dbpedia.org/ontology/iataAirlineCode","EI",,"x"
"12","http://dbpedia.org/property/icao","EIN"
"13","http://dbpedia.org/ontology/icaoAirlineCode","EIN"
"14","http://dbpedia.org/ontology/industry","Aviation","x","x"
"15","http://dbpedia.org/property/keyPeople","Christoph Mueller"
"16","http://dbpedia.org/property/keyPeople","Colm Barrington"
"17","http://dbpedia.org/property/logo","Aerlinguslogo.svg",,"x"
"18","http://dbpedia.org/property/lounge","Gold Circle Lounge"
"19","http://dbpedia.org/ontology/operatingIncome","6.11E7","x","x"
"20","http://dbpedia.org/property/parent","Aer Lingus Group PLC",,"x"
"21","http://dbpedia.org/ontology/targetAirport","Gatwick Airport"
"22","http://dbpedia.org/ontology/targetAirport","London Heathrow Airport"
"23","http://dbpedia.org/ontology/targetAirport","Shannon Airport"
"24","http://dbpedia.org/ontology/targetAirport","Cork Airport"
"25","http://dbpedia.org/ontology/targetAirport","George Best Belfast City Airport"
"26","http://dbpedia.org/property/website","http://www.aerlingus.com","x","x"
"type","company, airline"
"Wiki article link","https://en.wikipedia.org/wiki/Aer_Lingus"
