"ID","Property","Value","5 triple summary","10 triple summary"
"1","http://dbpedia.org/property/areaServed","Worldwide",,"x"
"2","http://dbpedia.org/ontology/assets","1.05134E11"
"3","http://dbpedia.org/property/direction","vertical"
"4","http://dbpedia.org/ontology/equity","5.6654E10"
"5","http://dbpedia.org/property/footer","Cisco small business SG300-28 28-port Gigabit Ethernet rackmount switch and its internals"
"6","http://dbpedia.org/ontology/foundedBy","Leonard Bosack"
"7","http://dbpedia.org/ontology/foundedBy","Sandy Lerner"
"8","http://dbpedia.org/ontology/foundedBy","http://dbpedia.org/resource/Richard_Troiano"
"9","http://dbpedia.org/property/founder","Leonard Bosack","x","x"
"10","http://dbpedia.org/property/founder","Sandy Lerner"
"11","http://dbpedia.org/property/founder","http://dbpedia.org/resource/Richard_Troiano"
"12","http://xmlns.com/foaf/0.1/homepage","https://www.cisco.com/"
"13","http://dbpedia.org/property/homepage","https://www.cisco.com/"
"14","http://dbpedia.org/property/hoovers","Cisco_Systems_Inc.c4312ea4461db0e5"
"15","http://dbpedia.org/property/image","Internals of a Cisco small business SG300-28 28-port Gigabit Ethernet rackmount switch.jpg"
"16","http://dbpedia.org/property/image","Cisco small business SG300-28 28-port Gigabit Ethernet rackmount switch.jpg"
"17","http://dbpedia.org/ontology/industry","Networking hardware","x","x"
"18","http://dbpedia.org/property/industry","Networking hardware"
"19","http://dbpedia.org/property/keyPeople","Gary Moore","x","x"
"20","http://dbpedia.org/property/keyPeople","John Chambers (CEO)"
"21","http://dbpedia.org/ontology/keyPerson","John Chambers (CEO)","x","x"
"22","http://dbpedia.org/property/locationCity","San Jose, California",,"x"
"23","http://dbpedia.org/ontology/locationCity","San Jose, California"
"24","http://dbpedia.org/property/locationCountry","U.S.","x","x"
"25","http://dbpedia.org/ontology/netIncome","7.853E9",,"x"
"26","http://dbpedia.org/ontology/operatingIncome","9.345E9"
"27","http://www.w3.org/2002/07/owl#differentFrom","Sisko"
"28","http://www.w3.org/2002/07/owl#differentFrom","Sysco"
"29","http://www.w3.org/2002/07/owl#differentFrom","Certis CISCO"
"30","http://www.w3.org/2002/07/owl#differentFrom","http://dbpedia.org/resource/SisqÃ³"
"31","http://dbpedia.org/ontology/product","Networking hardware",,"x"
"32","http://dbpedia.org/ontology/product","Cisco IOS"
"33","http://dbpedia.org/ontology/product","Telepresence"
"34","http://dbpedia.org/ontology/product","Wireless"
"35","http://dbpedia.org/ontology/product","Storage area network"
"36","http://dbpedia.org/ontology/product","Network management"
"37","http://dbpedia.org/ontology/product","Voice over IP"
"38","http://dbpedia.org/ontology/product","Data center"
"39","http://dbpedia.org/ontology/product","Interface (computing)"
"40","http://dbpedia.org/ontology/product","Modularity"
"41","http://dbpedia.org/ontology/product","Optical networking"
"42","http://dbpedia.org/property/products","Storage area networks"
"43","http://dbpedia.org/property/products","Cisco IOS and NX-OS Software"
"44","http://dbpedia.org/property/products","Interface and Module"
"45","http://dbpedia.org/property/products","Wireless, Telepresence, VOIP, Security"
"46","http://dbpedia.org/property/products","Networking hardware"
"47","http://dbpedia.org/property/products","http://dbpedia.org/resource/Category:Cisco_products"
"48","http://dbpedia.org/property/products","Network management"
"49","http://dbpedia.org/property/products","Data center"
"50","http://dbpedia.org/property/products","Optical networking"
"51","http://dbpedia.org/ontology/revenue","4.7142E10"
"52","http://dbpedia.org/property/subsid","List of acquisitions by Cisco Systems"
"53","http://dbpedia.org/ontology/subsidiary","List of acquisitions by Cisco Systems"
"54","http://dbpedia.org/property/symbol","CSCO",,"x"
"55","http://dbpedia.org/property/tradedAs","Dow Jones Industrial Average"
"56","http://dbpedia.org/property/tradedAs","S&P 500"
"57","http://dbpedia.org/property/tradedAs","NASDAQ-100"
"58","http://dbpedia.org/ontology/type","Public company"
"59","http://dbpedia.org/property/type","Public company"
"type","company"
"Wiki article link","https://en.wikipedia.org/wiki/Cisco_Systems"
