"ID","Property","Value","5 triple summary","10 triple summary"
"1","http://dbpedia.org/property/agandmarkets","Patrick Hooker"
"2","http://dbpedia.org/property/almaMater","Columbia University",,"x"
"3","http://dbpedia.org/property/almaMater","Maurice A. Deane School of Law"
"4","http://dbpedia.org/property/attygen","Andrew Cuomo"
"5","http://dbpedia.org/property/banking","Richard H. Neiman"
"6","http://dbpedia.org/ontology/birthPlace","Brooklyn"
"7","http://dbpedia.org/ontology/birthPlace","New York"
"8","http://dbpedia.org/property/birthPlace","Brooklyn"
"9","http://dbpedia.org/property/birthPlace","New York"
"10","http://dbpedia.org/property/birthPlace","New York City"
"11","http://dbpedia.org/property/chiefOfStaff","Jon Cohen"
"12","http://dbpedia.org/property/children","Gladys Carrion",,"x"
"13","http://dbpedia.org/property/civilservice","Nancy G. Groenwegen"
"14","http://dbpedia.org/property/communicationsDirector","http://dbpedia.org/resource/Risa_Heller"
"15","http://dbpedia.org/property/comp","Thomas DiNapoli"
"16","http://dbpedia.org/property/corrections","Brian Fischer"
"17","http://dbpedia.org/property/dec","Pete Grannis"
"18","http://dbpedia.org/property/dmv","David Swarts"
"19","http://dbpedia.org/property/education","Richard P. Mills"
"20","http://dbpedia.org/property/generalCounsel","http://dbpedia.org/resource/Terryl_Brown-Clemens"
"21","http://dbpedia.org/property/governor","David Paterson"
"22","http://dbpedia.org/property/governor","Eliot Spitzer"
"23","http://dbpedia.org/property/govsec","http://dbpedia.org/resource/William_J._Cunningham_III"
"24","http://dbpedia.org/property/health","Richard F. Daines"
"25","http://dbpedia.org/property/inspgen","http://dbpedia.org/resource/Joseph_Fisch"
"26","http://dbpedia.org/property/insurance","Eric R. Dinallo"
"27","http://dbpedia.org/property/labor","M. Patricia Smith"
"28","http://dbpedia.org/property/lieutenant","Richard Ravitch",,"x"
"29","http://dbpedia.org/property/lieutenant","Vacant"
"30","http://dbpedia.org/property/lieutenantGovernor","Richard Ravitch"
"31","http://dbpedia.org/property/mil","Major general (United States)"
"32","http://dbpedia.org/property/mil","Joseph J. Taluto"
"33","http://dbpedia.org/property/office","Governor of New York"
"34","http://dbpedia.org/property/office","from the 30th district"
"35","http://dbpedia.org/property/office","New York State Senate"
"36","http://dbpedia.org/property/office","Lieutenant Governor of New York"
"37","http://dbpedia.org/property/operations","http://dbpedia.org/resource/Dennis_Whalen"
"38","http://dbpedia.org/property/parents","Basil Paterson & Portia Paterson","x","x"
"39","http://dbpedia.org/property/party","Democratic Party (United States)","x","x"
"40","http://dbpedia.org/property/placeOfBirth","Brooklyn, New York","x","x"
"41","http://dbpedia.org/property/predecessor","Martin Connor",,"x"
"42","http://dbpedia.org/property/predecessor","Mary Donohue"
"43","http://dbpedia.org/property/predecessor","Eliot Spitzer"
"44","http://dbpedia.org/property/predecessor","Leon Bogues"
"45","http://dbpedia.org/property/publicService","Garry A. Brown"
"46","http://www.w3.org/2000/01/rdf-schema#seeAlso","Capital punishment"
"47","http://www.w3.org/2000/01/rdf-schema#seeAlso","New York"
"48","http://www.w3.org/2000/01/rdf-schema#seeAlso","Executive Chamber of David Paterson"
"49","http://www.w3.org/2000/01/rdf-schema#seeAlso","2009 New York State Senate leadership crisis"
"50","http://dbpedia.org/property/shortDescription","Governor of New York"
"51","http://dbpedia.org/property/spouse","Michelle Paige Paterson","x","x"
"52","http://dbpedia.org/property/state","expanded"
"53","http://dbpedia.org/property/state","Ruth NoemÃ ColÃ³n"
"54","http://dbpedia.org/property/successor","Joseph Bruno",,"x"
"55","http://dbpedia.org/property/successor","Andrew Cuomo"
"56","http://dbpedia.org/property/successor","Malcolm Smith (U.S. politician)"
"57","http://dbpedia.org/property/successor","Bill Perkins (politician)"
"58","http://dbpedia.org/property/tax","New York State Department of Taxation and Finance"
"59","http://dbpedia.org/property/title","New York State Senate","x","x"
"60","http://dbpedia.org/property/title","Lieutenant Governor of New York"
"61","http://dbpedia.org/property/title","Governor of New York"
"62","http://dbpedia.org/property/transportation","http://dbpedia.org/resource/Astrid_C._Glynn"
"type","person, politician"
"Wiki article link","https://en.wikipedia.org/wiki/David_Paterson"
