"ID","Property","Value","5 triple summary","10 triple summary"
"1","http://dbpedia.org/property/company","Disney Television Animation","x","x"
"2","http://dbpedia.org/property/company","Walt Disney Television Animation"
"3","http://dbpedia.org/property/foundation","December 1984","x","x"
"4","http://dbpedia.org/property/founder","Gary Krisel","x","x"
"5","http://xmlns.com/foaf/0.1/homepage","http://www.disneyabctv.com/division/index_tvanima.shtml"
"6","http://dbpedia.org/property/homepage","http://www.disneyabctv.com/division/index_tvanima.shtml"
"7","http://dbpedia.org/ontology/industry","Television",,"x"
"8","http://dbpedia.org/ontology/industry","Flash animation",,"x"
"9","http://dbpedia.org/ontology/industry","Traditional animation"
"10","http://dbpedia.org/ontology/industry","Computer-generated imagery"
"11","http://dbpedia.org/property/industry","Television"
"12","http://dbpedia.org/property/industry","Flash animation"
"13","http://dbpedia.org/property/industry","Traditional animation"
"14","http://dbpedia.org/property/industry","Computer-generated imagery"
"15","http://dbpedia.org/property/keyPeople","Mike Moon","x","x"
"16","http://dbpedia.org/property/keyPeople","Eric Coleman"
"17","http://dbpedia.org/property/keyPeople","Lisa Salamone"
"18","http://dbpedia.org/ontology/keyPerson","Vice president"
"19","http://dbpedia.org/ontology/locationCity","California"
"20","http://dbpedia.org/ontology/locationCity","Glendale, California"
"21","http://dbpedia.org/property/locationCity","California"
"22","http://dbpedia.org/property/locationCity","Glendale, California","x","x"
"23","http://dbpedia.org/ontology/locationCountry","United States"
"24","http://dbpedia.org/property/locationCountry","United States"
"25","http://dbpedia.org/property/parent","Disney Channels Worldwide"
"26","http://dbpedia.org/ontology/parentCompany","Disney Channels Worldwide"
"27","http://dbpedia.org/ontology/parentCompany","http://dbpedia.org/resource/Disneyâ€“ABC_Television_Group"
"28","http://dbpedia.org/ontology/product","Animated series",,"x"
"29","http://dbpedia.org/ontology/product","Television special",,"x"
"30","http://dbpedia.org/ontology/product","List of animated feature films",,"x"
"31","http://dbpedia.org/property/products","Animated television series, films and specials"
"32","http://dbpedia.org/ontology/type","Subsidiary"
"33","http://dbpedia.org/property/type","Subsidiary"
"type","company, animation company"
"Wiki article link","https://en.wikipedia.org/wiki/Disney_Television_Animation"
