"ID","Property","Value","5 triple summary","10 triple summary"
"1","http://dbpedia.org/property/artist","Shirley Walker"
"2","http://dbpedia.org/ontology/cinematography","Robert McLachlan (cinematographer)"
"3","http://dbpedia.org/property/cinematography","Robert McLachlan (cinematographer)"
"4","http://dbpedia.org/property/country","United States","x","x"
"5","http://dbpedia.org/ontology/director","James Wong (producer)","x","x"
"6","http://dbpedia.org/property/director","James Wong (producer)"
"7","http://dbpedia.org/ontology/distributor","New Line Cinema",,"x"
"8","http://dbpedia.org/property/distributor","New Line Cinema"
"9","http://dbpedia.org/property/distributor","StudioCanal"
"10","http://dbpedia.org/ontology/editing","James Coblentz"
"11","http://dbpedia.org/property/editing","James Coblentz"
"12","http://dbpedia.org/property/genre","Film score"
"13","http://dbpedia.org/property/language","English","x","x"
"14","http://dbpedia.org/property/lastAlbum","Superman: The Animated Series"
"15","http://dbpedia.org/property/music","Shirley Walker"
"16","http://dbpedia.org/ontology/musicComposer","Shirley Walker",,"x"
"17","http://dbpedia.org/property/nextAlbum","Final Destination 2: Original Motion Picture Score"
"18","http://dbpedia.org/property/producer","Craig Perry","x","x"
"19","http://dbpedia.org/property/producer","Warren Zide"
"20","http://dbpedia.org/ontology/producer","Glen Morgan"
"21","http://dbpedia.org/property/producer","Glen Morgan"
"22","http://dbpedia.org/property/quote","""Providing itself some laughs and scares, Final Destination is a flawed but often entertaining teen horror flick""."
"23","http://dbpedia.org/property/salign","left"
"24","http://dbpedia.org/property/screenplay","James Wong"
"25","http://dbpedia.org/property/screenplay","Glen Morgan"
"26","http://dbpedia.org/property/screenplay","Jeffrey Reddick"
"27","http://dbpedia.org/ontology/starring","Devon Sawa","x","x"
"28","http://dbpedia.org/ontology/starring","Kerr Smith"
"29","http://dbpedia.org/ontology/starring","Tony Todd"
"30","http://dbpedia.org/ontology/starring","Ali Larter"
"31","http://dbpedia.org/property/starring","Devon Sawa"
"32","http://dbpedia.org/property/starring","Kerr Smith"
"33","http://dbpedia.org/property/starring","Tony Todd"
"34","http://dbpedia.org/property/starring","Ali Larter"
"35","http://dbpedia.org/property/story","Jeffrey Reddick",,"x"
"36","http://dbpedia.org/property/studio","James Wong (producer)",,"x"
"37","http://dbpedia.org/property/studio","Zide/Perry Productions"
"38","http://dbpedia.org/property/thisAlbum","Final Destination: The Complete Original Motion Picture Score"
"39","http://dbpedia.org/ontology/writer","James Wong (producer)",,"x"
"40","http://dbpedia.org/ontology/writer","Glen Morgan"
"41","http://dbpedia.org/ontology/writer","Jeffrey Reddick"
"type","film"
"Wiki article link","https://en.wikipedia.org/wiki/Final_Destination_(film)"
