"ID","Property","Value","5 triple summary","10 triple summary"
"1","http://dbpedia.org/property/center","Millennium Park","x","x"
"2","http://dbpedia.org/property/east","Maggie Daley Park"
"3","http://dbpedia.org/property/footer","Lake Front Park in 1883;  Art Institute of Chicago in 1893, showing a structure on the Millennium Park site , railroad tracks, and Lake Michigan covering most of Grant Park",,"x"
"4","http://dbpedia.org/property/image","Art Institute 1893.gif"
"5","http://dbpedia.org/property/image","Grant Park from Sears Tower in 1981.jpg"
"6","http://dbpedia.org/property/image","Grant Park rail lines in 1981.jpg"
"7","http://dbpedia.org/property/image","Lake Shore Park 1883.JPG"
"8","http://dbpedia.org/ontology/location","Chicago"
"9","http://dbpedia.org/ontology/location","Grant Park (Chicago)","x","x"
"10","http://dbpedia.org/ontology/location","Illinois"
"11","http://dbpedia.org/property/location","Chicago"
"12","http://dbpedia.org/property/location","Grant Park (Chicago)"
"13","http://dbpedia.org/property/location","Illinois"
"14","http://dbpedia.org/property/map","Millennium Park location.png","x","x"
"15","http://dbpedia.org/property/mapCaption","Map of Millennium Park"
"16","http://dbpedia.org/property/north","Aon Center (Chicago)"
"17","http://dbpedia.org/property/northeast","Blue Cross Blue Shield Tower"
"18","http://dbpedia.org/property/northwest","Two Prudential Plaza"
"19","http://dbpedia.org/property/operator","Chicago Department of Cultural Affairs"
"20","http://dbpedia.org/property/photoCaption","Millennium Park as seen from the north in 2005"
"21","http://dbpedia.org/property/publictransit","Millennium Station",,"x"
"22","http://dbpedia.org/property/south","Art Institute of Chicago"
"23","http://dbpedia.org/property/southeast","Grant Park (Chicago)"
"24","http://dbpedia.org/property/southwest","Chicago Loop"
"25","http://dbpedia.org/property/southwest","Historic Michigan Boulevard District"
"26","http://dbpedia.org/property/status","Open all year",,"x"
"27","http://dbpedia.org/ontology/type","Urban park","x","x"
"28","http://dbpedia.org/property/type","Urban park"
"29","http://dbpedia.org/property/website","http://www.millenniumpark.org/","x","x"
"30","http://dbpedia.org/property/west","Chicago Loop",,"x"
"31","http://dbpedia.org/property/west","Historic Michigan Boulevard District",,"x"
"type","place, park"
"Wiki article link","https://en.wikipedia.org/wiki/Millennium_Park"
