"ID","Property","Value","5 triple summary","10 triple summary"
"1","http://dbpedia.org/ontology/academicAdvisor","Franz Brentano","x","x"
"2","http://dbpedia.org/ontology/academicAdvisor","http://dbpedia.org/resource/Ernst_Wilhelm_von_BrÃ¼cke"
"3","http://dbpedia.org/ontology/academicAdvisor","Carl Friedrich Wilhelm Claus"
"4","http://dbpedia.org/property/almaMater","University of Vienna",,"x"
"5","http://dbpedia.org/ontology/award","Royal Society","x","x"
"6","http://dbpedia.org/ontology/award","Goethe Prize"
"7","http://dbpedia.org/ontology/birthPlace","Czech Republic",,"x"
"8","http://dbpedia.org/ontology/birthPlace","Moravia"
"9","http://dbpedia.org/ontology/birthPlace","Silesia"
"10","http://dbpedia.org/ontology/birthPlace","Austrian Empire"
"11","http://dbpedia.org/ontology/birthPlace","http://dbpedia.org/resource/PÅ™Ãbor"
"12","http://dbpedia.org/property/birthPlace","Moravia"
"13","http://dbpedia.org/property/birthPlace","Austrian Empire"
"14","http://dbpedia.org/property/birthPlace","PÅ™Ãbor"
"15","http://dbpedia.org/property/deathPlace","London, England",,"x"
"16","http://dbpedia.org/ontology/deathPlace","London"
"17","http://dbpedia.org/ontology/field","Psychotherapy","x","x"
"18","http://dbpedia.org/ontology/field","Neurology"
"19","http://dbpedia.org/ontology/field","Psychoanalysis"
"20","http://dbpedia.org/property/knownFor","Psychoanalysis","x","x"
"21","http://dbpedia.org/ontology/knownFor","Psychoanalysis"
"22","http://dbpedia.org/ontology/nationality","Austrians","x","x"
"23","http://dbpedia.org/property/nationality","Austrians"
"24","http://dbpedia.org/property/placeOfBirth","Freiberg , Moravia, Slezsko, Czech Republic"
"25","http://dbpedia.org/property/placeOfDeath","London"
"26","http://dbpedia.org/property/shortDescription","Neurologist"
"27","http://dbpedia.org/ontology/spouse","Martha Bernays",,"x"
"28","http://dbpedia.org/property/spouse","Martha Bernays"
"29","http://dbpedia.org/property/title","List of covers of Time magazine (1920s)"
"30","http://dbpedia.org/property/workplaces","University of Vienna",,"x"
"type","person, neurologist"
"Wiki article link","https://en.wikipedia.org/wiki/Sigmund_Freud"
