"ID","Property","Value","5 triple summary","10 triple summary"
"3","http://dbpedia.org/ontology/editor","Alan Rusbridger",,"x"
"4","http://dbpedia.org/property/editor","Alan Rusbridger"
"5","http://dbpedia.org/ontology/format","Berliner (format)","x","x"
"6","http://dbpedia.org/property/format","Berliner (format)"
"7","http://dbpedia.org/ontology/headquarter","Kings Place","x","x"
"8","http://dbpedia.org/property/headquarters","Kings Place, 90 York Way, London N1 9GU"
"9","http://xmlns.com/foaf/0.1/homepage","http://theguardian.com"
"10","http://dbpedia.org/property/language","English","x","x"
"11","http://dbpedia.org/property/opeditor","Mark Henry",,"x"
"12","http://dbpedia.org/ontology/owner","Guardian Media Group","x","x"
"13","http://dbpedia.org/property/owners","Guardian Media Group"
"14","http://dbpedia.org/property/political","Liberalism in the United Kingdom","x","x"
"15","http://dbpedia.org/property/political","Centre-left"
"16","http://dbpedia.org/property/publisher","Guardian News and Media",,"x"
"17","http://www.w3.org/2000/01/rdf-schema#seeAlso","Journalists of The Guardian"
"18","http://dbpedia.org/ontology/sisterNewspaper","The Observer",,"x"
"19","http://dbpedia.org/ontology/sisterNewspaper","The Guardian Weekly"
"20","http://dbpedia.org/property/sisterNewspapers","The Observer"
"21","http://dbpedia.org/property/sisterNewspapers","The Guardian Weekly"
"22","http://dbpedia.org/property/website","http://theguardian.com",,"x"
"type","newspaper"
"Wiki article link","https://en.wikipedia.org/wiki/The_Guardian"
