"ID","Property","Value","5 triple summary","10 triple summary"
"1","http://dbpedia.org/ontology/basedOn","Captain America","x","x"
"2","http://dbpedia.org/ontology/basedOn","Jack Kirby","x","x"
"3","http://dbpedia.org/ontology/basedOn","Avengers (comics)"
"4","http://dbpedia.org/ontology/cinematography","Seamus McGarvey","x","x"
"5","http://dbpedia.org/property/cinematography","Seamus McGarvey"
"6","http://dbpedia.org/property/country","United States"
"7","http://dbpedia.org/ontology/director","Joss Whedon"
"8","http://dbpedia.org/property/director","Joss Whedon"
"9","http://dbpedia.org/property/distributor","Walt Disney StudiosMotion Pictures",,"x"
"10","http://dbpedia.org/ontology/distributor","Walt Disney Studios Motion Pictures"
"11","http://dbpedia.org/ontology/editing","Jeffrey Ford (film editor)",,"x"
"12","http://dbpedia.org/ontology/editing","Lisa Lassek"
"13","http://dbpedia.org/property/image","Avengers Park Avenue film set.jpg"
"14","http://dbpedia.org/property/image","Avengers on E 9th.jpg"
"15","http://dbpedia.org/property/language","English"
"16","http://dbpedia.org/property/music","Alan Silvestri",,"x"
"17","http://dbpedia.org/ontology/musicComposer","Alan Silvestri"
"18","http://dbpedia.org/ontology/producer","Kevin Feige",,"x"
"19","http://dbpedia.org/property/producer","Kevin Feige"
"20","http://dbpedia.org/property/screenplay","Joss Whedon",,"x"
"21","http://dbpedia.org/ontology/starring","Robert Downey, Jr."
"22","http://dbpedia.org/ontology/starring","Samuel L. Jackson"
"23","http://dbpedia.org/ontology/starring","Chris Hemsworth"
"24","http://dbpedia.org/ontology/starring","Mark Ruffalo"
"25","http://dbpedia.org/ontology/starring","Chris Evans (actor)"
"26","http://dbpedia.org/ontology/starring","Clark Gregg"
"27","http://dbpedia.org/ontology/starring","Cobie Smulders"
"28","http://dbpedia.org/ontology/starring","Jeremy Renner"
"29","http://dbpedia.org/ontology/starring","Tom Hiddleston"
"30","http://dbpedia.org/ontology/starring","Scarlett Johansson"
"31","http://dbpedia.org/ontology/starring","http://dbpedia.org/resource/Stellan_SkarsgÃ¥rd"
"32","http://dbpedia.org/property/studio","Marvel Studios","x","x"
"33","http://dbpedia.org/ontology/writer","Joss Whedon","x","x"
"type","film"
"Wiki article link","https://en.wikipedia.org/wiki/The_Avengers_%282012_film%29"
