"ID","Property","Value","5 triple summary","10 triple summary"
"1","http://dbpedia.org/property/artist","Various Artists"
"2","http://dbpedia.org/ontology/cinematography","Lawrence Sher"
"3","http://dbpedia.org/property/cinematography","Lawrence Sher"
"4","http://dbpedia.org/property/country","United States","x","x"
"5","http://dbpedia.org/ontology/director","Todd Phillips","x","x"
"6","http://dbpedia.org/property/director","Todd Phillips"
"7","http://dbpedia.org/ontology/distributor","Warner Bros.",,"x"
"8","http://dbpedia.org/property/distributor","Warner Bros."
"9","http://dbpedia.org/property/editing","Jeff Groth",,"x"
"10","http://dbpedia.org/property/editing","Debra Neil-Fisher"
"11","http://dbpedia.org/property/extra","Ken Jeong"
"12","http://dbpedia.org/property/extra","Fletcher Sheridan"
"13","http://dbpedia.org/property/extra","ASAP Rocky featuring 2 Chainz, Drake & Kendrick Lamar"
"14","http://dbpedia.org/property/extra","Billy Joel"
"15","http://dbpedia.org/property/extra","Danzig (band)"
"16","http://dbpedia.org/property/extra","Hanson (band)"
"17","http://dbpedia.org/property/extra","Harry Nilsson"
"18","http://dbpedia.org/property/extra","The Coasters"
"19","http://dbpedia.org/property/extra","The Cramps"
"20","http://dbpedia.org/property/extra","Ken Jeong"
"21","http://dbpedia.org/property/genre","Soundtrack"
"22","http://dbpedia.org/property/label","WaterTower Music",,"x"
"23","http://dbpedia.org/property/language","English","x","x"
"24","http://dbpedia.org/property/music","Christophe Beck"
"25","http://dbpedia.org/ontology/musicComposer","Christophe Beck"
"26","http://dbpedia.org/property/producer","Todd Phillips"
"27","http://dbpedia.org/ontology/producer","Daniel Goldberg (producer)","x","x"
"28","http://dbpedia.org/ontology/producer","Todd Phillips"
"29","http://dbpedia.org/property/producer","Daniel Goldberg (producer)"
"30","http://dbpedia.org/ontology/starring","Heather Graham"
"31","http://dbpedia.org/ontology/starring","Bradley Cooper","x","x"
"32","http://dbpedia.org/ontology/starring","John Goodman"
"33","http://dbpedia.org/ontology/starring","Jeffrey Tambor"
"34","http://dbpedia.org/ontology/starring","Zach Galifianakis"
"35","http://dbpedia.org/ontology/starring","Ed Helms"
"36","http://dbpedia.org/ontology/starring","Justin Bartha"
"37","http://dbpedia.org/ontology/starring","Ken Jeong"
"38","http://dbpedia.org/property/starring","Heather Graham"
"39","http://dbpedia.org/property/starring","Bradley Cooper"
"40","http://dbpedia.org/property/starring","John Goodman"
"41","http://dbpedia.org/property/starring","Jeffrey Tambor"
"42","http://dbpedia.org/property/starring","Zach Galifianakis"
"43","http://dbpedia.org/property/starring","Ed Helms"
"44","http://dbpedia.org/property/starring","Justin Bartha"
"45","http://dbpedia.org/property/starring","Ken Jeong"
"46","http://dbpedia.org/property/studio","Green Hat Films",,"x"
"47","http://dbpedia.org/property/studio","Legendary Pictures"
"48","http://dbpedia.org/property/title","Hail Mary"
"49","http://dbpedia.org/property/title","MMMBop"
"50","http://dbpedia.org/property/title","Down in Mexico"
"51","http://dbpedia.org/property/title","Fever (Little Willie John song)"
"52","http://dbpedia.org/property/title","Mother (Danzig song)"
"53","http://dbpedia.org/property/title","I Believe I Can Fly"
"54","http://dbpedia.org/property/title","Everybody's Talkin'"
"55","http://dbpedia.org/property/title","Hurt (Nine Inch Nails song)"
"56","http://dbpedia.org/property/title","My Life (Billy Joel song)"
"57","http://dbpedia.org/property/title","Fuckin' Problems"
"58","http://dbpedia.org/property/type","Soundtrack"
"59","http://dbpedia.org/property/writer","Todd Phillips",,"x"
"60","http://dbpedia.org/ontology/writer","Craig Mazin"
"61","http://dbpedia.org/ontology/writer","Todd Phillips"
"62","http://dbpedia.org/property/writer","Craig Mazin"
"type","film"
"Wiki article link","https://en.wikipedia.org/wiki/The_Hangover_Part_III"
