"ID","Property","Value","5 triple summary","10 triple summary"
"1","http://dbpedia.org/property/areaServed","Worldwide"
"2","http://dbpedia.org/property/foundation","Columbus, Ohio, United States","x","x"
"3","http://dbpedia.org/ontology/foundationPlace","Columbus, Ohio"
"4","http://dbpedia.org/ontology/foundationPlace","United States"
"5","http://dbpedia.org/ontology/foundedBy","Dave Thomas (businessperson)","x","x"
"6","http://dbpedia.org/property/founder","Dave Thomas (businessperson)"
"7","http://xmlns.com/foaf/0.1/homepage","http://www.wendys.com/","x","x"
"8","http://dbpedia.org/property/homepage","http://www.wendys.com/"
"9","http://dbpedia.org/ontology/industry","Restaurant"
"10","http://dbpedia.org/property/industry","Restaurant"
"11","http://dbpedia.org/property/keyPeople","Dave Thomas (Founder)"
"12","http://dbpedia.org/property/keyPeople","Wendy Thomas (namesake)","x","x"
"13","http://dbpedia.org/ontology/keyPerson","Dave Thomas (businessperson)"
"14","http://dbpedia.org/ontology/keyPerson","John T. Schuessler"
"15","http://dbpedia.org/ontology/keyPerson","Wendy Thomas"
"16","http://dbpedia.org/ontology/locationCity","Dublin, Ohio",,"x"
"17","http://dbpedia.org/property/locationCity","Dublin, Ohio"
"18","http://dbpedia.org/ontology/locationCountry","United States"
"19","http://dbpedia.org/property/locationCountry","United States"
"20","http://dbpedia.org/property/parent","The Wendy's Company",,"x"
"21","http://dbpedia.org/ontology/parentCompany","The Wendy's Company"
"22","http://dbpedia.org/ontology/product","French fries"
"23","http://dbpedia.org/ontology/product","Hamburger",,"x"
"24","http://dbpedia.org/ontology/product","Salad"
"25","http://dbpedia.org/ontology/product","Frozen dessert"
"26","http://dbpedia.org/ontology/product","Chicken sandwich",,"x"
"27","http://dbpedia.org/ontology/product","Breakfast sandwich","x","x"
"28","http://dbpedia.org/property/products","French fries"
"29","http://dbpedia.org/property/products","Hamburger"
"30","http://dbpedia.org/property/products","Salad"
"31","http://dbpedia.org/property/products","Frozen dessert"
"32","http://dbpedia.org/property/products","Chicken sandwich"
"33","http://dbpedia.org/property/products","Breakfast sandwich"
"34","http://dbpedia.org/ontology/regionServed","World",,"x"
"35","http://dbpedia.org/ontology/type","Subsidiary"
"36","http://dbpedia.org/property/type","Subsidiary"
"type","restaurant chain, company"
"Wiki article link","https://en.wikipedia.org/wiki/Wendy's"
