"ID","Property","Value","5 triple summary","10 triple summary"
"1","http://dbpedia.org/property/after","""Hung Up"" by Madonna"
"2","http://dbpedia.org/property/after","""The First Cut Is the Deepest"" by Sheryl Crow"
"3","http://dbpedia.org/property/after","""My Humps"" by The Black Eyed Peas"
"4","http://dbpedia.org/ontology/album","Once in a Red Moon","x","x"
"5","http://dbpedia.org/property/album","Once in a Red Moon"
"6","http://dbpedia.org/ontology/artist","Secret Garden (duo)"
"7","http://dbpedia.org/property/artist","Josh Groban",,"x"
"8","http://dbpedia.org/property/artist","Secret Garden (duo)"
"9","http://dbpedia.org/property/artist","Westlife",,"x"
"10","http://dbpedia.org/property/artist","Wesley Klein"
"11","http://dbpedia.org/property/before","""The First Cut Is the Deepest"" by Sheryl Crow",,"x"
"12","http://dbpedia.org/property/before","""Forever and for Always"" by Shania Twain"
"13","http://dbpedia.org/property/before","""Push the Button"" by the Sugababes"
"14","http://dbpedia.org/property/before","""I Bet You Look Good on the Dancefloor"" by Arctic Monkeys"
"15","http://dbpedia.org/property/cover","Wesley_Klein_-_You_Raise_Me_Up.jpg"
"16","http://dbpedia.org/property/cover","Westlife_-_You_Raise_Me_Up_.jpg"
"17","http://dbpedia.org/property/format","CD Single"
"18","http://dbpedia.org/property/fromAlbum","Vandaag en morgen"
"19","http://dbpedia.org/property/fromAlbum","Closer (Josh Groban album)"
"20","http://dbpedia.org/property/fromAlbum","Face to Face (Westlife album)"
"21","http://dbpedia.org/ontology/genre","Contemporary Christian music","x","x"
"22","http://dbpedia.org/property/genre","Contemporary Christian music"
"23","http://dbpedia.org/property/genre","Pop music"
"24","http://dbpedia.org/property/genre","Operatic pop"
"25","http://dbpedia.org/property/label","Reprise Records"
"26","http://dbpedia.org/property/label","Sony BMG"
"27","http://dbpedia.org/property/label","Warner Bros. Records",,"x"
"28","http://dbpedia.org/property/lastSingle","""Obvious"""
"29","http://dbpedia.org/property/lastSingle","""You're Still You"""
"30","http://dbpedia.org/property/next","""Silent Wings"""
"31","http://dbpedia.org/property/nextSingle","""Een ongelofelijke droom"""
"32","http://dbpedia.org/property/nextSingle","""Remember When It Rained"""
"33","http://dbpedia.org/property/nextSingle","""When You Tell Me That You Love Me"""
"34","http://dbpedia.org/property/prev","""Awakening"""
"35","http://dbpedia.org/property/producer","Steve Mac"
"36","http://dbpedia.org/ontology/producer","Decca Records",,"x"
"37","http://dbpedia.org/property/producer","Decca Records"
"38","http://dbpedia.org/property/producer","David Foster"
"39","http://dbpedia.org/property/recorded","Rokstone Studios, London 2004"
"40","http://dbpedia.org/property/thisSingle","""You Raise Me Up"""
"41","http://dbpedia.org/property/title","UK Singles Chart","x","x"
"42","http://dbpedia.org/property/title","2005 in British music","x","x"
"43","http://dbpedia.org/property/title","List of number-one singles of 2005 (Ireland)"
"44","http://dbpedia.org/property/title","Irish Singles Chart"
"45","http://dbpedia.org/ontology/writer","http://dbpedia.org/resource/Rolf_LÃ¸vland"
"46","http://dbpedia.org/ontology/writer","Brendan Graham"
"47","http://dbpedia.org/property/writer","Rolf LÃ¸vland"
"48","http://dbpedia.org/property/writer","Brendan Graham","x","x"
"type","song"
"Wiki article link","https://en.wikipedia.org/wiki/You_Raise_Me_Up"
