"ID","Property","Value","5 triple summary","10 triple summary"
"1","http://dbpedia.org/property/audioFormat","Stereophonic sound"
"2","http://dbpedia.org/property/camera","Multiple-camera setup"
"3","http://dbpedia.org/property/company","Cox Broadcasting"
"4","http://dbpedia.org/property/company","TeleRep"
"5","http://dbpedia.org/property/company","in association with:"
"6","http://dbpedia.org/ontology/company","Taft Broadcasting"
"7","http://dbpedia.org/ontology/company","CBS Television Distribution"
"8","http://dbpedia.org/ontology/company","CBS Paramount Domestic Television"
"9","http://dbpedia.org/ontology/company","Paramount Domestic Television",,"x"
"10","http://dbpedia.org/property/company","Taft Broadcasting"
"11","http://dbpedia.org/property/company","CBS Television Distribution"
"12","http://dbpedia.org/property/company","CBS Paramount Domestic Television"
"13","http://dbpedia.org/property/company","Paramount Domestic Television"
"14","http://dbpedia.org/ontology/composer","Will.i.am"
"15","http://dbpedia.org/ontology/composer","Michael Mark (musician)"
"16","http://dbpedia.org/ontology/country","United States","x","x"
"17","http://dbpedia.org/property/country","United States"
"18","http://dbpedia.org/ontology/creator","Al Masini","x","x"
"19","http://dbpedia.org/property/creator","Al Masini"
"20","http://dbpedia.org/property/distributor","CBS Television Distribution",,"x"
"21","http://dbpedia.org/ontology/distributor","CBS Paramount Domestic Television"
"22","http://dbpedia.org/ontology/distributor","Paramount Domestic Television"
"23","http://dbpedia.org/property/distributor","CBS Paramount Domestic Television",,"x"
"24","http://dbpedia.org/property/distributor","Paramount Domestic Television"
"25","http://dbpedia.org/property/executiveProducer","Brad Bessey, Linda Fuller",,"x"
"26","http://dbpedia.org/ontology/format","NTSC"
"27","http://dbpedia.org/ontology/format","Stereophonic sound"
"28","http://dbpedia.org/ontology/format","High-definition television"
"29","http://dbpedia.org/ontology/format","Entertainment journalism"
"30","http://dbpedia.org/property/format","News broadcasting"
"31","http://dbpedia.org/property/format","Entertainment journalism"
"32","http://xmlns.com/foaf/0.1/homepage","http://www.etonline.com",,"x"
"33","http://dbpedia.org/ontology/language","English language","x","x"
"34","http://dbpedia.org/property/language","English language"
"35","http://dbpedia.org/property/lastAired","present"
"36","http://dbpedia.org/ontology/network","Broadcast syndication","x","x"
"37","http://dbpedia.org/property/network","Broadcast syndication"
"38","http://dbpedia.org/property/pictureFormat","NTSC"
"39","http://dbpedia.org/property/pictureFormat","High-definition television"
"40","http://dbpedia.org/property/pictureFormat","1080i"
"41","http://dbpedia.org/property/presenter","Nancy O'Dell"
"42","http://dbpedia.org/property/presenter","Kevin Frazier"
"43","http://dbpedia.org/property/presenter","Brooke Anderson"
"44","http://dbpedia.org/property/presenter","Rocsi Diaz"
"45","http://dbpedia.org/property/presenter","Weekday edition:"
"46","http://dbpedia.org/property/presenter","Weekend edition:"
"47","http://dbpedia.org/ontology/presenter","Kevin Frazier"
"48","http://dbpedia.org/ontology/presenter","Rocsi Diaz"
"49","http://dbpedia.org/ontology/presenter","Nancy O'Dell"
"50","http://dbpedia.org/ontology/presenter","Brooke Anderson"
"51","http://dbpedia.org/property/themeMusicComposer","Will.i.am"
"52","http://dbpedia.org/property/themeMusicComposer","Michael Mark (musician)"
"53","http://dbpedia.org/property/website","http://www.etonline.com","x","x"
"type","tv program"
"Wiki article link","https://en.wikipedia.org/wiki/Entertainment_Tonight"
