"ID","Property","Value","5 triple summary","10 triple summary"
"1","http://dbpedia.org/property/after","Orrin Hatch",,"x"
"2","http://dbpedia.org/property/after","John Roberts"
"3","http://dbpedia.org/property/almaMater","Xavier University","x","x"
"4","http://dbpedia.org/property/as","Chief Justice of the United States"
"5","http://dbpedia.org/property/as","President pro tempore of the United States Senate"
"6","http://dbpedia.org/property/assets","john-boehner"
"7","http://dbpedia.org/property/ballot","John_A._Boehner"
"8","http://dbpedia.org/property/before","Joe Biden",,"x"
"9","http://dbpedia.org/ontology/birthPlace","Reading, Ohio","x","x"
"10","http://dbpedia.org/property/birthPlace","Ohio"
"11","http://dbpedia.org/property/birthPlace","Reading, Ohio"
"12","http://dbpedia.org/property/birthPlace","United States"
"13","http://dbpedia.org/property/bloomberg","john-boehner"
"14","http://dbpedia.org/property/children","Lindsay"
"15","http://dbpedia.org/property/children","Tricia"
"16","http://dbpedia.org/property/congress","john-boehner/102"
"17","http://dbpedia.org/property/dateOfDeath","living"
"18","http://dbpedia.org/property/deputy","Eric Cantor"
"19","http://dbpedia.org/property/deputy","Roy Blunt"
"20","http://dbpedia.org/property/guardian","world/john-boehner"
"21","http://dbpedia.org/property/office","Chairperson of the House Education Committee","x","x"
"22","http://dbpedia.org/property/office","Republican Conference Chairman of the United States House of Representatives"
"23","http://dbpedia.org/property/office","Party leaders of the United States House of Representatives"
"24","http://dbpedia.org/property/party","Republican Party (United States)","x","x"
"25","http://dbpedia.org/property/placeOfBirth","Reading, Ohio"
"26","http://dbpedia.org/property/politifact","john-boehner"
"27","http://dbpedia.org/property/predecessor","Roy Blunt",,"x"
"28","http://dbpedia.org/property/predecessor","Nancy Pelosi"
"29","http://dbpedia.org/property/predecessor","Buz Lukens"
"30","http://dbpedia.org/property/predecessor","Dick Armey"
"31","http://dbpedia.org/property/predecessor","William F. Goodling"
"32","http://dbpedia.org/property/predecessor","Bill Donham"
"33","http://dbpedia.org/property/president","Barack Obama"
"34","http://www.w3.org/2000/01/rdf-schema#seeAlso","2008"
"35","http://www.w3.org/2000/01/rdf-schema#seeAlso","2010"
"36","http://www.w3.org/2000/01/rdf-schema#seeAlso","Ohio"
"37","http://www.w3.org/2000/01/rdf-schema#seeAlso","Elections in the United States"
"38","http://www.w3.org/2000/01/rdf-schema#seeAlso","2006"
"39","http://dbpedia.org/property/religion","Catholic Church"
"40","http://dbpedia.org/property/shortDescription","Ohio politician",,"x"
"41","http://dbpedia.org/property/spouse","Deborah Gunlack",,"x"
"42","http://dbpedia.org/property/state","Ohio"
"43","http://dbpedia.org/property/stateHouse","Ohio"
"44","http://dbpedia.org/property/successor","Nancy Pelosi"
"45","http://dbpedia.org/property/successor","Buck McKeon"
"46","http://dbpedia.org/property/successor","Steny Hoyer"
"47","http://dbpedia.org/property/successor","J. C. Watts"
"48","http://dbpedia.org/property/successor","Scott Nein"
"49","http://dbpedia.org/property/title","Speaker of the United States House of Representatives","x","x"
"50","http://dbpedia.org/property/title","List of current members of the United States House of Representatives by seniority"
"51","http://dbpedia.org/property/title","United States order of precedence"
"52","http://dbpedia.org/property/title","Republican Conference Chairman of the United States House of Representatives"
"53","http://dbpedia.org/property/title","Party leaders of the United States House of Representatives"
"54","http://dbpedia.org/property/website","http://boehner.house.gov"
"55","http://dbpedia.org/property/website","http://www.johnboehner.com"
"56","http://dbpedia.org/property/website","http://www.speaker.gov"
"type","person, politician"
"Wiki article link","https://en.wikipedia.org/wiki/John_Boehner"
