"ID","Property","Value","5 triple summary","10 triple summary"
"1","http://dbpedia.org/ontology/anthem","Sri Lanka Matha",,"x"
"2","http://dbpedia.org/property/callingCode","Telephone numbers in Sri Lanka"
"3","http://dbpedia.org/ontology/capital","Colombo","x","x"
"4","http://dbpedia.org/ontology/capital","Sri Jayawardenepura Kotte"
"5","http://dbpedia.org/ontology/currency","Sri Lankan rupee","x","x"
"6","http://dbpedia.org/property/currency","Sri Lankan rupee"
"7","http://dbpedia.org/property/currencyCode","LKR"
"8","http://dbpedia.org/ontology/demonym","Sri Lankan"
"9","http://dbpedia.org/property/demonym","Sri Lankan"
"10","http://dbpedia.org/property/drivesOn","Right- and left-hand traffic"
"11","http://dbpedia.org/property/establishedEvent","Republic"
"12","http://dbpedia.org/property/establishedEvent","Dominion of Ceylon",,"x"
"13","http://dbpedia.org/ontology/flag","Flag of Sri Lanka.svg"
"14","http://dbpedia.org/ontology/governmentType","Unitary state","x","x"
"15","http://dbpedia.org/property/governmentType","Semi-presidential system"
"16","http://dbpedia.org/property/governmentType","Unitary state"
"17","http://dbpedia.org/property/governmentType","Constitution of Sri Lanka"
"18","http://dbpedia.org/property/hdiChange","increase"
"19","http://dbpedia.org/property/imageCoat","Emblem of Sri Lanka.svg"
"20","http://dbpedia.org/property/imageFlag","Flag of Sri Lanka.svg"
"21","http://dbpedia.org/property/imageMap","Sri Lanka - Location Map  - LKA - UNOCHA.svg"
"22","http://dbpedia.org/property/imageMap","Sri Lanka .svg"
"23","http://dbpedia.org/ontology/language","Sinhala language","x","x"
"24","http://dbpedia.org/property/languages","English language"
"25","http://dbpedia.org/ontology/largestCity","Colombo",,"x"
"26","http://dbpedia.org/ontology/leader","Ranil Wickremesinghe","x","x"
"27","http://dbpedia.org/ontology/leader","Chamal Rajapaksa"
"28","http://dbpedia.org/ontology/leader","Maithripala Sirisena"
"29","http://dbpedia.org/ontology/leader","K. Sripavan"
"30","http://dbpedia.org/property/leaderName","Ranil Wickremesinghe"
"31","http://dbpedia.org/property/leaderName","Chamal Rajapaksa"
"32","http://dbpedia.org/property/leaderName","Maithripala Sirisena"
"33","http://dbpedia.org/property/leaderName","K. Sripavan"
"34","http://dbpedia.org/ontology/leaderTitle","President"
"35","http://dbpedia.org/ontology/leaderTitle","Chief Justice"
"36","http://dbpedia.org/ontology/leaderTitle","Prime Minister"
"37","http://dbpedia.org/ontology/leaderTitle","Speaker of the Parliament"
"38","http://dbpedia.org/property/leaderTitle","Speaker of the Parliament of Sri Lanka"
"39","http://dbpedia.org/property/leaderTitle","Prime Minister of Sri Lanka"
"40","http://dbpedia.org/property/leaderTitle","President of Sri Lanka"
"41","http://dbpedia.org/property/leaderTitle","Chief Justice of Sri Lanka"
"42","http://dbpedia.org/property/left","religion"
"43","http://dbpedia.org/property/legislature","Parliament of Sri Lanka",,"x"
"44","http://dbpedia.org/property/nationalAnthem","Sri Lanka Matha"
"45","http://dbpedia.org/property/nationalAnthem","File:National Anthem of Sri Lanka by US Navy Band.ogg"
"46","http://dbpedia.org/ontology/officialLanguage","Sinhala language"
"47","http://dbpedia.org/property/officialLanguages","Tamil language"
"48","http://dbpedia.org/property/officialLanguages","Sinhala language"
"49","http://www.w3.org/2000/01/rdf-schema#seeAlso","Agriculture"
"50","http://www.w3.org/2000/01/rdf-schema#seeAlso","Sri Lanka"
"51","http://www.w3.org/2000/01/rdf-schema#seeAlso","South Asian Association for Regional Cooperation"
"52","http://www.w3.org/2000/01/rdf-schema#seeAlso","Sri Lankan Civil War"
"53","http://www.w3.org/2000/01/rdf-schema#seeAlso","Lists of cities"
"54","http://dbpedia.org/property/right","percent"
"55","http://dbpedia.org/property/sovereigntyNote","from the United Kingdom",,"x"
"56","http://dbpedia.org/property/sovereigntyType","History of Sri Lanka"
"57","http://dbpedia.org/property/symbolType","Emblem"
"58","http://dbpedia.org/ontology/timeZone","Sri Lanka Time"
"59","http://dbpedia.org/property/timeZone","Sri Lanka Time"
"type","country"
"Wiki article link","https://en.wikipedia.org/wiki/Sri_Lanka"
