"ID","Property","Value","5 triple summary","10 triple summary"
"1","http://dbpedia.org/ontology/cinematography","Lawrence Sher",,"x"
"2","http://dbpedia.org/property/cinematography","Lawrence Sher"
"3","http://dbpedia.org/property/country","United States",,"x"
"4","http://dbpedia.org/ontology/director","Larry Charles","x","x"
"5","http://dbpedia.org/property/director","Larry Charles"
"6","http://dbpedia.org/ontology/distributor","Paramount Pictures"
"7","http://dbpedia.org/property/distributor","Paramount Pictures"
"8","http://dbpedia.org/property/editing","Greg Hayden",,"x"
"9","http://dbpedia.org/property/editing","Eric Kissack"
"10","http://dbpedia.org/property/extra","Mohamed Amer"
"11","http://dbpedia.org/property/extra","Aiwa, Mr Tibbz & Admiral General Aladeen","x","x"
"12","http://dbpedia.org/property/extra","Jalal Hamdaoui & Cheb Rayan"
"13","http://dbpedia.org/property/extra","Jalal Hamdaoui & Driver"
"14","http://dbpedia.org/property/extra","MC Rai"
"15","http://dbpedia.org/property/extra","The Aladeenies"
"16","http://dbpedia.org/property/extra","Amr Diab"
"17","http://dbpedia.org/property/extra","Ali Hassan Kuban"
"18","http://dbpedia.org/property/extra","Souad Massi"
"19","http://dbpedia.org/property/extra","Khaled (musician)"
"20","http://dbpedia.org/property/language","English"
"21","http://dbpedia.org/property/music","Erran Baron Cohen",,"x"
"22","http://dbpedia.org/ontology/musicComposer","Erran Baron Cohen"
"23","http://dbpedia.org/property/producer","Anthony Hines","x","x"
"24","http://dbpedia.org/property/producer","Todd Schulman"
"25","http://dbpedia.org/ontology/producer","Sacha Baron Cohen"
"26","http://dbpedia.org/ontology/producer","Alec Berg"
"27","http://dbpedia.org/ontology/producer","Scott Rudin"
"28","http://dbpedia.org/ontology/producer","David Mandel"
"29","http://dbpedia.org/ontology/producer","Jeff Schaffer"
"30","http://dbpedia.org/property/producer","Sacha Baron Cohen"
"31","http://dbpedia.org/property/producer","Alec Berg"
"32","http://dbpedia.org/property/producer","Scott Rudin"
"33","http://dbpedia.org/property/producer","David Mandel"
"34","http://dbpedia.org/property/producer","Jeff Schaffer"
"35","http://dbpedia.org/property/starring","Sacha Baron Cohen","x","x"
"36","http://dbpedia.org/ontology/starring","Ben Kingsley"
"37","http://dbpedia.org/ontology/starring","Sacha Baron Cohen"
"38","http://dbpedia.org/ontology/starring","Anna Faris"
"39","http://dbpedia.org/property/starring","Ben Kingsley"
"40","http://dbpedia.org/property/starring","Anna Faris"
"41","http://dbpedia.org/property/studio","Sacha Baron Cohen"
"42","http://dbpedia.org/property/title","Everybody Hurts","x","x"
"43","http://dbpedia.org/property/title","Let's Get It On (song)"
"44","http://dbpedia.org/property/title","The Next Episode"
"45","http://dbpedia.org/property/writer","Sacha Baron Cohen",,"x"
"46","http://dbpedia.org/property/writer","David Mandel"
"47","http://dbpedia.org/property/writer","Alec Berg"
"48","http://dbpedia.org/property/writer","Jeff Schaffer"
"49","http://dbpedia.org/ontology/writer","Sacha Baron Cohen"
"50","http://dbpedia.org/ontology/writer","Alec Berg"
"51","http://dbpedia.org/ontology/writer","David Mandel"
"52","http://dbpedia.org/ontology/writer","Jeff Schaffer"
"type","film"
"Wiki article link","https://en.wikipedia.org/wiki/The_Dictator_(2012_film)"
